<?xml version="1.0" encoding="UTF-8" standalone="no"?>
<!-- Created with Inkscape (http://www.inkscape.org/) -->

<svg
   xmlns:dc="http://purl.org/dc/elements/1.1/"
   xmlns:cc="http://creativecommons.org/ns#"
   xmlns:rdf="http://www.w3.org/1999/02/22-rdf-syntax-ns#"
   xmlns:svg="http://www.w3.org/2000/svg"
   xmlns="http://www.w3.org/2000/svg"
   xmlns:sodipodi="http://sodipodi.sourceforge.net/DTD/sodipodi-0.dtd"
   xmlns:inkscape="http://www.inkscape.org/namespaces/inkscape"
   width="123.23032mm"
   height="110.56721mm"
   viewBox="0 0 436.64285 391.77359"
   id="svg2"
   version="1.1"
   inkscape:version="0.91 r13725"
   sodipodi:docname="convers.svg">
  <defs
     id="defs4" />
  <sodipodi:namedview
     id="base"
     pagecolor="#ffffff"
     bordercolor="#666666"
     borderopacity="1.0"
     inkscape:pageopacity="0.0"
     inkscape:pageshadow="2"
     inkscape:zoom="1"
     inkscape:cx="166.87134"
     inkscape:cy="209.66642"
     inkscape:document-units="px"
     inkscape:current-layer="layer1"
     showgrid="false"
     showguides="true"
     inkscape:guide-bbox="true"
     inkscape:window-width="1276"
     inkscape:window-height="755"
     inkscape:window-x="4"
     inkscape:window-y="1"
     inkscape:window-maximized="1"
     fit-margin-top="0"
     fit-margin-left="0"
     fit-margin-right="0"
     fit-margin-bottom="0" />
  <metadata
     id="metadata7">
    <rdf:RDF>
      <cc:Work
         rdf:about="">
        <dc:format>image/svg+xml</dc:format>
        <dc:type
           rdf:resource="http://purl.org/dc/dcmitype/StillImage" />
        <dc:title></dc:title>
      </cc:Work>
    </rdf:RDF>
  </metadata>
  <g
     inkscape:label="Calque 1"
     inkscape:groupmode="layer"
     id="layer1"
     transform="translate(-145.2536,-192.28058)">
    <g
       id="g4974"
       transform="translate(117.14286,-12.857143)">
      <g
         transform="translate(0,1.8982222e-5)"
         id="g4660" />
    </g>
    <g
       id="g4966"
       transform="translate(117.14286,-12.857143)">
      <g
         transform="translate(0,-23.544571)"
         id="g4665" />
    </g>
    <g
       id="g4326"
       transform="translate(213,27.142857)">
      <ellipse
         transform="scale(-1,1)"
         ry="7.331933"
         rx="3.2800756"
         cy="238.70149"
         cx="-94.000076"
         id="path4154-1-1"
         style="color:#000000;clip-rule:nonzero;display:inline;overflow:visible;visibility:visible;opacity:1;isolation:auto;mix-blend-mode:normal;color-interpolation:sRGB;color-interpolation-filters:linearRGB;solid-color:#000000;solid-opacity:1;fill:#000000;fill-opacity:1;fill-rule:nonzero;stroke:none;stroke-width:5;stroke-linecap:butt;stroke-linejoin:miter;stroke-miterlimit:4;stroke-dasharray:none;stroke-dashoffset:0;stroke-opacity:1;marker:none;color-rendering:auto;image-rendering:auto;shape-rendering:auto;text-rendering:auto;enable-background:accumulate" />
      <g
         id="g4214">
        <path
           style="fill:#000000;fill-rule:evenodd;stroke:#000000;stroke-width:1px;stroke-linecap:butt;stroke-linejoin:miter;stroke-opacity:1"
           d="m 90.74565,299.96935 52.14286,0 c 0,0 -21.07144,-99.82143 -52.14286,0 z"
           id="path4138"
           inkscape:connector-curvature="0"
           sodipodi:nodetypes="ccc" />
        <g
           id="g4205">
          <path
             inkscape:connector-curvature="0"
             id="path4183"
             d="M 140.58532,237.18577 A 23.57143,23.57143 0 0 0 117.1423,215.93331 l 0,0 a 23.57143,23.57143 0 0 0 -23.55078,23.19531 41.331577,13.831576 0 0 1 0.71109,-0.1734"
             style="color:#000000;clip-rule:nonzero;display:inline;overflow:visible;visibility:visible;opacity:1;isolation:auto;mix-blend-mode:normal;color-interpolation:sRGB;color-interpolation-filters:linearRGB;solid-color:#000000;solid-opacity:1;fill:none;fill-opacity:1;fill-rule:nonzero;stroke:#000000;stroke-width:4;stroke-linecap:butt;stroke-linejoin:miter;stroke-miterlimit:4;stroke-dasharray:none;stroke-dashoffset:0;stroke-opacity:1;marker:none;color-rendering:auto;image-rendering:auto;shape-rendering:auto;text-rendering:auto;enable-background:accumulate" />
          <ellipse
             ry="7.331933"
             rx="3.2800756"
             cy="238.70149"
             cx="139.88724"
             id="path4154-1"
             style="color:#000000;clip-rule:nonzero;display:inline;overflow:visible;visibility:visible;opacity:1;isolation:auto;mix-blend-mode:normal;color-interpolation:sRGB;color-interpolation-filters:linearRGB;solid-color:#000000;solid-opacity:1;fill:#000000;fill-opacity:1;fill-rule:nonzero;stroke:none;stroke-width:5;stroke-linecap:butt;stroke-linejoin:miter;stroke-miterlimit:4;stroke-dasharray:none;stroke-dashoffset:0;stroke-opacity:1;marker:none;color-rendering:auto;image-rendering:auto;shape-rendering:auto;text-rendering:auto;enable-background:accumulate" />
          <g
             id="g4200">
            <circle
               style="color:#000000;clip-rule:nonzero;display:inline;overflow:visible;visibility:visible;opacity:1;isolation:auto;mix-blend-mode:normal;color-interpolation:sRGB;color-interpolation-filters:linearRGB;solid-color:#000000;solid-opacity:1;fill:#000000;fill-opacity:1;fill-rule:nonzero;stroke:#ffffff;stroke-width:3;stroke-linecap:butt;stroke-linejoin:miter;stroke-miterlimit:4;stroke-dasharray:none;stroke-dashoffset:0;stroke-opacity:1;marker:none;color-rendering:auto;image-rendering:auto;shape-rendering:auto;text-rendering:auto;enable-background:accumulate"
               id="path4136"
               cx="116.78571"
               cy="239.14792"
               r="19.285715" />
            <ellipse
               style="color:#000000;clip-rule:nonzero;display:inline;overflow:visible;visibility:visible;opacity:1;isolation:auto;mix-blend-mode:normal;color-interpolation:sRGB;color-interpolation-filters:linearRGB;solid-color:#000000;solid-opacity:1;fill:#ffffff;fill-opacity:1;fill-rule:nonzero;stroke:none;stroke-width:5;stroke-linecap:butt;stroke-linejoin:miter;stroke-miterlimit:4;stroke-dasharray:none;stroke-dashoffset:0;stroke-opacity:1;marker:none;color-rendering:auto;image-rendering:auto;shape-rendering:auto;text-rendering:auto;enable-background:accumulate"
               id="path4144"
               cx="109.55357"
               cy="247.45674"
               rx="2.0535715"
               ry="1.6911764" />
            <path
               transform="matrix(0.66655787,0.74545329,-0.74545329,0.66655787,0,0)"
               style="color:#000000;clip-rule:nonzero;display:inline;overflow:visible;visibility:visible;opacity:1;isolation:auto;mix-blend-mode:normal;color-interpolation:sRGB;color-interpolation-filters:linearRGB;solid-color:#000000;solid-opacity:1;fill:#ffffff;fill-opacity:1;fill-rule:nonzero;stroke:none;stroke-width:5;stroke-linecap:butt;stroke-linejoin:miter;stroke-miterlimit:4;stroke-dasharray:none;stroke-dashoffset:0;stroke-opacity:1;marker:none;color-rendering:auto;image-rendering:auto;shape-rendering:auto;text-rendering:auto;enable-background:accumulate"
               d="m 240.40948,82.898224 c 9.01193,1.437265 17.5,0 17.5,0 l 0,1.428563 c 0,0 -4.01135,1.957531 -17.5,0 -0.47125,-0.06839 -4.34798,-5.402812 0,-1.428563 z"
               id="rect4148"
               inkscape:connector-curvature="0"
               sodipodi:nodetypes="cccsc" />
          </g>
        </g>
      </g>
    </g>
    <g
       id="g5218"
       transform="translate(187.11971,13.972503)">
      <g
         transform="translate(100.56965,53.529375)"
         id="g4349">
        <g
           id="g4338">
          <rect
             ry="3.661803"
             y="212.12808"
             x="261.37698"
             height="47.982246"
             width="27.779196"
             id="rect4240"
             style="color:#000000;clip-rule:nonzero;display:inline;overflow:visible;visibility:visible;opacity:1;isolation:auto;mix-blend-mode:normal;color-interpolation:sRGB;color-interpolation-filters:linearRGB;solid-color:#000000;solid-opacity:1;fill:#000000;fill-opacity:1;fill-rule:nonzero;stroke:none;stroke-width:3;stroke-linecap:butt;stroke-linejoin:miter;stroke-miterlimit:4;stroke-dasharray:none;stroke-dashoffset:0;stroke-opacity:1;marker:none;color-rendering:auto;image-rendering:auto;shape-rendering:auto;text-rendering:auto;enable-background:accumulate" />
          <rect
             y="216.30261"
             x="263.42828"
             height="38.11797"
             width="23.676571"
             id="rect4240-4"
             style="color:#000000;clip-rule:nonzero;display:inline;overflow:visible;visibility:visible;opacity:1;isolation:auto;mix-blend-mode:normal;color-interpolation:sRGB;color-interpolation-filters:linearRGB;solid-color:#000000;solid-opacity:1;fill:#ffffff;fill-opacity:1;fill-rule:nonzero;stroke:none;stroke-width:2.55693913;stroke-linecap:butt;stroke-linejoin:miter;stroke-miterlimit:4;stroke-dasharray:none;stroke-dashoffset:0;stroke-opacity:1;marker:none;color-rendering:auto;image-rendering:auto;shape-rendering:auto;text-rendering:auto;enable-background:accumulate" />
          <rect
             ry="0.52772754"
             y="256.46564"
             x="270.31943"
             height="1.0554551"
             width="9.89429"
             id="rect4276"
             style="color:#000000;clip-rule:nonzero;display:inline;overflow:visible;visibility:visible;opacity:1;isolation:auto;mix-blend-mode:normal;color-interpolation:sRGB;color-interpolation-filters:linearRGB;solid-color:#000000;solid-opacity:1;fill:#ffffff;fill-opacity:1;fill-rule:nonzero;stroke:#000000;stroke-width:0.45469755;stroke-linecap:butt;stroke-linejoin:miter;stroke-miterlimit:4;stroke-dasharray:none;stroke-dashoffset:0;stroke-opacity:1;marker:none;color-rendering:auto;image-rendering:auto;shape-rendering:auto;text-rendering:auto;enable-background:accumulate" />
          <rect
             ry="0.50507629"
             y="213.55678"
             x="269.01627"
             height="1.0101526"
             width="12.500638"
             id="rect4276-4"
             style="color:#000000;clip-rule:nonzero;display:inline;overflow:visible;visibility:visible;opacity:1;isolation:auto;mix-blend-mode:normal;color-interpolation:sRGB;color-interpolation-filters:linearRGB;solid-color:#000000;solid-opacity:1;fill:#ffffff;fill-opacity:1;fill-rule:nonzero;stroke:#000000;stroke-width:0.5;stroke-linecap:butt;stroke-linejoin:miter;stroke-miterlimit:4;stroke-dasharray:none;stroke-dashoffset:0;stroke-opacity:1;marker:none;color-rendering:auto;image-rendering:auto;shape-rendering:auto;text-rendering:auto;enable-background:accumulate" />
          <circle
             r="6.6324739"
             cy="236.06189"
             cx="274.74112"
             id="path4293"
             style="color:#000000;clip-rule:nonzero;display:inline;overflow:visible;visibility:visible;opacity:1;isolation:auto;mix-blend-mode:normal;color-interpolation:sRGB;color-interpolation-filters:linearRGB;solid-color:#000000;solid-opacity:1;fill:#ffffff;fill-opacity:1;fill-rule:nonzero;stroke:#000000;stroke-width:1.06119585;stroke-linecap:butt;stroke-linejoin:miter;stroke-miterlimit:4;stroke-dasharray:none;stroke-dashoffset:0;stroke-opacity:1;marker:none;color-rendering:auto;image-rendering:auto;shape-rendering:auto;text-rendering:auto;enable-background:accumulate" />
          <g
             transform="translate(0.66328899,0.05126965)"
             id="g4321">
            <path
               style="color:#000000;clip-rule:nonzero;display:inline;overflow:visible;visibility:visible;opacity:1;isolation:auto;mix-blend-mode:normal;color-interpolation:sRGB;color-interpolation-filters:linearRGB;solid-color:#000000;solid-opacity:1;fill:#000000;fill-opacity:1;fill-rule:nonzero;stroke:none;stroke-width:0.5;stroke-linecap:butt;stroke-linejoin:miter;stroke-miterlimit:4;stroke-dasharray:none;stroke-dashoffset:0;stroke-opacity:1;marker:none;color-rendering:auto;image-rendering:auto;shape-rendering:auto;text-rendering:auto;enable-background:accumulate"
               d="m 270.82411,232.05869 0.68106,-0.38181 c 0.14941,-0.0838 0.44706,-0.025 0.4214,0.11864 -1.1278,6.32388 4.48818,8.00596 4.48818,8.00596 0.0838,0.14941 0.0312,0.33741 -0.11865,0.42138 0,0 -0.42148,0.13153 -0.63643,0.18092 -0.15373,0.0353 -0.46602,0.0822 -0.46602,0.0822 0,0 -4.89199,-0.85193 -4.48818,-8.00596 0.008,-0.14602 -0.0312,-0.33741 0.11864,-0.42138 z"
               id="rect4301"
               inkscape:connector-curvature="0"
               sodipodi:nodetypes="sssssacss" />
            <rect
               style="color:#000000;clip-rule:nonzero;display:inline;overflow:visible;visibility:visible;opacity:1;isolation:auto;mix-blend-mode:normal;color-interpolation:sRGB;color-interpolation-filters:linearRGB;solid-color:#000000;solid-opacity:1;fill:#000000;fill-opacity:1;fill-rule:nonzero;stroke:none;stroke-width:0.5;stroke-linecap:butt;stroke-linejoin:miter;stroke-miterlimit:4;stroke-dasharray:none;stroke-dashoffset:0;stroke-opacity:1;marker:none;color-rendering:auto;image-rendering:auto;shape-rendering:auto;text-rendering:auto;enable-background:accumulate"
               id="rect4304"
               width="2.1465743"
               height="3.1222899"
               x="270.65775"
               y="231.04504"
               ry="0.58542931" />
            <rect
               style="color:#000000;clip-rule:nonzero;display:inline;overflow:visible;visibility:visible;opacity:1;isolation:auto;mix-blend-mode:normal;color-interpolation:sRGB;color-interpolation-filters:linearRGB;solid-color:#000000;solid-opacity:1;fill:#000000;fill-opacity:1;fill-rule:nonzero;stroke:none;stroke-width:0.5;stroke-linecap:butt;stroke-linejoin:miter;stroke-miterlimit:4;stroke-dasharray:none;stroke-dashoffset:0;stroke-opacity:1;marker:none;color-rendering:auto;image-rendering:auto;shape-rendering:auto;text-rendering:auto;enable-background:accumulate"
               id="rect4304-8"
               width="2.1465743"
               height="3.1222899"
               x="144.36736"
               y="-336.75519"
               ry="0.58542931"
               transform="matrix(-0.30114607,0.95357802,-0.95357802,-0.30114607,0,0)" />
          </g>
        </g>
      </g>
    </g>
    <g
       id="g5273"
       transform="translate(185.14286,-44.857143)">
      <path
         sodipodi:type="star"
         style="color:#000000;clip-rule:nonzero;display:inline;overflow:visible;visibility:visible;opacity:1;isolation:auto;mix-blend-mode:normal;color-interpolation:sRGB;color-interpolation-filters:linearRGB;solid-color:#000000;solid-opacity:1;fill:#daf28f;fill-opacity:1;fill-rule:nonzero;stroke:none;stroke-width:0.5;stroke-linecap:butt;stroke-linejoin:miter;stroke-miterlimit:4;stroke-dasharray:none;stroke-dashoffset:0;stroke-opacity:1;marker:none;color-rendering:auto;image-rendering:auto;shape-rendering:auto;text-rendering:auto;enable-background:accumulate"
         id="path4982-06"
         sodipodi:sides="3"
         sodipodi:cx="195.71428"
         sodipodi:cy="624.94684"
         sodipodi:r1="7.9289322"
         sodipodi:r2="3.9644661"
         sodipodi:arg1="-1.5707963"
         sodipodi:arg2="-0.52359878"
         inkscape:flatsided="false"
         inkscape:rounded="0"
         inkscape:randomized="0"
         d="m 195.71428,617.01791 3.43333,5.9467 3.43333,5.94669 -6.86666,0 -6.86666,0 3.43333,-5.94669 z"
         inkscape:transform-center-y="-1.9822141" />
      <g
         id="g4916">
        <rect
           style="color:#000000;clip-rule:nonzero;display:inline;overflow:visible;visibility:visible;opacity:1;isolation:auto;mix-blend-mode:normal;color-interpolation:sRGB;color-interpolation-filters:linearRGB;solid-color:#000000;solid-opacity:1;fill:#daf28f;fill-opacity:1;fill-rule:nonzero;stroke:none;stroke-width:0.5;stroke-linecap:butt;stroke-linejoin:miter;stroke-miterlimit:4;stroke-dasharray:none;stroke-dashoffset:0;stroke-opacity:1;marker:none;color-rendering:auto;image-rendering:auto;shape-rendering:auto;text-rendering:auto;enable-background:accumulate"
           id="rect4720-9"
           width="142.38795"
           height="23.903191"
           x="194.53778"
           y="605.00812"
           ry="4.8691878" />
        <g
           id="g4710"
           transform="translate(0,-170.48267)">
          <text
             sodipodi:linespacing="125%"
             id="text4610"
             y="790.93359"
             x="228.34955"
             style="font-style:normal;font-variant:normal;font-weight:normal;font-stretch:normal;font-size:15px;line-height:125%;font-family:Helvetica;-inkscape-font-specification:Helvetica;text-align:center;letter-spacing:0px;word-spacing:0px;text-anchor:middle;fill:#000000;fill-opacity:1;stroke:none;stroke-width:1px;stroke-linecap:butt;stroke-linejoin:miter;stroke-opacity:1"
             xml:space="preserve"><tspan
               style="font-size:10px"
               y="790.93359"
               x="228.34955"
               id="tspan4612"
               sodipodi:role="line">Au revoir.</tspan></text>
        </g>
      </g>
    </g>
    <g
       id="g5316"
       transform="translate(185.14286,-12.857048)">
      <rect
         style="color:#000000;clip-rule:nonzero;display:inline;overflow:visible;visibility:visible;opacity:1;isolation:auto;mix-blend-mode:normal;color-interpolation:sRGB;color-interpolation-filters:linearRGB;solid-color:#000000;solid-opacity:1;fill:#daf28f;fill-opacity:1;fill-rule:nonzero;stroke:none;stroke-width:0.5;stroke-linecap:butt;stroke-linejoin:miter;stroke-miterlimit:4;stroke-dasharray:none;stroke-dashoffset:0;stroke-opacity:1;marker:none;color-rendering:auto;image-rendering:auto;shape-rendering:auto;text-rendering:auto;enable-background:accumulate"
         id="rect4720"
         width="142.38795"
         height="23.903191"
         x="194.11984"
         y="259.80093"
         ry="4.8691878" />
      <text
         sodipodi:linespacing="125%"
         id="text4382"
         y="274.85568"
         x="233.94525"
         style="font-style:normal;font-variant:normal;font-weight:normal;font-stretch:normal;font-size:15px;line-height:125%;font-family:Helvetica;-inkscape-font-specification:Helvetica;text-align:center;letter-spacing:0px;word-spacing:0px;text-anchor:middle;fill:#000000;fill-opacity:1;stroke:none;stroke-width:1px;stroke-linecap:butt;stroke-linejoin:miter;stroke-opacity:1"
         xml:space="preserve"
         transform="translate(0,1.8982222e-5)"><tspan
           style="font-size:10px"
           y="274.85568"
           x="233.94525"
           id="tspan4384"
           sodipodi:role="line">Oui bonjour.</tspan></text>
      <path
         inkscape:transform-center-y="-1.9822141"
         d="m 195.71428,271.81075 3.43333,5.9467 3.43333,5.9467 -6.86666,0 -6.86666,0 3.43333,-5.9467 z"
         inkscape:randomized="0"
         inkscape:rounded="0"
         inkscape:flatsided="false"
         sodipodi:arg2="-0.52359878"
         sodipodi:arg1="-1.5707963"
         sodipodi:r2="3.9644661"
         sodipodi:r1="7.9289322"
         sodipodi:cy="279.73969"
         sodipodi:cx="195.71428"
         sodipodi:sides="3"
         id="path4982"
         style="color:#000000;clip-rule:nonzero;display:inline;overflow:visible;visibility:visible;opacity:1;isolation:auto;mix-blend-mode:normal;color-interpolation:sRGB;color-interpolation-filters:linearRGB;solid-color:#000000;solid-opacity:1;fill:#daf28f;fill-opacity:1;fill-rule:nonzero;stroke:none;stroke-width:0.5;stroke-linecap:butt;stroke-linejoin:miter;stroke-miterlimit:4;stroke-dasharray:none;stroke-dashoffset:0;stroke-opacity:1;marker:none;color-rendering:auto;image-rendering:auto;shape-rendering:auto;text-rendering:auto;enable-background:accumulate"
         sodipodi:type="star" />
    </g>
    <g
       id="g5305"
       transform="translate(185.14286,-14.415314)">
      <path
         style="color:#000000;clip-rule:nonzero;display:inline;overflow:visible;visibility:visible;opacity:1;isolation:auto;mix-blend-mode:normal;color-interpolation:sRGB;color-interpolation-filters:linearRGB;solid-color:#000000;solid-opacity:1;fill:#8fcbf2;fill-opacity:1;fill-rule:nonzero;stroke:#14707d;stroke-width:2.00000024;stroke-linecap:butt;stroke-linejoin:miter;stroke-miterlimit:4;stroke-dasharray:none;stroke-dashoffset:0;stroke-opacity:1;marker:none;color-rendering:auto;image-rendering:auto;shape-rendering:auto;text-rendering:auto;enable-background:accumulate"
         d="m 375.04102,82.162109 c -5.40499,0 -9.75586,4.350877 -9.75586,9.75586 l 0,28.380861 c 0,5.40498 4.35087,9.75586 9.75586,9.75586 l 122.875,0 c 0.80151,0 1.57589,-0.10454 2.32031,-0.28516 l -0.16602,0.28516 6.86719,0 6.86523,0 -3.43164,-5.94531 -2.69921,-4.67579 0,-27.515621 c -10e-6,-5.404983 -4.35088,-9.75586 -9.75586,-9.75586 l -122.875,0 z"
         transform="translate(-165.50547,206.69589)"
         id="rect4720-4"
         inkscape:connector-curvature="0" />
      <flowRoot
         transform="translate(2.9315796,-15.93943)"
         style="font-style:normal;font-variant:normal;font-weight:normal;font-stretch:normal;font-size:10px;line-height:125%;font-family:Helvetica;-inkscape-font-specification:Helvetica;text-align:start;letter-spacing:0px;word-spacing:0px;text-anchor:start;fill:#000000;fill-opacity:1;stroke:none;stroke-width:1px;stroke-linecap:butt;stroke-linejoin:miter;stroke-opacity:1"
         id="flowRoot4419"
         xml:space="preserve"><flowRegion
           id="flowRegion4421"><rect
             style="font-size:10px;text-align:start;text-anchor:start"
             y="308.79077"
             x="203.57143"
             height="46.42857"
             width="130"
             id="rect4423" /></flowRegion><flowPara
           id="flowPara4425">Bonjour, Je cherche un trajet pour me rendre de Neuilly au palais d'Orsay.</flowPara></flowRoot>    </g>
    <g
       id="g5291"
       transform="translate(185.14286,-15.263401)">
      <path
         style="color:#000000;clip-rule:nonzero;display:inline;overflow:visible;visibility:visible;opacity:1;isolation:auto;mix-blend-mode:normal;color-interpolation:sRGB;color-interpolation-filters:linearRGB;solid-color:#000000;solid-opacity:1;fill:#daf28f;fill-opacity:1;fill-rule:nonzero;stroke:#14707d;stroke-width:2.00000024;stroke-linecap:butt;stroke-linejoin:miter;stroke-miterlimit:4;stroke-dasharray:none;stroke-dashoffset:0;stroke-opacity:1;marker:none;color-rendering:auto;image-rendering:auto;shape-rendering:auto;text-rendering:auto;enable-background:accumulate"
         d="m 366.55859,133.65039 c -3.923,0 -7.08203,3.15902 -7.08203,7.08203 l 0,18.80664 -1.68945,2.92774 -3.43359,5.94531 6.86523,0 5.33984,0 1.52735,0 126.69726,0 c 3.92301,0 7.08203,-3.15707 7.08203,-7.08008 l 0,-20.59961 c 0,-3.92301 -3.15902,-7.08203 -7.08203,-7.08203 l -128.22461,0 z"
         transform="translate(-165.50547,207.54398)"
         id="rect4720-41"
         inkscape:connector-curvature="0" />
      <g
         transform="translate(0,-65.195328)"
         id="g4672">
        <flowRoot
           xml:space="preserve"
           id="flowRoot4419-7"
           style="font-style:normal;font-variant:normal;font-weight:normal;font-stretch:normal;font-size:10px;line-height:125%;font-family:Helvetica;-inkscape-font-specification:Helvetica;text-align:start;letter-spacing:0px;word-spacing:0px;text-anchor:start;fill:#000000;fill-opacity:1;stroke:none;stroke-width:1px;stroke-linecap:butt;stroke-linejoin:miter;stroke-opacity:1"
           transform="translate(2.8632202,102)"><flowRegion
             id="flowRegion4421-3"><rect
               id="rect4423-5"
               width="130"
               height="46.42857"
               x="203.57143"
               y="308.79077"
               style="font-size:10px;text-align:start;text-anchor:start" /></flowRegion><flowPara
             id="flowPara4425-4">Il faudra prendre le bus numéro 73, monsieur.</flowPara></flowRoot>      </g>
    </g>
    <g
       id="g5237"
       transform="translate(185.14286,-40.547516)">
      <g
         transform="translate(-6.3900757,0)"
         id="g4942">
        <path
           style="color:#000000;clip-rule:nonzero;display:inline;overflow:visible;visibility:visible;opacity:1;isolation:auto;mix-blend-mode:normal;color-interpolation:sRGB;color-interpolation-filters:linearRGB;solid-color:#000000;solid-opacity:1;fill:#daf28f;fill-opacity:1;fill-rule:nonzero;stroke:#14707d;stroke-width:2.00000024;stroke-linecap:butt;stroke-linejoin:miter;stroke-miterlimit:4;stroke-dasharray:none;stroke-dashoffset:0;stroke-opacity:1;marker:none;color-rendering:auto;image-rendering:auto;shape-rendering:auto;text-rendering:auto;enable-background:accumulate"
           d="m 371.70117,209.66406 c -6.77296,0 -12.22461,5.45361 -12.22461,12.22656 l 0,23.42188 c 0,0.95954 0.121,1.88842 0.32813,2.7832 l -2.01758,3.4961 -3.43359,5.94726 6.86523,0 6.86719,0 -0.39453,-0.68164 c 1.25672,0.43414 2.6018,0.68164 4.00976,0.68164 l 117.9375,0 c 6.77296,0 12.22656,-5.4536 12.22656,-12.22656 l 0,-23.42188 c 0,-6.77295 -5.4536,-12.22656 -12.22656,-12.22656 l -117.9375,0 z"
           transform="translate(-159.11539,232.8281)"
           id="rect4720-8"
           inkscape:connector-curvature="0" />
        <g
           id="g4686"
           transform="translate(0,-96.12117)">
          <flowRoot
             transform="translate(3.3954468,235.13804)"
             style="font-style:normal;font-variant:normal;font-weight:normal;font-stretch:normal;font-size:10px;line-height:125%;font-family:Helvetica;-inkscape-font-specification:Helvetica;text-align:start;letter-spacing:0px;word-spacing:0px;text-anchor:start;fill:#000000;fill-opacity:1;stroke:none;stroke-width:1px;stroke-linecap:butt;stroke-linejoin:miter;stroke-opacity:1"
             id="flowRoot4419-7-3"
             xml:space="preserve"><flowRegion
               id="flowRegion4421-3-6"><rect
                 style="font-size:10px;text-align:start;text-anchor:start"
                 y="308.79077"
                 x="203.57143"
                 height="52.857128"
                 width="129.99998"
                 id="rect4423-5-4" /></flowRegion><flowPara
               id="flowPara4425-4-2">Vous pouvez prendre le bus à l'arrêt Les Sablons proche du métro.</flowPara></flowRoot>        </g>
      </g>
    </g>
    <g
       id="g5257"
       transform="translate(185.14286,-41.166943)">
      <g
         id="g4928">
        <path
           style="color:#000000;clip-rule:nonzero;display:inline;overflow:visible;visibility:visible;opacity:1;isolation:auto;mix-blend-mode:normal;color-interpolation:sRGB;color-interpolation-filters:linearRGB;solid-color:#000000;solid-opacity:1;fill:#daf28f;fill-opacity:1;fill-rule:nonzero;stroke:#f79698;stroke-width:2.00000024;stroke-linecap:butt;stroke-linejoin:miter;stroke-miterlimit:4;stroke-dasharray:none;stroke-dashoffset:0;stroke-opacity:1;marker:none;color-rendering:auto;image-rendering:auto;shape-rendering:auto;text-rendering:auto;enable-background:accumulate"
           d="m 365.375,310.85352 c -2.95403,0 -5.33203,2.378 -5.33203,5.33203 l 0,10.98828 -2.25586,3.91015 -3.43359,5.94532 6.86523,0 4.15625,0 2.71094,0 129.01367,0 c 2.95402,0 5.33203,-2.37801 5.33203,-5.33203 l 0,-15.51172 c 0,-2.95403 -2.37801,-5.33203 -5.33203,-5.33203 l -131.72461,0 z"
           transform="translate(-165.50547,233.44752)"
           id="rect4720-7"
           inkscape:connector-curvature="0" />
        <g
           id="g4700"
           transform="translate(0,-138.24856)">
          <text
             sodipodi:linespacing="125%"
             id="text4382-6"
             y="698.5802"
             x="236.15228"
             style="font-style:normal;font-variant:normal;font-weight:normal;font-stretch:normal;font-size:15px;line-height:125%;font-family:Helvetica;-inkscape-font-specification:Helvetica;text-align:center;letter-spacing:0px;word-spacing:0px;text-anchor:middle;fill:#000000;fill-opacity:1;stroke:none;stroke-width:1px;stroke-linecap:butt;stroke-linejoin:miter;stroke-opacity:1"
             xml:space="preserve"><tspan
               style="font-size:10px"
               y="698.5802"
               x="236.15228"
               id="tspan4384-7"
               sodipodi:role="line">Oui, oui , oui.</tspan></text>
        </g>
      </g>
    </g>
    <g
       id="g5281"
       transform="translate(185.14286,-27.444146)">
      <g
         id="g4950">
        <path
           style="color:#000000;clip-rule:nonzero;display:inline;overflow:visible;visibility:visible;opacity:1;isolation:auto;mix-blend-mode:normal;color-interpolation:sRGB;color-interpolation-filters:linearRGB;solid-color:#000000;solid-opacity:1;fill:#8fcbf2;fill-opacity:1;fill-rule:nonzero;stroke:#14707d;stroke-width:2.00000024;stroke-linecap:butt;stroke-linejoin:miter;stroke-miterlimit:4;stroke-dasharray:none;stroke-dashoffset:0;stroke-opacity:1;marker:none;color-rendering:auto;image-rendering:auto;shape-rendering:auto;text-rendering:auto;enable-background:accumulate"
           d="m 373.80078,172.00781 c -4.89199,0 -8.83008,3.93809 -8.83008,8.83008 l 0,16.40234 c 0,4.892 3.93809,8.83008 8.83008,8.83008 l 124.72656,0 c 0.5585,0 1.10362,-0.058 1.63282,-0.15625 l -0.0899,0.15625 6.86719,0 6.86523,0 -3.43164,-5.94726 -3.01367,-5.21875 0,-14.06641 c 0,-4.89199 -3.93808,-8.83008 -8.83008,-8.83008 l -124.72656,0 z"
           transform="translate(-165.50547,219.72473)"
           id="rect4720-0"
           inkscape:connector-curvature="0" />
        <g
           id="g4679"
           transform="translate(0,-88.382316)">
          <flowRoot
             transform="translate(3.336853,175.10408)"
             style="font-style:normal;font-variant:normal;font-weight:normal;font-stretch:normal;font-size:10px;line-height:125%;font-family:Helvetica;-inkscape-font-specification:Helvetica;text-align:start;letter-spacing:0px;word-spacing:0px;text-anchor:start;fill:#000000;fill-opacity:1;stroke:none;stroke-width:1px;stroke-linecap:butt;stroke-linejoin:miter;stroke-opacity:1"
             id="flowRoot4419-75"
             xml:space="preserve"><flowRegion
               id="flowRegion4421-9"><rect
                 style="font-size:10px;text-align:start;text-anchor:start"
                 y="308.79077"
                 x="203.57143"
                 height="46.42857"
                 width="130"
                 id="rect4423-4" /></flowRegion><flowPara
               id="flowPara4425-2">à quel arrêt je peux le prendre ? </flowPara></flowRoot>        </g>
      </g>
    </g>
    <g
       id="g5247"
       transform="translate(185.14286,-42.075802)">
      <g
         id="g4934">
        <path
           style="color:#000000;clip-rule:nonzero;display:inline;overflow:visible;visibility:visible;opacity:1;isolation:auto;mix-blend-mode:normal;color-interpolation:sRGB;color-interpolation-filters:linearRGB;solid-color:#000000;solid-opacity:1;fill:#8fcbf2;fill-opacity:1;fill-rule:nonzero;stroke:#f79698;stroke-width:2.00000024;stroke-linecap:butt;stroke-linejoin:miter;stroke-miterlimit:4;stroke-dasharray:none;stroke-dashoffset:0;stroke-opacity:1;marker:none;color-rendering:auto;image-rendering:auto;shape-rendering:auto;text-rendering:auto;enable-background:accumulate"
           d="m 374.36719,261.13281 c -5.20549,0 -9.39649,4.191 -9.39649,9.39649 l 0,27.33398 c 0,5.20549 4.191,9.39649 9.39649,9.39649 l 123.5957,0 c 0.78655,0 1.54418,-0.10671 2.27344,-0.28711 l -0.16602,0.28711 6.86719,0 6.86523,0 -3.43164,-5.94727 -3.01367,-5.2207 0,-25.5625 c 0,-5.20549 -4.18904,-9.39649 -9.39453,-9.39649 l -123.5957,0 z"
           transform="translate(-165.50547,234.35638)"
           id="rect4720-5"
           inkscape:connector-curvature="0" />
        <g
           id="g4693"
           transform="translate(0,-118.92569)">
          <flowRoot
             transform="translate(2.8632202,309.28572)"
             style="font-style:normal;font-variant:normal;font-weight:normal;font-stretch:normal;font-size:10px;line-height:125%;font-family:Helvetica;-inkscape-font-specification:Helvetica;text-align:start;letter-spacing:0px;word-spacing:0px;text-anchor:start;fill:#000000;fill-opacity:1;stroke:none;stroke-width:1px;stroke-linecap:butt;stroke-linejoin:miter;stroke-opacity:1"
             id="flowRoot4419-75-0"
             xml:space="preserve"><flowRegion
               id="flowRegion4421-9-7"><rect
                 style="font-size:10px;text-align:start;text-anchor:start"
                 y="308.79077"
                 x="203.57143"
                 height="46.42857"
                 width="130"
                 id="rect4423-4-2" /></flowRegion><flowPara
               id="flowPara4425-2-2">Et si je le prends demain, il n'y a pas de grève en ce moment, le bus sera là ?</flowPara></flowRoot>        </g>
      </g>
    </g>
    <g
       id="g5265"
       transform="translate(185.14286,-43.434866)">
      <g
         id="g4922">
        <rect
           style="color:#000000;clip-rule:nonzero;display:inline;overflow:visible;visibility:visible;opacity:1;isolation:auto;mix-blend-mode:normal;color-interpolation:sRGB;color-interpolation-filters:linearRGB;solid-color:#000000;solid-opacity:1;fill:#8fcbf2;fill-opacity:1;fill-rule:nonzero;stroke:none;stroke-width:0.5;stroke-linecap:butt;stroke-linejoin:miter;stroke-miterlimit:4;stroke-dasharray:none;stroke-dashoffset:0;stroke-opacity:1;marker:none;color-rendering:auto;image-rendering:auto;shape-rendering:auto;text-rendering:auto;enable-background:accumulate"
           id="rect4720-6"
           width="142.38795"
           height="23.650652"
           x="199.46484"
           y="576.34045"
           ry="4.8177447" />
        <g
           id="g4705"
           transform="translate(0,-152.20932)">
          <text
             sodipodi:linespacing="125%"
             id="text4606"
             y="743.21936"
             x="265.03412"
             style="font-style:normal;font-variant:normal;font-weight:normal;font-stretch:normal;font-size:10px;line-height:125%;font-family:Helvetica;-inkscape-font-specification:Helvetica;text-align:center;letter-spacing:0px;word-spacing:0px;text-anchor:middle;fill:#000000;fill-opacity:1;stroke:none;stroke-width:1px;stroke-linecap:butt;stroke-linejoin:miter;stroke-opacity:1"
             xml:space="preserve"><tspan
               y="743.21936"
               x="265.03412"
               id="tspan4608"
               sodipodi:role="line">Très bien merci, au revoir.</tspan></text>
        </g>
      </g>
      <path
         inkscape:transform-center-y="-1.9822141"
         d="m 341.43158,588.09768 3.43333,5.9467 3.43333,5.9467 -6.86666,0 -6.86666,0 3.43333,-5.9467 z"
         inkscape:randomized="0"
         inkscape:rounded="0"
         inkscape:flatsided="false"
         sodipodi:arg2="-0.52359878"
         sodipodi:arg1="-1.5707963"
         sodipodi:r2="3.9644661"
         sodipodi:r1="7.9289322"
         sodipodi:cy="596.02661"
         sodipodi:cx="341.43158"
         sodipodi:sides="3"
         id="path4982-0-9"
         style="color:#000000;clip-rule:nonzero;display:inline;overflow:visible;visibility:visible;opacity:1;isolation:auto;mix-blend-mode:normal;color-interpolation:sRGB;color-interpolation-filters:linearRGB;solid-color:#000000;solid-opacity:1;fill:#8fcbf2;fill-opacity:1;fill-rule:nonzero;stroke:none;stroke-width:0.5;stroke-linecap:butt;stroke-linejoin:miter;stroke-miterlimit:4;stroke-dasharray:none;stroke-dashoffset:0;stroke-opacity:1;marker:none;color-rendering:auto;image-rendering:auto;shape-rendering:auto;text-rendering:auto;enable-background:accumulate"
         sodipodi:type="star" />
    </g>
    <text
       xml:space="preserve"
       style="font-style:normal;font-variant:normal;font-weight:normal;font-stretch:normal;font-size:15px;line-height:125%;font-family:Helvetica;-inkscape-font-specification:Helvetica;text-align:center;letter-spacing:0px;word-spacing:0px;text-anchor:middle;fill:#000000;fill-opacity:1;stroke:none;stroke-width:1px;stroke-linecap:butt;stroke-linejoin:miter;stroke-opacity:1"
       x="330.0274"
       y="356.64792"
       id="text5196"
       sodipodi:linespacing="125%"><tspan
         sodipodi:role="line"
         id="tspan5198"
         x="330.0274"
         y="356.64792">Agent RATP</tspan></text>
    <text
       xml:space="preserve"
       style="font-style:normal;font-variant:normal;font-weight:normal;font-stretch:normal;font-size:15px;line-height:125%;font-family:Helvetica;-inkscape-font-specification:Helvetica;text-align:center;letter-spacing:0px;word-spacing:0px;text-anchor:middle;fill:#000000;fill-opacity:1;stroke:none;stroke-width:1px;stroke-linecap:butt;stroke-linejoin:miter;stroke-opacity:1"
       x="562.81311"
       y="358.31418"
       id="text5196-1"
       sodipodi:linespacing="125%"><tspan
         sodipodi:role="line"
         id="tspan5198-9"
         x="562.81311"
         y="358.31418">Client</tspan></text>
    <text
       xml:space="preserve"
       style="font-style:normal;font-variant:normal;font-weight:normal;font-stretch:normal;font-size:15px;line-height:125%;font-family:Helvetica;-inkscape-font-specification:Helvetica;text-align:center;letter-spacing:0px;word-spacing:0px;text-anchor:middle;fill:#000000;fill-opacity:1;stroke:none;stroke-width:1px;stroke-linecap:butt;stroke-linejoin:miter;stroke-opacity:1"
       x="443"
       y="203.07648"
       id="text5231"
       sodipodi:linespacing="125%"><tspan
         sodipodi:role="line"
         id="tspan5233"
         x="443"
         y="203.07648">Exemple de conversation,</tspan><tspan
         sodipodi:role="line"
         x="443"
         y="221.82648"
         id="tspan5235">thématique princale : problème d'itinéraire</tspan></text>
    <g
       id="g5430"
       transform="translate(-327.28569,143.85715)">
      <path
         inkscape:connector-curvature="0"
         id="rect4715"
         d="m 479.88442,248.11688 c -1.13968,0 -2.05763,0.9172 -2.05763,2.05688 l 0,15.82738 -1.53296,2.63677 -2.01956,3.47416 4.01823,0.0119 1.43668,0.004 c 0.0514,0.004 0.10289,0.007 0.15524,0.007 l 2.42631,0 47.77469,0 c 1.13968,0 2.05688,-0.91794 2.05688,-2.05762 l 0,-19.90457 c 0,-1.13968 -0.9172,-2.05688 -2.05688,-2.05688 l -50.201,0 z"
         style="color:#000000;clip-rule:nonzero;display:inline;overflow:visible;visibility:visible;opacity:1;isolation:auto;mix-blend-mode:normal;color-interpolation:sRGB;color-interpolation-filters:linearRGB;solid-color:#000000;solid-opacity:1;fill:none;fill-opacity:1;fill-rule:nonzero;stroke:#f79698;stroke-width:2.00000024;stroke-linecap:butt;stroke-linejoin:miter;stroke-miterlimit:4;stroke-dasharray:none;stroke-dashoffset:0;stroke-opacity:1;marker:none;color-rendering:auto;image-rendering:auto;shape-rendering:auto;text-rendering:auto;enable-background:accumulate" />
      <path
         inkscape:connector-curvature="0"
         id="rect4715-1"
         d="m 480.24756,287.8067 c -1.13968,0 -2.05763,0.9172 -2.05763,2.05688 l 0,15.82738 -1.53296,2.63677 -2.01956,3.47416 4.01823,0.0119 1.43668,0.004 c 0.0514,0.004 0.10289,0.007 0.15524,0.007 l 2.42631,0 47.77469,0 c 1.13968,0 2.05688,-0.91794 2.05688,-2.05762 l 0,-19.90457 c 0,-1.13968 -0.9172,-2.05688 -2.05688,-2.05688 l -50.201,0 z"
         style="color:#000000;clip-rule:nonzero;display:inline;overflow:visible;visibility:visible;opacity:1;isolation:auto;mix-blend-mode:normal;color-interpolation:sRGB;color-interpolation-filters:linearRGB;solid-color:#000000;solid-opacity:1;fill:none;fill-opacity:1;fill-rule:nonzero;stroke:#14707d;stroke-width:2.00000024;stroke-linecap:butt;stroke-linejoin:miter;stroke-miterlimit:4;stroke-dasharray:none;stroke-dashoffset:0;stroke-opacity:1;marker:none;color-rendering:auto;image-rendering:auto;shape-rendering:auto;text-rendering:auto;enable-background:accumulate" />
      <path
         inkscape:connector-curvature="0"
         id="rect4715-5"
         d="m 479.53328,327.49652 c -1.13968,0 -2.05763,0.9172 -2.05763,2.05688 l 0,15.82738 -1.53296,2.63677 -2.01956,3.47416 4.01823,0.0119 1.43668,0.004 c 0.0514,0.004 0.10289,0.007 0.15524,0.007 l 2.42631,0 47.77469,0 c 1.13968,0 2.05688,-0.91794 2.05688,-2.05762 l 0,-19.90457 c 0,-1.13968 -0.9172,-2.05688 -2.05688,-2.05688 l -50.201,0 z"
         style="color:#000000;clip-rule:nonzero;display:inline;overflow:visible;visibility:visible;opacity:1;isolation:auto;mix-blend-mode:normal;color-interpolation:sRGB;color-interpolation-filters:linearRGB;solid-color:#000000;solid-opacity:1;fill:none;fill-opacity:1;fill-rule:nonzero;stroke:#000000;stroke-width:0.20000001;stroke-linecap:butt;stroke-linejoin:miter;stroke-miterlimit:4;stroke-dasharray:none;stroke-dashoffset:0;stroke-opacity:1;marker:none;color-rendering:auto;image-rendering:auto;shape-rendering:auto;text-rendering:auto;enable-background:accumulate" />
      <text
         sodipodi:linespacing="125%"
         id="text5385"
         y="344.74554"
         x="562.14282"
         style="font-style:normal;font-variant:normal;font-weight:normal;font-stretch:normal;font-size:15px;line-height:125%;font-family:Helvetica;-inkscape-font-specification:Helvetica;text-align:center;letter-spacing:0px;word-spacing:0px;text-anchor:middle;fill:#000000;fill-opacity:1;stroke:none;stroke-width:1px;stroke-linecap:butt;stroke-linejoin:miter;stroke-opacity:1"
         xml:space="preserve"><tspan
           y="344.74554"
           x="562.14282"
           id="tspan5387"
           sodipodi:role="line">Neutre</tspan></text>
      <text
         sodipodi:linespacing="125%"
         id="text5385-0"
         y="305.17291"
         x="608.10229"
         style="font-style:normal;font-variant:normal;font-weight:normal;font-stretch:normal;font-size:15px;line-height:125%;font-family:Helvetica;-inkscape-font-specification:Helvetica;text-align:center;letter-spacing:0px;word-spacing:0px;text-anchor:middle;fill:#000000;fill-opacity:1;stroke:none;stroke-width:1px;stroke-linecap:butt;stroke-linejoin:miter;stroke-opacity:1"
         xml:space="preserve"><tspan
           y="305.17291"
           x="608.10229"
           id="tspan5387-5"
           sodipodi:role="line">Problème d'itinéraire</tspan></text>
      <text
         sodipodi:linespacing="125%"
         id="text5426"
         y="266.84906"
         x="581.64722"
         style="font-style:normal;font-variant:normal;font-weight:normal;font-stretch:normal;font-size:15px;line-height:125%;font-family:Helvetica;-inkscape-font-specification:Helvetica;text-align:center;letter-spacing:0px;word-spacing:0px;text-anchor:middle;fill:#000000;fill-opacity:1;stroke:none;stroke-width:1px;stroke-linecap:butt;stroke-linejoin:miter;stroke-opacity:1"
         xml:space="preserve"><tspan
           y="266.84906"
           x="581.64722"
           id="tspan5428"
           sodipodi:role="line">État du trafic</tspan></text>
    </g>
  </g>
</svg>
