<?xml version="1.0" encoding="UTF-8" standalone="no"?>
<svg
   xmlns:dc="http://purl.org/dc/elements/1.1/"
   xmlns:cc="http://creativecommons.org/ns#"
   xmlns:rdf="http://www.w3.org/1999/02/22-rdf-syntax-ns#"
   xmlns:svg="http://www.w3.org/2000/svg"
   xmlns="http://www.w3.org/2000/svg"
   xmlns:xlink="http://www.w3.org/1999/xlink"
   xmlns:sodipodi="http://sodipodi.sourceforge.net/DTD/sodipodi-0.dtd"
   xmlns:inkscape="http://www.inkscape.org/namespaces/inkscape"
   id="chart-c62dddb6-0f34-49f0-b514-6982f55fae5c"
   class="pygal-chart"
   viewBox="0 0 744.09449 1052.3622"
   version="1.1"
   inkscape:version="0.91 r13725"
   sodipodi:docname="global_res.svg"
   width="210mm"
   height="297mm">
  <metadata
     id="metadata470">
    <rdf:RDF>
      <cc:Work
         rdf:about="">
        <dc:format>image/svg+xml</dc:format>
        <dc:type
           rdf:resource="http://purl.org/dc/dcmitype/StillImage" />
        <dc:title>Pygal</dc:title>
      </cc:Work>
    </rdf:RDF>
  </metadata>
  <sodipodi:namedview
     pagecolor="#ffffff"
     bordercolor="#666666"
     borderopacity="1"
     objecttolerance="10"
     gridtolerance="10"
     guidetolerance="10"
     inkscape:pageopacity="0"
     inkscape:pageshadow="2"
     inkscape:window-width="1264"
     inkscape:window-height="756"
     id="namedview468"
     showgrid="false"
     units="mm"
     inkscape:zoom="1"
     inkscape:cx="332.14375"
     inkscape:cy="788.66936"
     inkscape:window-x="0"
     inkscape:window-y="0"
     inkscape:window-maximized="0"
     inkscape:current-layer="chart-c62dddb6-0f34-49f0-b514-6982f55fae5c"
     inkscape:snap-bbox="true"
     inkscape:snap-nodes="false"
     inkscape:snap-others="false"
     inkscape:snap-grids="false"
     inkscape:snap-to-guides="false"
     inkscape:bbox-nodes="true" />
  <!--Generated with pygal 2.2.3 (lxml) ©Kozea 2012-2016 on 2017-04-29-->
  <!--http://pygal.org-->
  <path
     class="major guide line"
     d="m 127.42004,480.49113 564.74951,0"
     id="path27"
     inkscape:connector-curvature="0"
     style="opacity:1;fill:none;stroke:#000000;stroke-width:0.84579897;stroke-dasharray:5.07479392, 5.07479392;stroke-opacity:1" />
  <!--http://github.com/Kozea/pygal-->
  <defs
     id="defs3">
    <pattern
       inkscape:collect="always"
       xlink:href="#pattern6217"
       id="pattern6223"
       patternTransform="translate(9.5341486,-19.633056)" />
    <style
       type="text/css"
       id="style5">#chart-c62dddb6-0f34-49f0-b514-6982f55fae5c{-webkit-user-select:none;-webkit-font-smoothing:antialiased;font-family:Consolas,&quot;Liberation Mono&quot;,Menlo,Courier,monospace}#chart-c62dddb6-0f34-49f0-b514-6982f55fae5c .title{font-family:Consolas,&quot;Liberation Mono&quot;,Menlo,Courier,monospace;font-size:16px}#chart-c62dddb6-0f34-49f0-b514-6982f55fae5c .legends .legend text{font-family:Consolas,&quot;Liberation Mono&quot;,Menlo,Courier,monospace;font-size:14px}#chart-c62dddb6-0f34-49f0-b514-6982f55fae5c .axis text{font-family:Consolas,&quot;Liberation Mono&quot;,Menlo,Courier,monospace;font-size:10px}#chart-c62dddb6-0f34-49f0-b514-6982f55fae5c .axis text.major{font-family:Consolas,&quot;Liberation Mono&quot;,Menlo,Courier,monospace;font-size:10px}#chart-c62dddb6-0f34-49f0-b514-6982f55fae5c .text-overlay text.value{font-family:Consolas,&quot;Liberation Mono&quot;,Menlo,Courier,monospace;font-size:16px}#chart-c62dddb6-0f34-49f0-b514-6982f55fae5c .text-overlay text.label{font-family:Consolas,&quot;Liberation Mono&quot;,Menlo,Courier,monospace;font-size:10px}#chart-c62dddb6-0f34-49f0-b514-6982f55fae5c .tooltip{font-family:Consolas,&quot;Liberation Mono&quot;,Menlo,Courier,monospace;font-size:14px}#chart-c62dddb6-0f34-49f0-b514-6982f55fae5c text.no_data{font-family:Consolas,&quot;Liberation Mono&quot;,Menlo,Courier,monospace;font-size:64px}
#chart-c62dddb6-0f34-49f0-b514-6982f55fae5c{background-color:rgba(249,249,249,1)}#chart-c62dddb6-0f34-49f0-b514-6982f55fae5c path,#chart-c62dddb6-0f34-49f0-b514-6982f55fae5c line,#chart-c62dddb6-0f34-49f0-b514-6982f55fae5c rect,#chart-c62dddb6-0f34-49f0-b514-6982f55fae5c circle{-webkit-transition:150ms;-moz-transition:150ms;transition:150ms}#chart-c62dddb6-0f34-49f0-b514-6982f55fae5c .graph &gt; .background{fill:rgba(249,249,249,1)}#chart-c62dddb6-0f34-49f0-b514-6982f55fae5c .plot &gt; .background{fill:rgba(255,255,255,1)}#chart-c62dddb6-0f34-49f0-b514-6982f55fae5c .graph{fill:rgba(0,0,0,.87)}#chart-c62dddb6-0f34-49f0-b514-6982f55fae5c text.no_data{fill:rgba(0,0,0,1)}#chart-c62dddb6-0f34-49f0-b514-6982f55fae5c .title{fill:rgba(0,0,0,1)}#chart-c62dddb6-0f34-49f0-b514-6982f55fae5c .legends .legend text{fill:rgba(0,0,0,.87)}#chart-c62dddb6-0f34-49f0-b514-6982f55fae5c .legends .legend:hover text{fill:rgba(0,0,0,1)}#chart-c62dddb6-0f34-49f0-b514-6982f55fae5c .axis .line{stroke:rgba(0,0,0,1)}#chart-c62dddb6-0f34-49f0-b514-6982f55fae5c .axis .guide.line{stroke:rgba(0,0,0,.54)}#chart-c62dddb6-0f34-49f0-b514-6982f55fae5c .axis .major.line{stroke:rgba(0,0,0,.87)}#chart-c62dddb6-0f34-49f0-b514-6982f55fae5c .axis text.major{fill:rgba(0,0,0,1)}#chart-c62dddb6-0f34-49f0-b514-6982f55fae5c .axis.y .guides:hover .guide.line,#chart-c62dddb6-0f34-49f0-b514-6982f55fae5c .line-graph .axis.x .guides:hover .guide.line,#chart-c62dddb6-0f34-49f0-b514-6982f55fae5c .stackedline-graph .axis.x .guides:hover .guide.line,#chart-c62dddb6-0f34-49f0-b514-6982f55fae5c .xy-graph .axis.x .guides:hover .guide.line{stroke:rgba(0,0,0,1)}#chart-c62dddb6-0f34-49f0-b514-6982f55fae5c .axis .guides:hover text{fill:rgba(0,0,0,1)}#chart-c62dddb6-0f34-49f0-b514-6982f55fae5c .reactive{fill-opacity:.7;stroke-opacity:.8}#chart-c62dddb6-0f34-49f0-b514-6982f55fae5c .ci{stroke:rgba(0,0,0,.87)}#chart-c62dddb6-0f34-49f0-b514-6982f55fae5c .reactive.active,#chart-c62dddb6-0f34-49f0-b514-6982f55fae5c .active .reactive{fill-opacity:.8;stroke-opacity:.9;stroke-width:4}#chart-c62dddb6-0f34-49f0-b514-6982f55fae5c .ci .reactive.active{stroke-width:1.5}#chart-c62dddb6-0f34-49f0-b514-6982f55fae5c .series text{fill:rgba(0,0,0,1)}#chart-c62dddb6-0f34-49f0-b514-6982f55fae5c .tooltip rect{fill:rgba(255,255,255,1);stroke:rgba(0,0,0,1);-webkit-transition:opacity 150ms;-moz-transition:opacity 150ms;transition:opacity 150ms}#chart-c62dddb6-0f34-49f0-b514-6982f55fae5c .tooltip .label{fill:rgba(0,0,0,.87)}#chart-c62dddb6-0f34-49f0-b514-6982f55fae5c .tooltip .label{fill:rgba(0,0,0,.87)}#chart-c62dddb6-0f34-49f0-b514-6982f55fae5c .tooltip .legend{font-size:.8em;fill:rgba(0,0,0,.54)}#chart-c62dddb6-0f34-49f0-b514-6982f55fae5c .tooltip .x_label{font-size:.6em;fill:rgba(0,0,0,1)}#chart-c62dddb6-0f34-49f0-b514-6982f55fae5c .tooltip .xlink{font-size:.5em;text-decoration:underline}#chart-c62dddb6-0f34-49f0-b514-6982f55fae5c .tooltip .value{font-size:1.5em}#chart-c62dddb6-0f34-49f0-b514-6982f55fae5c .bound{font-size:.5em}#chart-c62dddb6-0f34-49f0-b514-6982f55fae5c .max-value{font-size:.75em;fill:rgba(0,0,0,.54)}#chart-c62dddb6-0f34-49f0-b514-6982f55fae5c .map-element{fill:rgba(255,255,255,1);stroke:rgba(0,0,0,.54) !important}#chart-c62dddb6-0f34-49f0-b514-6982f55fae5c .map-element .reactive{fill-opacity:inherit;stroke-opacity:inherit}#chart-c62dddb6-0f34-49f0-b514-6982f55fae5c .color-0,#chart-c62dddb6-0f34-49f0-b514-6982f55fae5c .color-0 a:visited{stroke:#F44336;fill:#F44336}#chart-c62dddb6-0f34-49f0-b514-6982f55fae5c .text-overlay .color-0 text{fill:black}
#chart-c62dddb6-0f34-49f0-b514-6982f55fae5c text.no_data{text-anchor:middle}#chart-c62dddb6-0f34-49f0-b514-6982f55fae5c .guide.line{fill:none}#chart-c62dddb6-0f34-49f0-b514-6982f55fae5c .centered{text-anchor:middle}#chart-c62dddb6-0f34-49f0-b514-6982f55fae5c .title{text-anchor:middle}#chart-c62dddb6-0f34-49f0-b514-6982f55fae5c .legends .legend text{fill-opacity:1}#chart-c62dddb6-0f34-49f0-b514-6982f55fae5c .axis.x text{text-anchor:middle}#chart-c62dddb6-0f34-49f0-b514-6982f55fae5c .axis.x:not(.web) text[transform]{text-anchor:start}#chart-c62dddb6-0f34-49f0-b514-6982f55fae5c .axis.x:not(.web) text[transform].backwards{text-anchor:end}#chart-c62dddb6-0f34-49f0-b514-6982f55fae5c .axis.y text{text-anchor:end}#chart-c62dddb6-0f34-49f0-b514-6982f55fae5c .axis.y text[transform].backwards{text-anchor:start}#chart-c62dddb6-0f34-49f0-b514-6982f55fae5c .axis.y2 text{text-anchor:start}#chart-c62dddb6-0f34-49f0-b514-6982f55fae5c .axis.y2 text[transform].backwards{text-anchor:end}#chart-c62dddb6-0f34-49f0-b514-6982f55fae5c .axis .guide.line{stroke-dasharray:4,4}#chart-c62dddb6-0f34-49f0-b514-6982f55fae5c .axis .major.guide.line{stroke-dasharray:6,6}#chart-c62dddb6-0f34-49f0-b514-6982f55fae5c .horizontal .axis.y .guide.line,#chart-c62dddb6-0f34-49f0-b514-6982f55fae5c .horizontal .axis.y2 .guide.line,#chart-c62dddb6-0f34-49f0-b514-6982f55fae5c .vertical .axis.x .guide.line{opacity:0}#chart-c62dddb6-0f34-49f0-b514-6982f55fae5c .horizontal .axis.always_show .guide.line,#chart-c62dddb6-0f34-49f0-b514-6982f55fae5c .vertical .axis.always_show .guide.line{opacity:1 !important}#chart-c62dddb6-0f34-49f0-b514-6982f55fae5c .axis.y .guides:hover .guide.line,#chart-c62dddb6-0f34-49f0-b514-6982f55fae5c .axis.y2 .guides:hover .guide.line,#chart-c62dddb6-0f34-49f0-b514-6982f55fae5c .axis.x .guides:hover .guide.line{opacity:1}#chart-c62dddb6-0f34-49f0-b514-6982f55fae5c .axis .guides:hover text{opacity:1}#chart-c62dddb6-0f34-49f0-b514-6982f55fae5c .nofill{fill:none}#chart-c62dddb6-0f34-49f0-b514-6982f55fae5c .subtle-fill{fill-opacity:.2}#chart-c62dddb6-0f34-49f0-b514-6982f55fae5c .dot{stroke-width:1px;fill-opacity:1}#chart-c62dddb6-0f34-49f0-b514-6982f55fae5c .dot.active{stroke-width:5px}#chart-c62dddb6-0f34-49f0-b514-6982f55fae5c .dot.negative{fill:transparent}#chart-c62dddb6-0f34-49f0-b514-6982f55fae5c text,#chart-c62dddb6-0f34-49f0-b514-6982f55fae5c tspan{stroke:none !important}#chart-c62dddb6-0f34-49f0-b514-6982f55fae5c .series text.active{opacity:1}#chart-c62dddb6-0f34-49f0-b514-6982f55fae5c .tooltip rect{fill-opacity:.95;stroke-width:.5}#chart-c62dddb6-0f34-49f0-b514-6982f55fae5c .tooltip text{fill-opacity:1}#chart-c62dddb6-0f34-49f0-b514-6982f55fae5c .showable{visibility:hidden}#chart-c62dddb6-0f34-49f0-b514-6982f55fae5c .showable.shown{visibility:visible}#chart-c62dddb6-0f34-49f0-b514-6982f55fae5c .gauge-background{fill:rgba(229,229,229,1);stroke:none}#chart-c62dddb6-0f34-49f0-b514-6982f55fae5c .bg-lines{stroke:rgba(249,249,249,1);stroke-width:2px}</style>
    <script
       type="text/javascript"
       id="script7">window.pygal = window.pygal || {};window.pygal.config = window.pygal.config || {};window.pygal.config['c62dddb6-0f34-49f0-b514-6982f55fae5c'] = {&quot;dynamic_print_values&quot;: false, &quot;truncate_label&quot;: null, &quot;inner_radius&quot;: 0, &quot;print_values&quot;: true, &quot;xrange&quot;: null, &quot;box_mode&quot;: &quot;extremes&quot;, &quot;title&quot;: null, &quot;legend_at_bottom_columns&quot;: null, &quot;height&quot;: 600, &quot;legend_at_bottom&quot;: false, &quot;show_legend&quot;: true, &quot;show_dots&quot;: true, &quot;explicit_size&quot;: false, &quot;y_labels_major&quot;: null, &quot;show_minor_x_labels&quot;: true, &quot;width&quot;: 800, &quot;force_uri_protocol&quot;: &quot;https&quot;, &quot;half_pie&quot;: false, &quot;style&quot;: {&quot;major_label_font_family&quot;: &quot;Consolas, \&quot;Liberation Mono\&quot;, Menlo, Courier, monospace&quot;, &quot;title_font_family&quot;: &quot;Consolas, \&quot;Liberation Mono\&quot;, Menlo, Courier, monospace&quot;, &quot;stroke_opacity&quot;: &quot;.8&quot;, &quot;legend_font_family&quot;: &quot;Consolas, \&quot;Liberation Mono\&quot;, Menlo, Courier, monospace&quot;, &quot;colors&quot;: [&quot;#F44336&quot;, &quot;#3F51B5&quot;, &quot;#009688&quot;, &quot;#FFC107&quot;, &quot;#FF5722&quot;, &quot;#9C27B0&quot;, &quot;#03A9F4&quot;, &quot;#8BC34A&quot;, &quot;#FF9800&quot;, &quot;#E91E63&quot;, &quot;#2196F3&quot;, &quot;#4CAF50&quot;, &quot;#FFEB3B&quot;, &quot;#673AB7&quot;, &quot;#00BCD4&quot;, &quot;#CDDC39&quot;, &quot;#9E9E9E&quot;, &quot;#607D8B&quot;], &quot;legend_font_size&quot;: 14, &quot;no_data_font_family&quot;: &quot;Consolas, \&quot;Liberation Mono\&quot;, Menlo, Courier, monospace&quot;, &quot;major_label_font_size&quot;: 10, &quot;value_background&quot;: &quot;rgba(229, 229, 229, 1)&quot;, &quot;ci_colors&quot;: [], &quot;label_font_family&quot;: &quot;Consolas, \&quot;Liberation Mono\&quot;, Menlo, Courier, monospace&quot;, &quot;label_font_size&quot;: 10, &quot;tooltip_font_size&quot;: 14, &quot;value_font_size&quot;: 16, &quot;font_family&quot;: &quot;Consolas, \&quot;Liberation Mono\&quot;, Menlo, Courier, monospace&quot;, &quot;opacity&quot;: &quot;.7&quot;, &quot;foreground&quot;: &quot;rgba(0, 0, 0, .87)&quot;, &quot;plot_background&quot;: &quot;rgba(255, 255, 255, 1)&quot;, &quot;value_label_font_size&quot;: 10, &quot;value_label_font_family&quot;: &quot;Consolas, \&quot;Liberation Mono\&quot;, Menlo, Courier, monospace&quot;, &quot;background&quot;: &quot;rgba(249, 249, 249, 1)&quot;, &quot;no_data_font_size&quot;: 64, &quot;value_colors&quot;: [], &quot;guide_stroke_dasharray&quot;: &quot;4,4&quot;, &quot;transition&quot;: &quot;150ms&quot;, &quot;foreground_subtle&quot;: &quot;rgba(0, 0, 0, .54)&quot;, &quot;value_font_family&quot;: &quot;Consolas, \&quot;Liberation Mono\&quot;, Menlo, Courier, monospace&quot;, &quot;tooltip_font_family&quot;: &quot;Consolas, \&quot;Liberation Mono\&quot;, Menlo, Courier, monospace&quot;, &quot;title_font_size&quot;: 16, &quot;stroke_opacity_hover&quot;: &quot;.9&quot;, &quot;major_guide_stroke_dasharray&quot;: &quot;6,6&quot;, &quot;opacity_hover&quot;: &quot;.8&quot;, &quot;foreground_strong&quot;: &quot;rgba(0, 0, 0, 1)&quot;}, &quot;x_label_rotation&quot;: 0, &quot;fill&quot;: false, &quot;missing_value_fill_truncation&quot;: &quot;x&quot;, &quot;zero&quot;: 70, &quot;margin_right&quot;: null, &quot;interpolation_parameters&quot;: {}, &quot;x_labels_major&quot;: null, &quot;rounded_bars&quot;: null, &quot;show_y_labels&quot;: true, &quot;dots_size&quot;: 2.5, &quot;show_y_guides&quot;: true, &quot;show_minor_y_labels&quot;: true, &quot;x_labels&quot;: [&quot;MLP&quot;, &quot;DDAE&quot;, &quot;DAE&quot;, &quot;FSDAE&quot;, &quot;TF.IDF&quot;, &quot;AE_ASR&quot;, &quot;SAE&quot;, &quot;PCA&quot;, &quot;SDAE&quot;, &quot;TDAE&quot;, &quot;TDAE + relu&quot;, &quot;&quot;, &quot;ASR_TRS&quot;, &quot;SAE_TRS&quot;], &quot;y_title&quot;: null, &quot;order_min&quot;: null, &quot;formatter&quot;: null, &quot;disable_xml_declaration&quot;: false, &quot;strict&quot;: false, &quot;css&quot;: [&quot;file://style.css&quot;, &quot;file://graph.css&quot;], &quot;tooltip_fancy_mode&quot;: true, &quot;defs&quot;: [], &quot;show_only_major_dots&quot;: false, &quot;y_label_rotation&quot;: 0, &quot;show_x_labels&quot;: true, &quot;min_scale&quot;: 4, &quot;show_x_guides&quot;: false, &quot;spacing&quot;: 10, &quot;x_labels_major_count&quot;: null, &quot;pretty_print&quot;: false, &quot;tooltip_border_radius&quot;: 0, &quot;interpolate&quot;: null, &quot;js&quot;: [&quot;//kozea.github.io/pygal.js/2.0.x/pygal-tooltips.min.js&quot;], &quot;y_labels&quot;: null, &quot;stroke_style&quot;: null, &quot;print_labels&quot;: false, &quot;interpolation_precision&quot;: 250, &quot;x_title&quot;: null, &quot;y_labels_major_every&quot;: null, &quot;logarithmic&quot;: true, &quot;legends&quot;: [&quot;Pr\u00e9cision&quot;], &quot;max_scale&quot;: 16, &quot;print_zeroes&quot;: true, &quot;no_data_text&quot;: &quot;No data&quot;, &quot;truncate_legend&quot;: null, &quot;x_labels_major_every&quot;: null, &quot;secondary_range&quot;: null, &quot;legend_box_size&quot;: 12, &quot;no_prefix&quot;: false, &quot;stroke&quot;: true, &quot;stack_from_top&quot;: false, &quot;include_x_axis&quot;: false, &quot;range&quot;: null, &quot;classes&quot;: [&quot;pygal-chart&quot;], &quot;margin_top&quot;: null, &quot;margin_left&quot;: null, &quot;y_labels_major_count&quot;: null, &quot;margin_bottom&quot;: null, &quot;inverse_y_axis&quot;: false, &quot;margin&quot;: 20, &quot;allow_interruptions&quot;: false, &quot;print_values_position&quot;: &quot;bottom&quot;}</script>
    <script
       type="text/javascript"
       xlink:href="https://kozea.github.io/pygal.js/2.0.x/pygal-tooltips.min.js"
       id="script9" />
    <pattern
       patternUnits="userSpaceOnUse"
       width="27.630268"
       height="24.263"
       patternTransform="translate(18.184866,95.250497)"
       id="pattern6217">
      <rect
         class="rect reactive tooltip-trigger"
         height="18.495485"
         rx="0"
         ry="0"
         width="27.630268"
         x="0"
         y="0"
         id="rect285-4"
         style="color:#000000;clip-rule:nonzero;display:inline;overflow:visible;visibility:visible;opacity:1;isolation:auto;mix-blend-mode:normal;color-interpolation:sRGB;color-interpolation-filters:linearRGB;solid-color:#000000;solid-opacity:1;fill:#40c4ff;fill-opacity:1;fill-rule:nonzero;stroke:none;stroke-width:1.25;stroke-linecap:butt;stroke-linejoin:miter;stroke-miterlimit:4;stroke-dasharray:none;stroke-dashoffset:0;stroke-opacity:1;color-rendering:auto;image-rendering:auto;shape-rendering:auto;text-rendering:auto;enable-background:accumulate" />
      <rect
         class="rect reactive tooltip-trigger"
         height="5.7675629"
         rx="0"
         ry="0"
         width="27.630268"
         x="0"
         y="18.495438"
         id="rect285-4-9"
         style="color:#000000;clip-rule:nonzero;display:inline;overflow:visible;visibility:visible;opacity:1;isolation:auto;mix-blend-mode:normal;color-interpolation:sRGB;color-interpolation-filters:linearRGB;solid-color:#000000;solid-opacity:1;fill:#ffffff;fill-opacity:1;fill-rule:nonzero;stroke:none;stroke-width:1.25;stroke-linecap:butt;stroke-linejoin:miter;stroke-miterlimit:4;stroke-dasharray:none;stroke-dashoffset:0;stroke-opacity:1;color-rendering:auto;image-rendering:auto;shape-rendering:auto;text-rendering:auto;enable-background:accumulate" />
    </pattern>
    <pattern
       patternUnits="userSpaceOnUse"
       width="33.895419"
       height="35.453485"
       patternTransform="translate(15.05227,89.655217)"
       id="pattern6225">
      <rect
         transform="matrix(0.43683316,0.89954255,-0.89954255,0.43683316,0,0)"
         id="rect6221"
         y="-19.633057"
         x="9.5341463"
         height="24.263"
         width="27.630268"
         style="fill:url(#pattern6223);stroke:none" />
    </pattern>
  </defs>
  <title
     id="title11">Pygal</title>
  <path
     inkscape:connector-curvature="0"
     id="path23"
     d="m 127.42004,480.49113 562.49468,0"
     class="line"
     style="opacity:1;stroke:#000000;stroke-width:0.84410882;stroke-opacity:1" />
  <text
     class="major"
     x="123.36402"
     y="483.33029"
     id="text29"
     style="font-size:8.1120348px;font-family:Consolas, 'Liberation Mono', Menlo, Courier, monospace;text-anchor:end;opacity:1;stroke:none;stroke-opacity:1">70</text>
  <path
     class="guide line"
     d="m 127.42004,449.0585 564.74951,0"
     id="path35"
     inkscape:connector-curvature="0"
     style="opacity:1;fill:none;stroke:#000000;stroke-width:0.84579897;stroke-dasharray:3.38319594, 3.38319594;stroke-opacity:1" />
  <text
     class=""
     x="123.36402"
     y="451.89767"
     id="text37"
     style="font-size:8.1120348px;font-family:Consolas, 'Liberation Mono', Menlo, Courier, monospace;text-anchor:end;opacity:1;stroke:none;stroke-opacity:1">71</text>
  <path
     class="guide line"
     d="m 127.42004,418.0655 564.74951,0"
     id="path43"
     inkscape:connector-curvature="0"
     style="opacity:1;fill:none;stroke:#000000;stroke-width:0.84579897;stroke-dasharray:3.38319594, 3.38319594;stroke-opacity:1" />
  <text
     class=""
     x="123.36402"
     y="420.90469"
     id="text45"
     style="font-size:8.1120348px;font-family:Consolas, 'Liberation Mono', Menlo, Courier, monospace;text-anchor:end;opacity:1;stroke:none;stroke-opacity:1">72</text>
  <path
     class="guide line"
     d="m 127.42004,387.50001 564.74951,0"
     id="path51"
     inkscape:connector-curvature="0"
     style="opacity:1;fill:none;stroke:#000000;stroke-width:0.84579897;stroke-dasharray:3.38319594, 3.38319594;stroke-opacity:1" />
  <text
     class=""
     x="123.36402"
     y="390.3392"
     id="text53"
     style="font-size:8.1120348px;font-family:Consolas, 'Liberation Mono', Menlo, Courier, monospace;text-anchor:end;opacity:1;stroke:none;stroke-opacity:1">73</text>
  <path
     class="guide line"
     d="m 127.42004,357.35038 564.74951,0"
     id="path59"
     inkscape:connector-curvature="0"
     style="opacity:1;fill:none;stroke:#000000;stroke-width:0.84579897;stroke-dasharray:3.38319594, 3.38319594;stroke-opacity:1" />
  <text
     class=""
     x="123.36402"
     y="360.18961"
     id="text61"
     style="font-size:8.1120348px;font-family:Consolas, 'Liberation Mono', Menlo, Courier, monospace;text-anchor:end;opacity:1;stroke:none;stroke-opacity:1">74</text>
  <path
     class="major guide line"
     d="m 127.42004,327.60547 564.74951,0"
     id="path67"
     inkscape:connector-curvature="0"
     style="opacity:1;fill:none;stroke:#000000;stroke-width:0.84579897;stroke-dasharray:5.07479392, 5.07479392;stroke-opacity:1" />
  <text
     class="major"
     x="123.36402"
     y="330.44467"
     id="text69"
     style="font-size:8.1120348px;font-family:Consolas, 'Liberation Mono', Menlo, Courier, monospace;text-anchor:end;opacity:1;stroke:none;stroke-opacity:1">75</text>
  <path
     class="guide line"
     d="m 127.42004,298.25453 564.74951,0"
     id="path75"
     inkscape:connector-curvature="0"
     style="opacity:1;fill:none;stroke:#000000;stroke-width:0.84579897;stroke-dasharray:3.38319594, 3.38319594;stroke-opacity:1" />
  <text
     class=""
     x="123.36402"
     y="301.09372"
     id="text77"
     style="font-size:8.1120348px;font-family:Consolas, 'Liberation Mono', Menlo, Courier, monospace;text-anchor:end;opacity:1;stroke:none;stroke-opacity:1">76</text>
  <path
     class="guide line"
     d="m 127.42004,269.28728 564.74951,0"
     id="path83"
     inkscape:connector-curvature="0"
     style="opacity:1;fill:none;stroke:#000000;stroke-width:0.84579897;stroke-dasharray:3.38319594, 3.38319594;stroke-opacity:1" />
  <text
     class=""
     x="123.36402"
     y="272.1265"
     id="text85"
     style="font-size:8.1120348px;font-family:Consolas, 'Liberation Mono', Menlo, Courier, monospace;text-anchor:end;opacity:1;stroke:none;stroke-opacity:1">77</text>
  <path
     class="guide line"
     d="m 127.42004,240.69381 564.74951,0"
     id="path91"
     inkscape:connector-curvature="0"
     style="opacity:1;fill:none;stroke:#000000;stroke-width:0.84579897;stroke-dasharray:3.38319594, 3.38319594;stroke-opacity:1" />
  <text
     class=""
     x="123.36402"
     y="243.53299"
     id="text93"
     style="font-size:8.1120348px;font-family:Consolas, 'Liberation Mono', Menlo, Courier, monospace;text-anchor:end;opacity:1;stroke:none;stroke-opacity:1">78</text>
  <path
     class="guide line"
     d="m 127.42004,212.4646 564.74951,0"
     id="path99"
     inkscape:connector-curvature="0"
     style="opacity:1;fill:none;stroke:#000000;stroke-width:0.84579897;stroke-dasharray:3.38319594, 3.38319594;stroke-opacity:1" />
  <text
     class=""
     x="123.36402"
     y="215.3038"
     id="text101"
     style="font-size:8.1120348px;font-family:Consolas, 'Liberation Mono', Menlo, Courier, monospace;text-anchor:end;opacity:1;stroke:none;stroke-opacity:1">79</text>
  <path
     class="major guide line"
     d="m 127.42004,184.59048 564.74951,0"
     id="path107"
     inkscape:connector-curvature="0"
     style="opacity:1;fill:none;stroke:#000000;stroke-width:0.84579897;stroke-dasharray:5.07479392, 5.07479392;stroke-opacity:1" />
  <text
     class="major"
     x="123.36402"
     y="187.42966"
     id="text109"
     style="font-size:8.1120348px;font-family:Consolas, 'Liberation Mono', Menlo, Courier, monospace;text-anchor:end;opacity:1;stroke:none;stroke-opacity:1">80</text>
  <path
     class="guide line"
     d="m 127.42004,157.06263 564.74951,0"
     id="path115"
     inkscape:connector-curvature="0"
     style="opacity:1;fill:none;stroke:#000000;stroke-width:0.84579897;stroke-dasharray:3.38319594, 3.38319594;stroke-opacity:1" />
  <text
     class=""
     x="123.36402"
     y="159.90182"
     id="text117"
     style="font-size:8.1120348px;font-family:Consolas, 'Liberation Mono', Menlo, Courier, monospace;text-anchor:end;opacity:1;stroke:none;stroke-opacity:1">81</text>
  <path
     class="guide line"
     d="m 127.42004,129.87256 564.74951,0"
     id="path123"
     inkscape:connector-curvature="0"
     style="opacity:1;fill:none;stroke:#000000;stroke-width:0.84579897;stroke-dasharray:3.38319594, 3.38319594;stroke-opacity:1" />
  <text
     class=""
     x="123.36402"
     y="132.71176"
     id="text125"
     style="font-size:8.1120348px;font-family:Consolas, 'Liberation Mono', Menlo, Courier, monospace;text-anchor:end;opacity:1;stroke:none;stroke-opacity:1">82</text>
  <path
     class="guide line"
     d="m 127.42004,103.01208 564.74951,0"
     id="path131"
     inkscape:connector-curvature="0"
     style="opacity:1;fill:none;stroke:#000000;stroke-width:0.84579897;stroke-dasharray:3.38319594, 3.38319594;stroke-opacity:1" />
  <text
     class=""
     x="123.36402"
     y="105.8513"
     id="text133"
     style="font-size:8.1120348px;font-family:Consolas, 'Liberation Mono', Menlo, Courier, monospace;text-anchor:end;opacity:1;stroke:none;stroke-opacity:1">83</text>
  <path
     class="guide line"
     d="m 127.42004,76.473267 564.74951,0"
     id="path139"
     inkscape:connector-curvature="0"
     style="opacity:1;fill:none;stroke:#000000;stroke-width:0.84579897;stroke-dasharray:3.38319594, 3.38319594;stroke-opacity:1" />
  <text
     class=""
     x="123.36402"
     y="79.312508"
     id="text141"
     style="font-size:8.1120348px;font-family:Consolas, 'Liberation Mono', Menlo, Courier, monospace;text-anchor:end;opacity:1;stroke:none;stroke-opacity:1">84</text>
  <path
     class="major guide line"
     d="m 127.42004,50.248547 564.74951,0"
     id="path147"
     inkscape:connector-curvature="0"
     style="opacity:1;fill:none;stroke:#000000;stroke-width:0.84579897;stroke-dasharray:5.07479392, 5.07479392;stroke-opacity:1" />
  <text
     class="major"
     x="123.36402"
     y="53.087746"
     id="text149"
     style="font-size:8.1120348px;font-family:Consolas, 'Liberation Mono', Menlo, Courier, monospace;text-anchor:end;opacity:1;stroke:none;stroke-opacity:1">85</text>
  <path
     inkscape:connector-curvature="0"
     id="path155"
     d="m 127.42004,42.441277 0,438.049853"
     class="line"
     style="opacity:1;stroke:#000000;stroke-width:0.81120342;stroke-opacity:1" />
  <path
     class="guide line"
     d="m 155.25011,42.441277 0,438.049853"
     id="path159"
     inkscape:connector-curvature="0"
     style="opacity:1;fill:none;stroke:#000000;stroke-width:0.81120342;stroke-dasharray:3.24481373, 3.24481373;stroke-opacity:1" />
  <text
     class=""
     x="347.38327"
     y="381.28754"
     id="text161"
     style="font-size:8.1120348px;font-family:Consolas, 'Liberation Mono', Menlo, Courier, monospace;text-anchor:middle;stroke:none"
     transform="matrix(0.90630779,0.42261826,-0.42261826,0.90630779,0,0)">
    <tspan
       style="font-size:10px;stroke:none"
       id="tspan5427">MLP</tspan>
  </text>
  <path
     class="guide line"
     d="m 190.92969,42.441277 0,438.049853"
     id="path165"
     inkscape:connector-curvature="0"
     style="opacity:1;fill:none;stroke:#000000;stroke-width:0.81120342;stroke-dasharray:3.24481373, 3.24481373;stroke-opacity:1" />
  <text
     class=""
     x="380.19125"
     y="367.18594"
     id="text167"
     style="color:#000000;font-style:normal;font-variant:normal;font-weight:normal;font-stretch:normal;font-size:10px;line-height:normal;font-family:Consolas, 'Liberation Mono', Menlo, Courier, monospace;text-indent:0;text-align:start;text-decoration:none;text-decoration-line:none;text-decoration-style:solid;text-decoration-color:#000000;letter-spacing:normal;word-spacing:normal;text-transform:none;direction:ltr;block-progression:tb;writing-mode:lr-tb;baseline-shift:baseline;text-anchor:middle;white-space:normal;clip-rule:nonzero;display:inline;overflow:visible;visibility:visible;opacity:1;isolation:auto;mix-blend-mode:normal;color-interpolation:sRGB;color-interpolation-filters:linearRGB;solid-color:#000000;solid-opacity:1;fill:#000000;fill-opacity:1;fill-rule:nonzero;stroke:none;stroke-width:1;stroke-linecap:butt;stroke-linejoin:miter;stroke-miterlimit:4;stroke-dasharray:none;stroke-dashoffset:0;stroke-opacity:1;color-rendering:auto;image-rendering:auto;shape-rendering:auto;text-rendering:auto;enable-background:accumulate"
     transform="matrix(0.90630779,0.42261826,-0.42261826,0.90630779,0,0)">DDAE</text>
  <path
     class="guide line"
     d="m 226.60928,42.441277 0,438.049853"
     id="path171"
     inkscape:connector-curvature="0"
     style="opacity:1;fill:none;stroke:#000000;stroke-width:0.81120342;stroke-dasharray:3.24481373, 3.24481373;stroke-opacity:1" />
  <text
     class=""
     x="411.99075"
     y="350.95502"
     id="text173"
     style="color:#000000;font-style:normal;font-variant:normal;font-weight:normal;font-stretch:normal;font-size:10px;line-height:normal;font-family:Consolas, 'Liberation Mono', Menlo, Courier, monospace;text-indent:0;text-align:start;text-decoration:none;text-decoration-line:none;text-decoration-style:solid;text-decoration-color:#000000;letter-spacing:normal;word-spacing:normal;text-transform:none;direction:ltr;block-progression:tb;writing-mode:lr-tb;baseline-shift:baseline;text-anchor:middle;white-space:normal;clip-rule:nonzero;display:inline;overflow:visible;visibility:visible;opacity:1;isolation:auto;mix-blend-mode:normal;color-interpolation:sRGB;color-interpolation-filters:linearRGB;solid-color:#000000;solid-opacity:1;fill:#000000;fill-opacity:1;fill-rule:nonzero;stroke:none;stroke-width:1;stroke-linecap:butt;stroke-linejoin:miter;stroke-miterlimit:4;stroke-dasharray:none;stroke-dashoffset:0;stroke-opacity:1;color-rendering:auto;image-rendering:auto;shape-rendering:auto;text-rendering:auto;enable-background:accumulate"
     transform="matrix(0.90630779,0.42261826,-0.42261826,0.90630779,0,0)">DAE</text>
  <path
     class="guide line"
     d="m 262.28885,42.441277 0,438.049853"
     id="path177"
     inkscape:connector-curvature="0"
     style="opacity:1;fill:none;stroke:#000000;stroke-width:0.81120342;stroke-dasharray:3.24481373, 3.24481373;stroke-opacity:1" />
  <text
     class=""
     x="445.61057"
     y="337.86438"
     id="text179"
     style="color:#000000;font-style:normal;font-variant:normal;font-weight:normal;font-stretch:normal;font-size:10px;line-height:normal;font-family:Consolas, 'Liberation Mono', Menlo, Courier, monospace;text-indent:0;text-align:start;text-decoration:none;text-decoration-line:none;text-decoration-style:solid;text-decoration-color:#000000;letter-spacing:normal;word-spacing:normal;text-transform:none;direction:ltr;block-progression:tb;writing-mode:lr-tb;baseline-shift:baseline;text-anchor:middle;white-space:normal;clip-rule:nonzero;display:inline;overflow:visible;visibility:visible;opacity:1;isolation:auto;mix-blend-mode:normal;color-interpolation:sRGB;color-interpolation-filters:linearRGB;solid-color:#000000;solid-opacity:1;fill:#000000;fill-opacity:1;fill-rule:nonzero;stroke:none;stroke-width:1;stroke-linecap:butt;stroke-linejoin:miter;stroke-miterlimit:4;stroke-dasharray:none;stroke-dashoffset:0;stroke-opacity:1;color-rendering:auto;image-rendering:auto;shape-rendering:auto;text-rendering:auto;enable-background:accumulate"
     transform="matrix(0.90630779,0.42261826,-0.42261826,0.90630779,0,0)">FSDAE</text>
  <path
     class="guide line"
     d="m 297.96843,42.441277 0,438.049853"
     id="path183"
     inkscape:connector-curvature="0"
     style="opacity:1;fill:none;stroke:#000000;stroke-width:0.81120342;stroke-dasharray:3.24481373, 3.24481373;stroke-opacity:1" />
  <text
     class=""
     x="481.86322"
     y="322.78558"
     id="text185"
     style="color:#000000;font-style:normal;font-variant:normal;font-weight:normal;font-stretch:normal;font-size:10px;line-height:normal;font-family:Consolas, 'Liberation Mono', Menlo, Courier, monospace;text-indent:0;text-align:start;text-decoration:none;text-decoration-line:none;text-decoration-style:solid;text-decoration-color:#000000;letter-spacing:normal;word-spacing:normal;text-transform:none;direction:ltr;block-progression:tb;writing-mode:lr-tb;baseline-shift:baseline;text-anchor:middle;white-space:normal;clip-rule:nonzero;display:inline;overflow:visible;visibility:visible;opacity:1;isolation:auto;mix-blend-mode:normal;color-interpolation:sRGB;color-interpolation-filters:linearRGB;solid-color:#000000;solid-opacity:1;fill:#000000;fill-opacity:1;fill-rule:nonzero;stroke:none;stroke-width:1;stroke-linecap:butt;stroke-linejoin:miter;stroke-miterlimit:4;stroke-dasharray:none;stroke-dashoffset:0;stroke-opacity:1;color-rendering:auto;image-rendering:auto;shape-rendering:auto;text-rendering:auto;enable-background:accumulate"
     transform="matrix(0.90630779,0.42261826,-0.42261826,0.90630779,0,0)">TF.IDF</text>
  <path
     class="guide line"
     d="m 333.64801,42.441277 0,438.049853"
     id="path189"
     inkscape:connector-curvature="0"
     style="opacity:1;fill:none;stroke:#000000;stroke-width:0.81120342;stroke-dasharray:3.24481373, 3.24481373;stroke-opacity:1" />
  <path
     class="guide line"
     d="m 369.32759,42.441277 0,438.049853"
     id="path195"
     inkscape:connector-curvature="0"
     style="opacity:1;fill:none;stroke:#000000;stroke-width:0.81120342;stroke-dasharray:3.24481373, 3.24481373;stroke-opacity:1" />
  <path
     class="guide line"
     d="m 405.00717,42.441277 0,438.049853"
     id="path201"
     inkscape:connector-curvature="0"
     style="opacity:1;fill:none;stroke:#000000;stroke-width:0.81120342;stroke-dasharray:3.24481373, 3.24481373;stroke-opacity:1" />
  <path
     class="guide line"
     d="m 440.68675,42.441277 0,438.049853"
     id="path207"
     inkscape:connector-curvature="0"
     style="opacity:1;fill:none;stroke:#000000;stroke-width:0.81120342;stroke-dasharray:3.24481373, 3.24481373;stroke-opacity:1" />
  <path
     class="guide line"
     d="m 476.36633,42.441277 0,438.049853"
     id="path213"
     inkscape:connector-curvature="0"
     style="opacity:1;fill:none;stroke:#000000;stroke-width:0.81120342;stroke-dasharray:3.24481373, 3.24481373;stroke-opacity:1" />
  <path
     class="guide line"
     d="m 512.04591,42.441277 0,438.049853"
     id="path219"
     inkscape:connector-curvature="0"
     style="opacity:1;fill:none;stroke:#000000;stroke-width:0.81120342;stroke-dasharray:3.24481373, 3.24481373;stroke-opacity:1" />
  <path
     class="guide line"
     d="m 557.72549,42.441277 0,438.049853"
     id="path227"
     inkscape:connector-curvature="0"
     style="opacity:1;fill:none;stroke:#000000;stroke-width:0.81120342;stroke-dasharray:3.24481373, 3.24481373;stroke-opacity:1" />
  <text
     class=""
     x="657.12585"
     y="1027.3622"
     id="text229"
     style="font-size:10px;font-family:Consolas, 'Liberation Mono', Menlo, Courier, monospace;text-anchor:middle;stroke:none" />
  <path
     class="guide line"
     d="m 593.40507,42.441277 0,438.049853"
     id="path233"
     inkscape:connector-curvature="0"
     style="opacity:1;fill:none;stroke:#000000;stroke-width:0.81120342;stroke-dasharray:3.24481373, 3.24481373;stroke-opacity:1" />
  <path
     class="guide line"
     d="m 629.08465,42.441277 0,438.049853"
     id="path239"
     inkscape:connector-curvature="0"
     style="opacity:1;fill:none;stroke:#000000;stroke-width:0.81120342;stroke-dasharray:3.24481373, 3.24481373;stroke-opacity:1" />
  <rect
     style="color:#000000;clip-rule:nonzero;display:inline;overflow:visible;visibility:visible;opacity:1;isolation:auto;mix-blend-mode:normal;color-interpolation:sRGB;color-interpolation-filters:linearRGB;solid-color:#000000;solid-opacity:1;fill:#40c4ff;fill-opacity:1;fill-rule:nonzero;stroke:#000000;stroke-width:1.25;stroke-linecap:butt;stroke-linejoin:miter;stroke-miterlimit:4;stroke-dasharray:none;stroke-dashoffset:0;stroke-opacity:1;color-rendering:auto;image-rendering:auto;shape-rendering:auto;text-rendering:auto;enable-background:accumulate;filter-blend-mode:normal;filter-gaussianBlur-deviation:0"
     id="rect249"
     y="439.71494"
     x="141.435"
     width="27.630268"
     ry="0"
     rx="0"
     height="40.776127"
     class="rect reactive tooltip-trigger" />
  <rect
     style="color:#000000;clip-rule:nonzero;display:inline;overflow:visible;visibility:visible;opacity:1;isolation:auto;mix-blend-mode:normal;color-interpolation:sRGB;color-interpolation-filters:linearRGB;solid-color:#000000;solid-opacity:1;fill:#40c4ff;fill-opacity:1;fill-rule:nonzero;stroke:#000000;stroke-width:1.25;stroke-linecap:butt;stroke-linejoin:miter;stroke-miterlimit:4;stroke-dasharray:none;stroke-dashoffset:0;stroke-opacity:1;color-rendering:auto;image-rendering:auto;shape-rendering:auto;text-rendering:auto;enable-background:accumulate;filter-blend-mode:normal;filter-gaussianBlur-deviation:0"
     id="rect261"
     y="402.73007"
     x="177.11456"
     width="27.630268"
     ry="0"
     rx="0"
     height="77.76107"
     class="rect reactive tooltip-trigger" />
  <rect
     style="color:#000000;clip-rule:nonzero;display:inline;overflow:visible;visibility:visible;opacity:1;isolation:auto;mix-blend-mode:normal;color-interpolation:sRGB;color-interpolation-filters:linearRGB;solid-color:#000000;solid-opacity:1;fill:#40c4ff;fill-opacity:1;fill-rule:nonzero;stroke:#000000;stroke-width:1.25;stroke-linecap:butt;stroke-linejoin:miter;stroke-miterlimit:4;stroke-dasharray:none;stroke-dashoffset:0;stroke-opacity:1;color-rendering:auto;image-rendering:auto;shape-rendering:auto;text-rendering:auto;enable-background:accumulate;filter-blend-mode:normal;filter-gaussianBlur-deviation:0"
     id="rect273"
     y="348.38486"
     x="212.79414"
     width="27.630268"
     ry="0"
     rx="0"
     height="132.10622"
     class="rect reactive tooltip-trigger" />
  <rect
     style="color:#000000;clip-rule:nonzero;display:inline;overflow:visible;visibility:visible;opacity:1;isolation:auto;mix-blend-mode:normal;color-interpolation:sRGB;color-interpolation-filters:linearRGB;solid-color:#000000;solid-opacity:1;fill:#40c4ff;fill-opacity:1;fill-rule:nonzero;stroke:#000000;stroke-width:1.25;stroke-linecap:butt;stroke-linejoin:miter;stroke-miterlimit:4;stroke-dasharray:none;stroke-dashoffset:0;stroke-opacity:1;color-rendering:auto;image-rendering:auto;shape-rendering:auto;text-rendering:auto;enable-background:accumulate;filter-blend-mode:normal;filter-gaussianBlur-deviation:0"
     id="rect285"
     y="283.7236"
     x="248.47374"
     width="27.630268"
     ry="0"
     rx="0"
     height="196.76756"
     class="rect reactive tooltip-trigger" />
  <rect
     style="color:#000000;clip-rule:nonzero;display:inline;overflow:visible;visibility:visible;opacity:1;isolation:auto;mix-blend-mode:normal;color-interpolation:sRGB;color-interpolation-filters:linearRGB;solid-color:#000000;solid-opacity:1;fill:#40c4ff;fill-opacity:1;fill-rule:nonzero;stroke:none;stroke-width:1.25;stroke-linecap:butt;stroke-linejoin:miter;stroke-miterlimit:4;stroke-dasharray:none;stroke-dashoffset:0;stroke-opacity:1;color-rendering:auto;image-rendering:auto;shape-rendering:auto;text-rendering:auto;enable-background:accumulate"
     id="rect297"
     y="266.41129"
     x="284.15329"
     width="27.630268"
     ry="0"
     rx="0"
     height="214.07985"
     class="rect reactive tooltip-trigger" />
  <rect
     style="fill:#f44336;fill-opacity:0.7;stroke:#f44336;stroke-opacity:0.8"
     id="rect381"
     y="1012.3622"
     x="640.0954"
     width="34.060837"
     ry="0"
     rx="0"
     height="0"
     class="rect reactive tooltip-trigger" />
  <text
     style="font-size:12.97925472px;font-family:Consolas, 'Liberation Mono', Menlo, Courier, monospace;text-anchor:middle;opacity:1;fill:#000000;stroke:none;stroke-opacity:1"
     id="text423"
     y="478.32785"
     x="155.25012"
     class="value">71.3</text>
  <text
     style="font-size:12.97925472px;font-family:Consolas, 'Liberation Mono', Menlo, Courier, monospace;text-anchor:middle;opacity:1;fill:#000000;stroke:none;stroke-opacity:1"
     id="text425"
     y="478.32785"
     x="190.92969"
     class="value">72.5</text>
  <text
     style="font-size:12.97925472px;font-family:Consolas, 'Liberation Mono', Menlo, Courier, monospace;text-anchor:middle;opacity:1;fill:#000000;stroke:none;stroke-opacity:1"
     id="text427"
     y="478.32785"
     x="226.60927"
     class="value">74.3</text>
  <text
     style="font-size:12.97925472px;font-family:Consolas, 'Liberation Mono', Menlo, Courier, monospace;text-anchor:middle;opacity:1;fill:#000000;stroke:none;stroke-opacity:1"
     id="text429"
     y="478.32785"
     x="262.28885"
     class="value">76.5</text>
  <text
     style="font-size:12.97925472px;font-family:Consolas, 'Liberation Mono', Menlo, Courier, monospace;text-anchor:middle;opacity:1;fill:#000000;stroke:none;stroke-opacity:1"
     id="text431"
     y="478.32785"
     x="297.96841"
     class="value">77.1</text>
  <g
     id="g4338">
    <text
       transform="matrix(0.90630779,0.42261826,-0.42261826,0.90630779,0,0)"
       style="color:#000000;font-style:normal;font-variant:normal;font-weight:normal;font-stretch:normal;font-size:10px;line-height:normal;font-family:Consolas, 'Liberation Mono', Menlo, Courier, monospace;text-indent:0;text-align:start;text-decoration:none;text-decoration-line:none;text-decoration-style:solid;text-decoration-color:#000000;letter-spacing:normal;word-spacing:normal;text-transform:none;direction:ltr;block-progression:tb;writing-mode:lr-tb;baseline-shift:baseline;text-anchor:middle;white-space:normal;clip-rule:nonzero;display:inline;overflow:visible;visibility:visible;opacity:1;isolation:auto;mix-blend-mode:normal;color-interpolation:sRGB;color-interpolation-filters:linearRGB;solid-color:#000000;solid-opacity:1;fill:#000000;fill-opacity:1;fill-rule:nonzero;stroke:none;stroke-width:1;stroke-linecap:butt;stroke-linejoin:miter;stroke-miterlimit:4;stroke-dasharray:none;stroke-dashoffset:0;stroke-opacity:1;color-rendering:auto;image-rendering:auto;shape-rendering:auto;text-rendering:auto;enable-background:accumulate"
       id="text191"
       y="307.70673"
       x="514.24872"
       class="">AE_ASR</text>
    <rect
       class="rect reactive tooltip-trigger"
       height="323.4285"
       rx="0"
       ry="0"
       width="27.630268"
       x="319.83286"
       y="157.06259"
       id="rect309"
       style="color:#000000;clip-rule:nonzero;display:inline;overflow:visible;visibility:visible;opacity:1;isolation:auto;mix-blend-mode:normal;color-interpolation:sRGB;color-interpolation-filters:linearRGB;solid-color:#000000;solid-opacity:1;fill:#40c4ff;fill-opacity:1;fill-rule:nonzero;stroke:none;stroke-width:1.25;stroke-linecap:butt;stroke-linejoin:miter;stroke-miterlimit:4;stroke-dasharray:none;stroke-dashoffset:0;stroke-opacity:1;color-rendering:auto;image-rendering:auto;shape-rendering:auto;text-rendering:auto;enable-background:accumulate" />
    <text
       class="value"
       x="333.64801"
       y="478.32785"
       id="text433"
       style="font-size:12.97925472px;font-family:Consolas, 'Liberation Mono', Menlo, Courier, monospace;text-anchor:middle;opacity:1;fill:#000000;stroke:none;stroke-opacity:1">81</text>
  </g>
  <g
     id="g4290"
     transform="translate(35.599549,0)">
    <g
       id="g4285">
      <text
         class=""
         x="541.38849"
         y="290.74316"
         id="text197"
         style="color:#000000;font-style:normal;font-variant:normal;font-weight:normal;font-stretch:normal;font-size:10px;line-height:normal;font-family:Consolas, 'Liberation Mono', Menlo, Courier, monospace;text-indent:0;text-align:start;text-decoration:none;text-decoration-line:none;text-decoration-style:solid;text-decoration-color:#000000;letter-spacing:normal;word-spacing:normal;text-transform:none;direction:ltr;block-progression:tb;writing-mode:lr-tb;baseline-shift:baseline;text-anchor:middle;white-space:normal;clip-rule:nonzero;display:inline;overflow:visible;visibility:visible;opacity:1;isolation:auto;mix-blend-mode:normal;color-interpolation:sRGB;color-interpolation-filters:linearRGB;solid-color:#000000;solid-opacity:1;fill:#000000;fill-opacity:1;fill-rule:nonzero;stroke:none;stroke-width:1;stroke-linecap:butt;stroke-linejoin:miter;stroke-miterlimit:4;stroke-dasharray:none;stroke-dashoffset:0;stroke-opacity:1;color-rendering:auto;image-rendering:auto;shape-rendering:auto;text-rendering:auto;enable-background:accumulate"
         transform="matrix(0.90630779,0.42261826,-0.42261826,0.90630779,0,0)">SAE</text>
      <rect
         style="color:#000000;clip-rule:nonzero;display:inline;overflow:visible;visibility:visible;opacity:1;isolation:auto;mix-blend-mode:normal;color-interpolation:sRGB;color-interpolation-filters:linearRGB;solid-color:#000000;solid-opacity:1;fill:#40c4ff;fill-opacity:1;fill-rule:nonzero;stroke:none;stroke-width:1.25;stroke-linecap:butt;stroke-linejoin:miter;stroke-miterlimit:4;stroke-dasharray:none;stroke-dashoffset:0;stroke-opacity:1;color-rendering:auto;image-rendering:auto;shape-rendering:auto;text-rendering:auto;enable-background:accumulate"
         id="rect321"
         y="129.87253"
         x="355.51245"
         width="27.630268"
         ry="0"
         rx="0"
         height="350.61856"
         class="rect reactive tooltip-trigger" />
      <text
         style="font-size:12.97925472px;font-family:Consolas, 'Liberation Mono', Menlo, Courier, monospace;text-anchor:middle;opacity:1;fill:#000000;stroke:none;stroke-opacity:1"
         id="text435"
         y="478.32785"
         x="369.32758"
         class="value">82</text>
    </g>
    <g
       id="g4280">
      <text
         class=""
         x="573.65564"
         y="275.43283"
         id="text203"
         style="color:#000000;font-style:normal;font-variant:normal;font-weight:normal;font-stretch:normal;font-size:10px;line-height:normal;font-family:Consolas, 'Liberation Mono', Menlo, Courier, monospace;text-indent:0;text-align:start;text-decoration:none;text-decoration-line:none;text-decoration-style:solid;text-decoration-color:#000000;letter-spacing:normal;word-spacing:normal;text-transform:none;direction:ltr;block-progression:tb;writing-mode:lr-tb;baseline-shift:baseline;text-anchor:middle;white-space:normal;clip-rule:nonzero;display:inline;overflow:visible;visibility:visible;opacity:1;isolation:auto;mix-blend-mode:normal;color-interpolation:sRGB;color-interpolation-filters:linearRGB;solid-color:#000000;solid-opacity:1;fill:#000000;fill-opacity:1;fill-rule:nonzero;stroke:none;stroke-width:1;stroke-linecap:butt;stroke-linejoin:miter;stroke-miterlimit:4;stroke-dasharray:none;stroke-dashoffset:0;stroke-opacity:1;color-rendering:auto;image-rendering:auto;shape-rendering:auto;text-rendering:auto;enable-background:accumulate"
         transform="matrix(0.90630779,0.42261826,-0.42261826,0.90630779,0,0)">PCA</text>
      <rect
         style="color:#000000;clip-rule:nonzero;display:inline;overflow:visible;visibility:visible;opacity:1;isolation:auto;mix-blend-mode:normal;color-interpolation:sRGB;color-interpolation-filters:linearRGB;solid-color:#000000;solid-opacity:1;fill:#40c4ff;fill-opacity:1;fill-rule:nonzero;stroke:none;stroke-width:1.25;stroke-linecap:butt;stroke-linejoin:miter;stroke-miterlimit:4;stroke-dasharray:none;stroke-dashoffset:0;stroke-opacity:1;color-rendering:auto;image-rendering:auto;shape-rendering:auto;text-rendering:auto;enable-background:accumulate"
         id="rect333"
         y="116.40165"
         x="391.19202"
         width="27.630268"
         ry="0"
         rx="0"
         height="364.08951"
         class="rect reactive tooltip-trigger" />
      <text
         style="font-size:12.97925472px;font-family:Consolas, 'Liberation Mono', Menlo, Courier, monospace;text-anchor:middle;opacity:1;fill:#000000;stroke:none;stroke-opacity:1"
         id="text437"
         y="478.32785"
         x="405.00717"
         class="value">82.5</text>
    </g>
    <g
       id="g4275">
      <text
         class=""
         x="604.84985"
         y="262.55322"
         id="text209"
         style="color:#000000;font-style:normal;font-variant:normal;font-weight:normal;font-stretch:normal;font-size:10px;line-height:normal;font-family:Consolas, 'Liberation Mono', Menlo, Courier, monospace;text-indent:0;text-align:start;text-decoration:none;text-decoration-line:none;text-decoration-style:solid;text-decoration-color:#000000;letter-spacing:normal;word-spacing:normal;text-transform:none;direction:ltr;block-progression:tb;writing-mode:lr-tb;baseline-shift:baseline;text-anchor:middle;white-space:normal;clip-rule:nonzero;display:inline;overflow:visible;visibility:visible;opacity:1;isolation:auto;mix-blend-mode:normal;color-interpolation:sRGB;color-interpolation-filters:linearRGB;solid-color:#000000;solid-opacity:1;fill:#000000;fill-opacity:1;fill-rule:nonzero;stroke:none;stroke-width:1;stroke-linecap:butt;stroke-linejoin:miter;stroke-miterlimit:4;stroke-dasharray:none;stroke-dashoffset:0;stroke-opacity:1;color-rendering:auto;image-rendering:auto;shape-rendering:auto;text-rendering:auto;enable-background:accumulate"
         transform="matrix(0.90630779,0.42261826,-0.42261826,0.90630779,0,0)">SDAE</text>
      <rect
         style="color:#000000;clip-rule:nonzero;display:inline;overflow:visible;visibility:visible;opacity:1;isolation:auto;mix-blend-mode:normal;color-interpolation:sRGB;color-interpolation-filters:linearRGB;solid-color:#000000;solid-opacity:1;fill:#40c4ff;fill-opacity:1;fill-rule:nonzero;stroke:none;stroke-width:1.25;stroke-linecap:butt;stroke-linejoin:miter;stroke-miterlimit:4;stroke-dasharray:none;stroke-dashoffset:0;stroke-opacity:1;color-rendering:auto;image-rendering:auto;shape-rendering:auto;text-rendering:auto;enable-background:accumulate"
         id="rect345"
         y="92.358376"
         x="426.87161"
         width="27.630268"
         ry="0"
         rx="0"
         height="388.13275"
         class="rect reactive tooltip-trigger" />
      <text
         style="font-size:12.97925472px;font-family:Consolas, 'Liberation Mono', Menlo, Courier, monospace;text-anchor:middle;opacity:1;fill:#000000;stroke:none;stroke-opacity:1"
         id="text439"
         y="478.32785"
         x="440.68677"
         class="value">83.4</text>
    </g>
    <g
       id="g4270">
      <text
         class=""
         x="637.53101"
         y="247.39136"
         id="text215"
         style="color:#000000;font-style:normal;font-variant:normal;font-weight:normal;font-stretch:normal;font-size:10px;line-height:normal;font-family:Consolas, 'Liberation Mono', Menlo, Courier, monospace;text-indent:0;text-align:start;text-decoration:none;text-decoration-line:none;text-decoration-style:solid;text-decoration-color:#000000;letter-spacing:normal;word-spacing:normal;text-transform:none;direction:ltr;block-progression:tb;writing-mode:lr-tb;baseline-shift:baseline;text-anchor:middle;white-space:normal;clip-rule:nonzero;display:inline;overflow:visible;visibility:visible;opacity:1;isolation:auto;mix-blend-mode:normal;color-interpolation:sRGB;color-interpolation-filters:linearRGB;solid-color:#000000;solid-opacity:1;fill:#000000;fill-opacity:1;fill-rule:nonzero;stroke:none;stroke-width:1;stroke-linecap:butt;stroke-linejoin:miter;stroke-miterlimit:4;stroke-dasharray:none;stroke-dashoffset:0;stroke-opacity:1;color-rendering:auto;image-rendering:auto;shape-rendering:auto;text-rendering:auto;enable-background:accumulate"
         transform="matrix(0.90630779,0.42261826,-0.42261826,0.90630779,0,0)">TDAE</text>
      <rect
         style="color:#000000;clip-rule:nonzero;display:inline;overflow:visible;visibility:visible;opacity:1;isolation:auto;mix-blend-mode:normal;color-interpolation:sRGB;color-interpolation-filters:linearRGB;solid-color:#000000;solid-opacity:1;fill:#40c4ff;fill-opacity:1;fill-rule:nonzero;stroke:none;stroke-width:1.25;stroke-linecap:butt;stroke-linejoin:miter;stroke-miterlimit:4;stroke-dasharray:none;stroke-dashoffset:0;stroke-opacity:1;color-rendering:auto;image-rendering:auto;shape-rendering:auto;text-rendering:auto;enable-background:accumulate"
         id="rect357"
         y="73.8368"
         x="462.55121"
         width="27.630268"
         ry="0"
         rx="0"
         height="406.65433"
         class="rect reactive tooltip-trigger" />
      <text
         style="font-size:12.97925472px;font-family:Consolas, 'Liberation Mono', Menlo, Courier, monospace;text-anchor:middle;opacity:1;fill:#000000;stroke:none;stroke-opacity:1"
         id="text441"
         y="478.32785"
         x="476.36633"
         class="value">84.1</text>
    </g>
    <g
       id="g4265">
      <text
         class=""
         x="687.91455"
         y="232.31253"
         id="text221"
         style="color:#000000;font-style:normal;font-variant:normal;font-weight:normal;font-stretch:normal;font-size:10px;line-height:normal;font-family:Consolas, 'Liberation Mono', Menlo, Courier, monospace;text-indent:0;text-align:start;text-decoration:none;text-decoration-line:none;text-decoration-style:solid;text-decoration-color:#000000;letter-spacing:normal;word-spacing:normal;text-transform:none;direction:ltr;block-progression:tb;writing-mode:lr-tb;baseline-shift:baseline;text-anchor:middle;white-space:normal;clip-rule:nonzero;display:inline;overflow:visible;visibility:visible;opacity:1;isolation:auto;mix-blend-mode:normal;color-interpolation:sRGB;color-interpolation-filters:linearRGB;solid-color:#000000;solid-opacity:1;fill:#000000;fill-opacity:1;fill-rule:nonzero;stroke:none;stroke-width:1;stroke-linecap:butt;stroke-linejoin:miter;stroke-miterlimit:4;stroke-dasharray:none;stroke-dashoffset:0;stroke-opacity:1;color-rendering:auto;image-rendering:auto;shape-rendering:auto;text-rendering:auto;enable-background:accumulate"
         transform="matrix(0.90630779,0.42261826,-0.42261826,0.90630779,0,0)">TDAE(relu)</text>
      <rect
         style="color:#000000;clip-rule:nonzero;display:inline;overflow:visible;visibility:visible;opacity:1;isolation:auto;mix-blend-mode:normal;color-interpolation:sRGB;color-interpolation-filters:linearRGB;solid-color:#000000;solid-opacity:1;fill:#8bc34a;fill-opacity:1;fill-rule:nonzero;stroke:none;stroke-width:1.25;stroke-linecap:butt;stroke-linejoin:miter;stroke-miterlimit:4;stroke-dasharray:none;stroke-dashoffset:0;stroke-opacity:1;color-rendering:auto;image-rendering:auto;shape-rendering:auto;text-rendering:auto;enable-background:accumulate"
         id="rect369"
         y="45.040657"
         x="498.23074"
         width="27.630268"
         ry="0"
         rx="0"
         height="435.45047"
         class="rect reactive tooltip-trigger" />
      <text
         style="font-size:12.97925472px;font-family:Consolas, 'Liberation Mono', Menlo, Courier, monospace;text-anchor:middle;opacity:1;fill:#000000;stroke:none;stroke-opacity:1"
         id="text443"
         y="478.32785"
         x="512.0459"
         class="value">85.2</text>
    </g>
  </g>
  <rect
     style="font-size:medium;font-family:Consolas, 'Liberation Mono', Menlo, Courier, monospace;fill-opacity:0.95;stroke-width:0.5"
     y="472.36221"
     x="139"
     id="rect455"
     width="0"
     ry="0"
     rx="0"
     height="0"
     class="tooltip-box" />
  <g
     id="g4251"
     transform="translate(42,0)">
    <g
       id="g4241">
      <text
         class=""
         x="752.67639"
         y="197.92868"
         id="text235"
         style="color:#000000;font-style:normal;font-variant:normal;font-weight:normal;font-stretch:normal;font-size:10px;line-height:normal;font-family:Consolas, 'Liberation Mono', Menlo, Courier, monospace;text-indent:0;text-align:start;text-decoration:none;text-decoration-line:none;text-decoration-style:solid;text-decoration-color:#000000;letter-spacing:normal;word-spacing:normal;text-transform:none;direction:ltr;block-progression:tb;writing-mode:lr-tb;baseline-shift:baseline;text-anchor:middle;white-space:normal;clip-rule:nonzero;display:inline;overflow:visible;visibility:visible;opacity:1;isolation:auto;mix-blend-mode:normal;color-interpolation:sRGB;color-interpolation-filters:linearRGB;solid-color:#000000;solid-opacity:1;fill:#000000;fill-opacity:1;fill-rule:nonzero;stroke:none;stroke-width:1;stroke-linecap:butt;stroke-linejoin:miter;stroke-miterlimit:4;stroke-dasharray:none;stroke-dashoffset:0;stroke-opacity:1;color-rendering:auto;image-rendering:auto;shape-rendering:auto;text-rendering:auto;enable-background:accumulate"
         transform="matrix(0.90630779,0.42261826,-0.42261826,0.90630779,0,0)">ASR_TRS</text>
      <rect
         style="color:#000000;clip-rule:nonzero;display:inline;overflow:visible;visibility:visible;opacity:1;isolation:auto;mix-blend-mode:normal;color-interpolation:sRGB;color-interpolation-filters:linearRGB;solid-color:#000000;solid-opacity:1;fill:#ffc107;fill-opacity:1;fill-rule:nonzero;stroke:none;stroke-width:1.25;stroke-linecap:butt;stroke-linejoin:miter;stroke-miterlimit:4;stroke-dasharray:none;stroke-dashoffset:0;stroke-opacity:1;color-rendering:auto;image-rendering:auto;shape-rendering:auto;text-rendering:auto;enable-background:accumulate"
         id="rect391"
         y="73.8368"
         x="579.5899"
         width="27.630268"
         ry="0"
         rx="0"
         height="406.65433"
         class="rect reactive tooltip-trigger" />
      <text
         style="font-size:12.97925472px;font-family:Consolas, 'Liberation Mono', Menlo, Courier, monospace;text-anchor:middle;opacity:1;fill:#000000;stroke:none;stroke-opacity:1"
         id="text447"
         y="478.32785"
         x="593.40503"
         class="value">84.1</text>
    </g>
    <g
       id="g4236">
      <text
         class=""
         x="784.61981"
         y="182.93283"
         id="text241"
         style="color:#000000;font-style:normal;font-variant:normal;font-weight:normal;font-stretch:normal;font-size:10px;line-height:normal;font-family:Consolas, 'Liberation Mono', Menlo, Courier, monospace;text-indent:0;text-align:start;text-decoration:none;text-decoration-line:none;text-decoration-style:solid;text-decoration-color:#000000;letter-spacing:normal;word-spacing:normal;text-transform:none;direction:ltr;block-progression:tb;writing-mode:lr-tb;baseline-shift:baseline;text-anchor:middle;white-space:normal;clip-rule:nonzero;display:inline;overflow:visible;visibility:visible;opacity:1;isolation:auto;mix-blend-mode:normal;color-interpolation:sRGB;color-interpolation-filters:linearRGB;solid-color:#000000;solid-opacity:1;fill:#000000;fill-opacity:1;fill-rule:nonzero;stroke:none;stroke-width:1;stroke-linecap:butt;stroke-linejoin:miter;stroke-miterlimit:4;stroke-dasharray:none;stroke-dashoffset:0;stroke-opacity:1;color-rendering:auto;image-rendering:auto;shape-rendering:auto;text-rendering:auto;enable-background:accumulate"
         transform="matrix(0.90630779,0.42261826,-0.42261826,0.90630779,0,0)">SAE_TRS</text>
      <rect
         style="color:#000000;clip-rule:nonzero;display:inline;overflow:visible;visibility:visible;opacity:1;isolation:auto;mix-blend-mode:normal;color-interpolation:sRGB;color-interpolation-filters:linearRGB;solid-color:#000000;solid-opacity:1;fill:#ffc107;fill-opacity:1;fill-rule:nonzero;stroke:none;stroke-width:1.25;stroke-linecap:butt;stroke-linejoin:miter;stroke-miterlimit:4;stroke-dasharray:none;stroke-dashoffset:0;stroke-opacity:1;color-rendering:auto;image-rendering:auto;shape-rendering:auto;text-rendering:auto;enable-background:accumulate"
         id="rect403"
         y="42.441292"
         x="615.26953"
         width="27.630268"
         ry="0"
         rx="0"
         height="438.04987"
         class="rect reactive tooltip-trigger" />
      <text
         style="font-size:12.97925472px;font-family:Consolas, 'Liberation Mono', Menlo, Courier, monospace;text-anchor:middle;opacity:1;fill:#000000;stroke:none;stroke-opacity:1"
         id="text449"
         y="478.32785"
         x="629.08459"
         class="value">85.3</text>
    </g>
    <g
       id="g4246">
      <rect
         style="color:#000000;clip-rule:nonzero;display:inline;overflow:visible;visibility:visible;opacity:1;isolation:auto;mix-blend-mode:normal;color-interpolation:sRGB;color-interpolation-filters:linearRGB;solid-color:#000000;solid-opacity:1;fill:#ffc107;fill-opacity:1;fill-rule:nonzero;stroke:none;stroke-width:1.25;stroke-linecap:butt;stroke-linejoin:miter;stroke-miterlimit:4;stroke-dasharray:none;stroke-dashoffset:0;stroke-opacity:1;color-rendering:auto;image-rendering:auto;shape-rendering:auto;text-rendering:auto;enable-background:accumulate"
         id="rect345-2"
         y="92.358376"
         x="545.60681"
         width="27.630268"
         ry="0"
         rx="0"
         height="388.13275"
         class="rect reactive tooltip-trigger" />
      <text
         style="font-size:12.97925472px;font-family:Consolas, 'Liberation Mono', Menlo, Courier, monospace;text-anchor:middle;opacity:1;fill:#000000;stroke:none;stroke-opacity:1"
         id="text439-9"
         y="478.67349"
         x="559.31421"
         class="value">83.4</text>
      <text
         class=""
         x="730.85187"
         y="212.29057"
         id="text185-7"
         style="color:#000000;font-style:normal;font-variant:normal;font-weight:normal;font-stretch:normal;font-size:10px;line-height:normal;font-family:Consolas, 'Liberation Mono', Menlo, Courier, monospace;text-indent:0;text-align:start;text-decoration:none;text-decoration-line:none;text-decoration-style:solid;text-decoration-color:#000000;letter-spacing:normal;word-spacing:normal;text-transform:none;direction:ltr;block-progression:tb;writing-mode:lr-tb;baseline-shift:baseline;text-anchor:middle;white-space:normal;clip-rule:nonzero;display:inline;overflow:visible;visibility:visible;opacity:1;isolation:auto;mix-blend-mode:normal;color-interpolation:sRGB;color-interpolation-filters:linearRGB;solid-color:#000000;solid-opacity:1;fill:#000000;fill-opacity:1;fill-rule:nonzero;stroke:none;stroke-width:1;stroke-linecap:butt;stroke-linejoin:miter;stroke-miterlimit:4;stroke-dasharray:none;stroke-dashoffset:0;stroke-opacity:1;color-rendering:auto;image-rendering:auto;shape-rendering:auto;text-rendering:auto;enable-background:accumulate"
         transform="matrix(0.90630779,0.42261826,-0.42261826,0.90630779,0,0)">TF.IDF_TRS</text>
    </g>
  </g>
  <g
     id="g4346"
     transform="translate(0.12980311,0)">
    <text
       transform="matrix(0.90630779,0.42261826,-0.42261826,0.90630779,0,0)"
       style="color:#000000;font-style:normal;font-variant:normal;font-weight:normal;font-stretch:normal;font-size:10px;line-height:normal;font-family:Consolas, 'Liberation Mono', Menlo, Courier, monospace;text-indent:0;text-align:start;text-decoration:none;text-decoration-line:none;text-decoration-style:solid;text-decoration-color:#000000;letter-spacing:normal;word-spacing:normal;text-transform:none;direction:ltr;block-progression:tb;writing-mode:lr-tb;baseline-shift:baseline;text-anchor:middle;white-space:normal;clip-rule:nonzero;display:inline;overflow:visible;visibility:visible;opacity:1;isolation:auto;mix-blend-mode:normal;color-interpolation:sRGB;color-interpolation-filters:linearRGB;solid-color:#000000;solid-opacity:1;fill:#000000;fill-opacity:1;fill-rule:nonzero;stroke:none;stroke-width:1;stroke-linecap:butt;stroke-linejoin:miter;stroke-miterlimit:4;stroke-dasharray:none;stroke-dashoffset:0;stroke-opacity:1;color-rendering:auto;image-rendering:auto;shape-rendering:auto;text-rendering:auto;enable-background:accumulate"
       id="text191-4"
       y="292.64545"
       x="546.54779"
       class="">MLP_AE</text>
    <rect
       class="rect reactive tooltip-trigger"
       height="332"
       rx="0"
       ry="0"
       width="27.630268"
       x="355.46649"
       y="148.49112"
       id="rect309-9"
       style="color:#000000;clip-rule:nonzero;display:inline;overflow:visible;visibility:visible;opacity:1;isolation:auto;mix-blend-mode:normal;color-interpolation:sRGB;color-interpolation-filters:linearRGB;solid-color:#000000;solid-opacity:1;fill:#40c4ff;fill-opacity:1;fill-rule:nonzero;stroke:none;stroke-width:1.25;stroke-linecap:butt;stroke-linejoin:miter;stroke-miterlimit:4;stroke-dasharray:none;stroke-dashoffset:0;stroke-opacity:1;color-rendering:auto;image-rendering:auto;shape-rendering:auto;text-rendering:auto;enable-background:accumulate" />
    <text
       class="value"
       x="369.28165"
       y="478.32782"
       id="text433-3"
       style="font-size:12.97925472px;font-family:Consolas, 'Liberation Mono', Menlo, Courier, monospace;text-anchor:middle;opacity:1;fill:#000000;stroke:none;stroke-opacity:1">81.3</text>
  </g>
</svg>
