<?xml version="1.0" encoding="UTF-8" standalone="no"?>
<!-- Created with Inkscape (http://www.inkscape.org/) -->

<svg
   xmlns:dc="http://purl.org/dc/elements/1.1/"
   xmlns:cc="http://creativecommons.org/ns#"
   xmlns:rdf="http://www.w3.org/1999/02/22-rdf-syntax-ns#"
   xmlns:svg="http://www.w3.org/2000/svg"
   xmlns="http://www.w3.org/2000/svg"
   xmlns:sodipodi="http://sodipodi.sourceforge.net/DTD/sodipodi-0.dtd"
   xmlns:inkscape="http://www.inkscape.org/namespaces/inkscape"
   width="184.33022mm"
   height="61.48716mm"
   viewBox="0 0 653.13856 217.86789"
   id="svg7798"
   version="1.1"
   inkscape:version="0.91 r13725"
   sodipodi:docname="asr.svg">
  <defs
     id="defs7800">
    <clipPath
       clipPathUnits="userSpaceOnUse"
       id="clipPath526">
      <path
         inkscape:connector-curvature="0"
         d="m 27,2342 117,0 0,123 -117,0 0,-123 z"
         id="path528" />
    </clipPath>
  </defs>
  <sodipodi:namedview
     id="base"
     pagecolor="#ffffff"
     bordercolor="#666666"
     borderopacity="1.0"
     inkscape:pageopacity="0.0"
     inkscape:pageshadow="2"
     inkscape:zoom="0.7"
     inkscape:cx="329.28825"
     inkscape:cy="-72.5025"
     inkscape:document-units="px"
     inkscape:current-layer="g13039"
     showgrid="false"
     fit-margin-left="1"
     fit-margin-top="1"
     fit-margin-right="1"
     fit-margin-bottom="1"
     inkscape:window-width="1276"
     inkscape:window-height="755"
     inkscape:window-x="4"
     inkscape:window-y="1"
     inkscape:window-maximized="1" />
  <metadata
     id="metadata7803">
    <rdf:RDF>
      <cc:Work
         rdf:about="">
        <dc:format>image/svg+xml</dc:format>
        <dc:type
           rdf:resource="http://purl.org/dc/dcmitype/StillImage" />
        <dc:title></dc:title>
      </cc:Work>
    </rdf:RDF>
  </metadata>
  <g
     inkscape:label="Calque 1"
     inkscape:groupmode="layer"
     id="layer1"
     transform="translate(-43.058392,-8.363871)">
    <flowRoot
       xml:space="preserve"
       id="flowRoot13013"
       style="font-style:normal;font-variant:normal;font-weight:normal;font-stretch:normal;font-size:12.5px;line-height:125%;font-family:Helvetica;-inkscape-font-specification:Helvetica;text-align:center;letter-spacing:0px;word-spacing:0px;text-anchor:middle;fill:#000000;fill-opacity:1;stroke:none;stroke-width:1px;stroke-linecap:butt;stroke-linejoin:miter;stroke-opacity:1"><flowRegion
         id="flowRegion13015"><rect
           id="rect13017"
           width="202.0305"
           height="35.355339"
           x="403.05087"
           y="121.00156" /></flowRegion><flowPara
         id="flowPara13019"></flowPara></flowRoot>    <g
       id="g13039">
      <g
         id="g13119"
         transform="translate(24.285714,-97.142857)">
        <g
           transform="matrix(1.3226626,0,0,1.3226626,-250.12163,136.78253)"
           id="g63201">
          <path
             style="fill:#000000;fill-rule:evenodd;stroke:#000000;stroke-width:1px;stroke-linecap:butt;stroke-linejoin:miter;stroke-opacity:1"
             d="m 240.82392,77.08682 a 19.285715,19.285715 0 0 1 -7.875,1.69727 19.285715,19.285715 0 0 1 -6.53125,-1.1582 c -5.96553,5.45888 -12.59704,17.84375 -19.76172,40.86132 l 52.14258,0 c 0,0 -6.64571,-31.47419 -17.97461,-41.40039 z"
             id="path4138-4"
             inkscape:connector-curvature="0" />
          <g
             id="g63193"
             transform="translate(-1.5892267,0)">
            <g
               transform="translate(118.57143,-202.85714)"
               id="g62948">
              <g
                 id="g4205"
                 transform="matrix(-1,0,0,1,230.91018,21.375001)">
                <g
                   id="g4200">
                  <circle
                     style="color:#000000;clip-rule:nonzero;display:inline;overflow:visible;visibility:visible;opacity:1;isolation:auto;mix-blend-mode:normal;color-interpolation:sRGB;color-interpolation-filters:linearRGB;solid-color:#000000;solid-opacity:1;fill:#000000;fill-opacity:1;fill-rule:nonzero;stroke:none;stroke-width:3;stroke-linecap:butt;stroke-linejoin:miter;stroke-miterlimit:4;stroke-dasharray:none;stroke-dashoffset:0;stroke-opacity:0;marker:none;color-rendering:auto;image-rendering:auto;shape-rendering:auto;text-rendering:auto;enable-background:accumulate"
                     id="path4136"
                     cx="115.50547"
                     cy="238.87793"
                     r="17.5355" />
                </g>
              </g>
            </g>
          </g>
        </g>
        <g
           transform="matrix(0.80170201,0,0,1.3226626,-51.217166,-351.18994)"
           id="g62692">
          <path
             inkscape:transform-center-y="-1.9822141"
             d="m 194.17557,456.41259 3.43333,5.9467 3.43332,5.9467 -6.86665,0 -6.86666,0 3.43333,-5.9467 z"
             inkscape:randomized="0"
             inkscape:rounded="0"
             inkscape:flatsided="false"
             sodipodi:arg2="-0.52359878"
             sodipodi:arg1="-1.5707963"
             sodipodi:r2="3.9644661"
             sodipodi:r1="7.9289322"
             sodipodi:cy="464.34152"
             sodipodi:cx="194.17557"
             sodipodi:sides="3"
             id="path4982-06"
             style="color:#000000;clip-rule:nonzero;display:inline;overflow:visible;visibility:visible;opacity:1;isolation:auto;mix-blend-mode:normal;color-interpolation:sRGB;color-interpolation-filters:linearRGB;solid-color:#000000;solid-opacity:1;fill:#daf28f;fill-opacity:1;fill-rule:nonzero;stroke:none;stroke-width:0.5;stroke-linecap:butt;stroke-linejoin:miter;stroke-miterlimit:4;stroke-dasharray:none;stroke-dashoffset:0;stroke-opacity:1;marker:none;color-rendering:auto;image-rendering:auto;shape-rendering:auto;text-rendering:auto;enable-background:accumulate"
             sodipodi:type="star" />
          <g
             id="g4916"
             transform="translate(-1.53872,-160.60533)">
            <rect
               ry="7.1244879"
               y="593.93671"
               x="194.53778"
               height="34.974621"
               width="142.38795"
               id="rect4720-9"
               style="color:#000000;clip-rule:nonzero;display:inline;overflow:visible;visibility:visible;opacity:1;isolation:auto;mix-blend-mode:normal;color-interpolation:sRGB;color-interpolation-filters:linearRGB;solid-color:#000000;solid-opacity:1;fill:#daf28f;fill-opacity:1;fill-rule:nonzero;stroke:none;stroke-width:0.5;stroke-linecap:butt;stroke-linejoin:miter;stroke-miterlimit:4;stroke-dasharray:none;stroke-dashoffset:0;stroke-opacity:1;marker:none;color-rendering:auto;image-rendering:auto;shape-rendering:auto;text-rendering:auto;enable-background:accumulate" />
            <g
               transform="translate(0,-170.48267)"
               id="g4710" />
          </g>
        </g>
        <g
           transform="matrix(0,-0.38205112,0.25951836,0,180.84045,316.72894)"
           id="g62896">
          <rect
             style="color:#000000;clip-rule:nonzero;display:inline;overflow:visible;visibility:visible;opacity:1;isolation:auto;mix-blend-mode:normal;color-interpolation:sRGB;color-interpolation-filters:linearRGB;solid-color:#000000;solid-opacity:1;fill:#000000;fill-opacity:1;fill-rule:nonzero;stroke:none;stroke-width:1.31489491;stroke-linecap:butt;stroke-linejoin:miter;stroke-miterlimit:4;stroke-dasharray:none;stroke-dashoffset:0;stroke-opacity:1;marker:none;color-rendering:auto;image-rendering:auto;shape-rendering:auto;text-rendering:auto;enable-background:accumulate"
             id="rect62774"
             width="5.0507627"
             height="135.36044"
             x="258.59906"
             y="356.3671"
             ry="0" />
          <path
             sodipodi:type="star"
             style="color:#000000;clip-rule:nonzero;display:inline;overflow:visible;visibility:visible;opacity:1;isolation:auto;mix-blend-mode:normal;color-interpolation:sRGB;color-interpolation-filters:linearRGB;solid-color:#000000;solid-opacity:1;fill:#000000;fill-opacity:1;fill-rule:nonzero;stroke:none;stroke-width:1.31489491;stroke-linecap:butt;stroke-linejoin:miter;stroke-miterlimit:4;stroke-dasharray:none;stroke-dashoffset:0;stroke-opacity:1;marker:none;color-rendering:auto;image-rendering:auto;shape-rendering:auto;text-rendering:auto;enable-background:accumulate"
             id="path62776"
             sodipodi:sides="3"
             sodipodi:cx="261.12445"
             sodipodi:cy="493.07443"
             sodipodi:r1="19.927498"
             sodipodi:r2="9.9637489"
             sodipodi:arg1="1.5707963"
             sodipodi:arg2="2.6179939"
             inkscape:flatsided="false"
             inkscape:rounded="0"
             inkscape:randomized="0"
             d="m 261.12445,513.00193 -8.62886,-14.94562 -8.62886,-14.94563 17.25772,0 17.25772,0 -8.62886,14.94563 z"
             inkscape:transform-center-y="4.9818806" />
        </g>
        <g
           transform="matrix(0.80170201,0,0,1.3226626,-51.217166,-405.26868)"
           id="g62692-0">
          <path
             inkscape:transform-center-y="-1.9822141"
             d="m 194.17557,456.41259 3.43333,5.9467 3.43332,5.9467 -6.86665,0 -6.86666,0 3.43333,-5.9467 z"
             inkscape:randomized="0"
             inkscape:rounded="0"
             inkscape:flatsided="false"
             sodipodi:arg2="-0.52359878"
             sodipodi:arg1="-1.5707963"
             sodipodi:r2="3.9644661"
             sodipodi:r1="7.9289322"
             sodipodi:cy="464.34152"
             sodipodi:cx="194.17557"
             sodipodi:sides="3"
             id="path4982-06-1"
             style="color:#000000;clip-rule:nonzero;display:inline;overflow:visible;visibility:visible;opacity:1;isolation:auto;mix-blend-mode:normal;color-interpolation:sRGB;color-interpolation-filters:linearRGB;solid-color:#000000;solid-opacity:1;fill:#daf28f;fill-opacity:1;fill-rule:nonzero;stroke:none;stroke-width:0.5;stroke-linecap:butt;stroke-linejoin:miter;stroke-miterlimit:4;stroke-dasharray:none;stroke-dashoffset:0;stroke-opacity:1;marker:none;color-rendering:auto;image-rendering:auto;shape-rendering:auto;text-rendering:auto;enable-background:accumulate"
             sodipodi:type="star" />
          <g
             id="g4916-9"
             transform="translate(-1.53872,-160.60533)">
            <rect
               ry="7.1244879"
               y="593.93671"
               x="194.53778"
               height="34.974621"
               width="142.38795"
               id="rect4720-9-5"
               style="color:#000000;clip-rule:nonzero;display:inline;overflow:visible;visibility:visible;opacity:1;isolation:auto;mix-blend-mode:normal;color-interpolation:sRGB;color-interpolation-filters:linearRGB;solid-color:#000000;solid-opacity:1;fill:#daf28f;fill-opacity:1;fill-rule:nonzero;stroke:none;stroke-width:0.5;stroke-linecap:butt;stroke-linejoin:miter;stroke-miterlimit:4;stroke-dasharray:none;stroke-dashoffset:0;stroke-opacity:1;marker:none;color-rendering:auto;image-rendering:auto;shape-rendering:auto;text-rendering:auto;enable-background:accumulate" />
            <g
               transform="translate(0,-170.48267)"
               id="g4710-3" />
          </g>
        </g>
        <g
           transform="matrix(0.80170201,0,0,1.3226626,-51.217166,-461.34741)"
           id="g62692-06">
          <path
             inkscape:transform-center-y="-1.9822141"
             d="m 194.17557,456.41259 3.43333,5.9467 3.43332,5.9467 -6.86665,0 -6.86666,0 3.43333,-5.9467 z"
             inkscape:randomized="0"
             inkscape:rounded="0"
             inkscape:flatsided="false"
             sodipodi:arg2="-0.52359878"
             sodipodi:arg1="-1.5707963"
             sodipodi:r2="3.9644661"
             sodipodi:r1="7.9289322"
             sodipodi:cy="464.34152"
             sodipodi:cx="194.17557"
             sodipodi:sides="3"
             id="path4982-06-5"
             style="color:#000000;clip-rule:nonzero;display:inline;overflow:visible;visibility:visible;opacity:1;isolation:auto;mix-blend-mode:normal;color-interpolation:sRGB;color-interpolation-filters:linearRGB;solid-color:#000000;solid-opacity:1;fill:#daf28f;fill-opacity:1;fill-rule:nonzero;stroke:none;stroke-width:0.5;stroke-linecap:butt;stroke-linejoin:miter;stroke-miterlimit:4;stroke-dasharray:none;stroke-dashoffset:0;stroke-opacity:1;marker:none;color-rendering:auto;image-rendering:auto;shape-rendering:auto;text-rendering:auto;enable-background:accumulate"
             sodipodi:type="star" />
          <g
             id="g4916-5"
             transform="translate(-1.53872,-160.60533)">
            <rect
               ry="7.1244879"
               y="593.93671"
               x="194.53778"
               height="34.974621"
               width="142.38795"
               id="rect4720-9-4"
               style="color:#000000;clip-rule:nonzero;display:inline;overflow:visible;visibility:visible;opacity:1;isolation:auto;mix-blend-mode:normal;color-interpolation:sRGB;color-interpolation-filters:linearRGB;solid-color:#000000;solid-opacity:1;fill:#daf28f;fill-opacity:1;fill-rule:nonzero;stroke:none;stroke-width:0.5;stroke-linecap:butt;stroke-linejoin:miter;stroke-miterlimit:4;stroke-dasharray:none;stroke-dashoffset:0;stroke-opacity:1;marker:none;color-rendering:auto;image-rendering:auto;shape-rendering:auto;text-rendering:auto;enable-background:accumulate" />
            <g
               transform="translate(0,-170.48267)"
               id="g4710-7" />
          </g>
        </g>
        <g
           transform="matrix(0.1578822,-0.17859015,0.17859015,0.1578822,168.49706,247.60665)"
           id="g8509">
          <path
             inkscape:connector-curvature="0"
             style="color:#000000;clip-rule:nonzero;display:inline;overflow:visible;visibility:visible;opacity:1;isolation:auto;mix-blend-mode:normal;color-interpolation:sRGB;color-interpolation-filters:linearRGB;solid-color:#000000;solid-opacity:1;fill:#000000;fill-opacity:1;fill-rule:nonzero;stroke:none;stroke-width:1.31489491;stroke-linecap:butt;stroke-linejoin:miter;stroke-miterlimit:4;stroke-dasharray:none;stroke-dashoffset:0;stroke-opacity:0;marker:none;color-rendering:auto;image-rendering:auto;shape-rendering:auto;text-rendering:auto;enable-background:accumulate"
             d="m 362.03906,122.45703 -6.63086,0.18555 a 44.285713,25 0 0 1 -36.83593,11.14844 44.285713,25 0 0 1 -33.09961,-8.4375 l -12.51172,0.63671 22.08984,106.82813 9,42.73633 28.15039,0 7.72461,-39.08789 22.11328,-114.00977 z"
             id="path8475" />
          <ellipse
             style="color:#000000;clip-rule:nonzero;display:inline;overflow:visible;visibility:visible;opacity:1;isolation:auto;mix-blend-mode:normal;color-interpolation:sRGB;color-interpolation-filters:linearRGB;solid-color:#000000;solid-opacity:1;fill:#000000;fill-opacity:1;fill-rule:nonzero;stroke:none;stroke-width:1.31489491;stroke-linecap:butt;stroke-linejoin:miter;stroke-miterlimit:4;stroke-dasharray:none;stroke-dashoffset:0;stroke-opacity:0;marker:none;color-rendering:auto;image-rendering:auto;shape-rendering:auto;text-rendering:auto;enable-background:accumulate"
             id="path8477"
             cx="318.42859"
             cy="100.04077"
             rx="44.285713"
             ry="32.32143" />
          <path
             style="color:#000000;clip-rule:nonzero;display:inline;overflow:visible;visibility:visible;opacity:1;isolation:auto;mix-blend-mode:normal;color-interpolation:sRGB;color-interpolation-filters:linearRGB;solid-color:#000000;solid-opacity:1;fill:#f9f9f9;fill-opacity:1;fill-rule:nonzero;stroke:none;stroke-width:3.70000005;stroke-linecap:butt;stroke-linejoin:miter;stroke-miterlimit:4;stroke-dasharray:none;stroke-dashoffset:0;stroke-opacity:1;marker:none;color-rendering:auto;image-rendering:auto;shape-rendering:auto;text-rendering:auto;enable-background:accumulate"
             d="m 275.26655,97.515495 c 0,0 27.51853,10.318455 44.1942,10.606605 16.67567,0.28814 41.9213,-10.606605 41.9213,-10.606605 0.94942,-0.240216 1.76777,0.788424 1.76777,1.767766 0,0.979339 -0.78843,1.767769 -1.76777,1.767769 0,0 -19.05845,10.62203 -41.66877,10.6066 -22.61031,-0.0154 -44.44673,-10.6066 -44.44673,-10.6066 -0.9526,-0.22733 -1.76777,-0.78843 -1.76777,-1.767769 0,-0.979342 0.78842,-1.767766 1.76777,-1.767766 z"
             id="rect8503"
             inkscape:connector-curvature="0"
             sodipodi:nodetypes="szssszsss" />
        </g>
        <g
           id="g62888"
           transform="matrix(0.52735295,0,0,0.52735295,375.03524,-113.37368)">
          <g
             transform="matrix(0.61474496,0,0,0.61474496,75.644378,217.10957)"
             id="g62863">
            <path
               inkscape:connector-curvature="0"
               style="color:#000000;clip-rule:nonzero;display:inline;overflow:visible;visibility:visible;opacity:1;isolation:auto;mix-blend-mode:normal;color-interpolation:sRGB;color-interpolation-filters:linearRGB;solid-color:#000000;solid-opacity:1;fill:#ffffff;fill-opacity:1;fill-rule:nonzero;stroke:#000000;stroke-width:1.31489491;stroke-linecap:butt;stroke-linejoin:miter;stroke-miterlimit:4;stroke-dasharray:none;stroke-dashoffset:0;stroke-opacity:1;marker:none;color-rendering:auto;image-rendering:auto;shape-rendering:auto;text-rendering:auto;enable-background:accumulate"
               d="m 247.23438,564.20508 0,15.125 A 48.228252,48.228252 0 0 0 232,586.02344 l -11.30273,-9.20899 -16.58985,20.35938 10.85547,8.8457 A 48.228252,48.228252 0 0 0 210.5957,624.625 l -13.45312,3.25977 6.18359,25.52539 13.65625,-3.3086 a 48.228252,48.228252 0 0 0 10.54688,12.75782 l -6.35938,12.85937 23.54297,11.64063 6.74219,-13.63477 a 48.228252,48.228252 0 0 0 7.29492,0.61523 48.228252,48.228252 0 0 0 6.64062,-0.51172 l 5.84766,14.5586 24.3711,-9.78711 -6.16016,-15.3418 a 48.228252,48.228252 0 0 0 10.75,-12.5957 l 16.33594,4.49805 6.9707,-25.32227 -16.55664,-4.55859 a 48.228252,48.228252 0 0 0 -3.77539,-17.82032 l 13.11133,-10.9414 -16.82813,-20.16406 -12.66601,10.57031 a 48.228252,48.228252 0 0 0 -13.29297,-6.70508 l 0,-16.01367 -26.26367,0 z"
               id="rect62780" />
            <circle
               style="color:#000000;clip-rule:nonzero;display:inline;overflow:visible;visibility:visible;opacity:1;isolation:auto;mix-blend-mode:normal;color-interpolation:sRGB;color-interpolation-filters:linearRGB;solid-color:#000000;solid-opacity:1;fill:#000000;fill-opacity:1;fill-rule:nonzero;stroke:none;stroke-width:1.31489491;stroke-linecap:butt;stroke-linejoin:miter;stroke-miterlimit:4;stroke-dasharray:none;stroke-dashoffset:0;stroke-opacity:1;marker:none;color-rendering:auto;image-rendering:auto;shape-rendering:auto;text-rendering:auto;enable-background:accumulate"
               id="path62778"
               cx="260.61935"
               cy="626.07782"
               r="26.263966" />
          </g>
          <g
             id="g62863-8"
             transform="matrix(0.61474496,0,0,0.61474496,132.52403,265.56661)">
            <path
               style="color:#000000;clip-rule:nonzero;display:inline;overflow:visible;visibility:visible;opacity:1;isolation:auto;mix-blend-mode:normal;color-interpolation:sRGB;color-interpolation-filters:linearRGB;solid-color:#000000;solid-opacity:1;fill:#ffffff;fill-opacity:1;fill-rule:nonzero;stroke:#000000;stroke-width:1.31489491;stroke-linecap:butt;stroke-linejoin:miter;stroke-miterlimit:4;stroke-dasharray:none;stroke-dashoffset:0;stroke-opacity:1;marker:none;color-rendering:auto;image-rendering:auto;shape-rendering:auto;text-rendering:auto;enable-background:accumulate"
               d="m 247.23438,564.20508 0,15.125 A 48.228252,48.228252 0 0 0 232,586.02344 l -11.30273,-9.20899 -16.58985,20.35938 10.85547,8.8457 A 48.228252,48.228252 0 0 0 210.5957,624.625 l -13.45312,3.25977 6.18359,25.52539 13.65625,-3.3086 a 48.228252,48.228252 0 0 0 10.54688,12.75782 l -6.35938,12.85937 23.54297,11.64063 6.74219,-13.63477 a 48.228252,48.228252 0 0 0 7.29492,0.61523 48.228252,48.228252 0 0 0 6.64062,-0.51172 l 5.84766,14.5586 24.3711,-9.78711 -6.16016,-15.3418 a 48.228252,48.228252 0 0 0 10.75,-12.5957 l 16.33594,4.49805 6.9707,-25.32227 -16.55664,-4.55859 a 48.228252,48.228252 0 0 0 -3.77539,-17.82032 l 13.11133,-10.9414 -16.82813,-20.16406 -12.66601,10.57031 a 48.228252,48.228252 0 0 0 -13.29297,-6.70508 l 0,-16.01367 -26.26367,0 z"
               id="rect62780-3"
               inkscape:connector-curvature="0" />
            <circle
               style="color:#000000;clip-rule:nonzero;display:inline;overflow:visible;visibility:visible;opacity:1;isolation:auto;mix-blend-mode:normal;color-interpolation:sRGB;color-interpolation-filters:linearRGB;solid-color:#000000;solid-opacity:1;fill:#000000;fill-opacity:1;fill-rule:nonzero;stroke:none;stroke-width:1.31489491;stroke-linecap:butt;stroke-linejoin:miter;stroke-miterlimit:4;stroke-dasharray:none;stroke-dashoffset:0;stroke-opacity:1;marker:none;color-rendering:auto;image-rendering:auto;shape-rendering:auto;text-rendering:auto;enable-background:accumulate"
               id="path62778-8"
               cx="260.61935"
               cy="626.07782"
               r="26.263966" />
          </g>
        </g>
        <g
           id="g534"
           transform="matrix(0.76975086,0,0,-0.76975086,314.99322,2067.2816)">
          <g
             id="g536" />
          <g
             id="g538">
            <g
               id="g540"
               clip-path="url(#clipPath526)">
              <g
                 id="g542">
                <path
                   inkscape:connector-curvature="0"
                   id="path544"
                   style="fill:#40c4ff;fill-opacity:1;fill-rule:nonzero;stroke:none"
                   d="m 27.578,2383.094 c 0.211,8.871 0.289,17.754 0.539,26.621 0.09,3.164 0.211,6.32 0.317,9.48 0.312,8.133 0.683,16.258 1.128,24.352 0.208,3.715 0.399,7.469 0.735,11.129 0.453,-0.653 1.156,-0.778 1.359,-1.957 0.27,-1.563 -0.101,-3.383 -0.148,-5.074 -0.074,-2.887 -0.149,-5.778 -0.211,-8.668 -0.188,-8.817 -0.387,-20.457 -0.481,-29.016 -0.062,-5.664 -0.089,-11.328 -0.132,-16.992 -0.063,-12.465 -0.063,-24.93 -0.012,-37.391 0.008,-2.348 0.019,-4.691 0.039,-7.035 0.039,-4.695 -0.102,-3.082 0.187,-5.664 -0.375,1.355 -1.011,2.457 -1.128,4.066 -0.188,2.598 0.199,5.25 0.269,7.879 0.094,3.469 0.152,6.942 0.215,10.41 0.219,11.758 0.156,11.477 0.394,23.325 0.075,3.847 0.172,7.687 0.262,11.531 0.242,9.465 0.594,18.91 1.055,28.324 0.137,2.824 0.43,8.332 0.64,11.363 0.075,1.09 0.18,2.168 0.27,3.254 0.313,1.668 0.574,4 1.703,-1.359 0.309,-1.481 0.051,-3.32 0.059,-4.984 0.019,-2.516 0.019,-5.032 0.019,-7.543 0,-6.946 -0.023,-14.879 -0.039,-21.758 0.051,-10.282 0.012,-20.575 0.203,-30.848 0.039,-2.078 0.055,-4.168 0.176,-6.227 0.063,-1.062 0.598,-2.171 0.371,-3.093 -0.168,-0.684 -0.512,1.004 -0.765,1.504 0.246,1.621 0.523,3.211 0.73,4.859 0.645,5.106 1.285,12.211 1.738,17.266 0.848,9.406 1.602,18.859 2.352,28.312 0.055,0.703 0.797,10.129 0.93,11.699 0.082,0.918 -0.067,2.254 0.265,2.731 1.961,2.82 1.571,-1.86 1.547,-3.731 -0.027,-2.246 -0.102,-4.48 -0.152,-6.722 -0.532,-20.848 -0.766,-41.731 -0.895,-62.614 l 0,-4.441 c 0.063,-0.133 0.219,-0.57 0.18,-0.398 -0.336,1.421 -0.981,2.558 -1.07,4.183 -0.137,2.516 0.293,5.024 0.421,7.543 0.336,6.727 0.622,13.469 0.934,20.203 0.453,9.059 0.883,18.121 1.375,27.168 0.215,3.891 0.398,7.836 0.746,11.676 0.488,-0.574 1.188,-0.59 1.461,-1.719 0.301,-1.246 0.02,-2.883 0,-4.324 -0.027,-2.336 -0.09,-4.668 -0.144,-7 -0.188,-8.512 -0.43,-17.016 -0.661,-25.519 -0.129,-5.649 -0.359,-11.286 -0.492,-16.934 -0.019,-0.727 0.242,-1.859 -0.027,-2.184 -1.926,-2.32 -1.113,2.45 -1.028,3.418 0.098,1.735 0.211,3.465 0.293,5.203 0.586,12.528 0.704,25.258 0.915,37.848 2.125,-3.496 -0.743,6.469 0.148,6.449 2.043,-0.039 1.684,-3.308 1.883,-6.715 0.25,-4.265 0.617,-10.941 0.847,-15.089 0.262,-4.5 0.594,-10.254 0.883,-14.801 0.121,-1.844 0.227,-3.699 0.375,-5.531 0.094,-1.121 0.176,-2.262 0.356,-3.313 0.054,-0.316 0.437,-0.855 0.324,-0.648 -0.356,0.664 -0.707,1.347 -1.059,2.023 0.715,7.418 0.942,15.035 1.305,22.582 0.457,-0.344 1.059,-0.152 1.371,-1.027 0.235,-0.645 -0.058,-1.699 -0.09,-2.551 -0.175,-4.734 -0.34,-9.469 -0.5,-14.207 0.43,-2.527 -1.082,-0.336 -1.211,0.613 -0.199,1.469 0.266,3.028 0.375,4.555 0.168,2.316 0.321,4.641 0.465,6.969 0.371,6.082 0.598,10.855 0.91,16.965 0.102,2.019 0.532,11.171 0.766,13.781 0.078,0.879 0.023,2.402 0.391,2.519 2.168,0.703 2.003,-3.941 2.222,-7.066 0.168,-2.367 0.293,-4.754 0.438,-7.129 0.422,-6.715 0.656,-13.496 1.066,-20.219 0.082,-1.324 0.156,-2.652 0.285,-3.957 0.059,-0.601 0.489,-1.418 0.27,-1.738 -0.336,-0.488 -0.774,0.297 -1.156,0.445 0.41,2.77 0.304,5.758 0.464,8.629 0.016,0.262 -0.027,0.774 0.086,0.77 0.512,-0.02 1,-0.551 1.5,-0.828 0.145,-2.172 0.2,-4.372 0.289,-6.563 0.028,-0.66 0.043,-1.328 0.09,-1.984 0.02,-0.301 0.239,-0.836 0.11,-0.875 -0.43,-0.137 -0.856,0.34 -1.282,0.511 0.036,0.442 0.079,0.883 0.11,1.329 0.23,3.136 0.019,0.554 0.211,3.402 0.011,0.187 -0.028,0.566 0.05,0.558 1.676,-0.214 1.465,0.145 1.411,-2.367 -0.063,-2.133 -0.239,-4.23 -0.344,-6.351 -0.012,-0.262 0.094,-0.793 -0.02,-0.797 -1.671,-0.067 -1.375,0.226 -1.082,2.426 0.098,0.812 0.2,1.629 0.293,2.445 0.012,0.101 0.489,4.398 0.543,4.766 0.051,0.351 0.051,0.976 0.203,0.996 1.793,0.226 1.516,-0.161 1.551,-2.895 -0.019,-0.969 -0.031,-1.937 -0.058,-2.906 -0.071,-2.758 -0.219,-5.504 -0.286,-8.258 -0.031,-1.238 -0.093,-1.285 0.09,-0.848 -0.722,0.317 -1.664,-0.214 -1.039,1.235 0.067,0.152 0.145,0.344 0.238,0.332 0.543,-0.086 1.11,-0.106 1.61,-0.621 0.101,-0.106 0.383,-2.774 0.387,-2.805 0.05,-0.523 0.097,-1.051 0.148,-1.574 0.043,-0.438 0.063,-0.895 0.137,-1.305 0.027,-0.137 0.207,-0.34 0.156,-0.254 -0.363,0.606 -0.969,0.789 -1.09,1.813 -0.144,1.195 0.305,2.375 0.445,3.574 0.184,1.59 0.352,3.191 0.528,4.785 0.019,0.219 1.012,9.844 1.062,10.277 0.133,1.204 0.262,2.418 0.43,3.594 0.094,0.649 0.094,1.617 0.359,1.867 1.637,1.555 1.547,0.633 1.875,-1.531 0.196,-1.258 0.149,-2.648 0.301,-3.922 0.031,-0.23 0.262,-0.703 0.172,-0.593 -0.391,0.484 -1.004,0.71 -1.105,1.75 -0.141,1.46 0.359,2.874 0.515,4.332 0.223,2.093 0.414,4.203 0.625,6.308 0.649,7.348 1.231,14.727 1.766,22.129 0.32,4.422 0.597,8.863 0.91,13.289 0.496,-0.058 1.16,0.734 1.48,-0.172 0.36,-1.019 0,-2.679 0,-4.019 -0.011,-2.36 -0.031,-4.715 -0.043,-7.075 -0.082,-12.367 -0.214,-24.726 -0.304,-37.093 -0.063,-10.699 -0.094,-21.399 -0.09,-32.102 0,-1.254 0,-8.492 0.062,-10.531 0.02,-0.566 0.094,-1.113 0.137,-1.672 -0.347,0.973 -0.976,1.645 -1.051,2.922 -0.14,2.41 0.336,4.797 0.469,7.207 0.18,3.394 0.324,6.801 0.465,10.207 0.52,12.375 0.898,24.777 1.262,37.187 0.265,8.915 0.5,17.829 0.73,26.747 0.039,1.371 0.067,2.738 0.106,4.109 0.011,0.402 -0.114,1.324 0.046,1.203 0.532,-0.414 0.918,-1.543 1.379,-2.312 -0.324,-19.875 -0.347,-39.766 -0.246,-59.653 0.028,-3.41 0.082,-10.797 0.137,-14.547 0.02,-1.328 0.461,-3.015 0.082,-3.98 -0.297,-0.766 -1.078,0.047 -1.23,1.035 -0.278,1.797 0.144,3.82 0.183,5.738 0.063,3.032 0.086,6.067 0.129,9.102 0.266,20.387 0.5,40.773 0.734,61.164 0.012,1.266 0.024,2.531 0.032,3.797 -0.008,0.23 -0.102,0.82 -0.02,0.695 0.496,-0.785 1.149,-1.453 1.356,-2.801 0.281,-1.781 -0.036,-3.804 -0.032,-5.711 0.016,-5.906 0.114,-11.656 0.196,-17.57 0.16,-9.551 0.375,-19.098 0.617,-28.641 0.133,-5.16 0.262,-10.316 0.484,-15.46 0.66,-2.301 -0.941,-0.665 -1.144,0.121 -0.223,0.871 0.133,2.031 0.183,3.05 0.09,1.758 0.157,3.524 0.239,5.286 0.265,5.761 0.476,10.011 0.761,15.843 0.594,12.547 1.328,25.055 1.914,37.606 0.016,1.097 0.012,5.683 1.336,-1.481 0.246,-1.34 -0.093,-2.925 -0.129,-4.39 -0.05,-2.149 -0.093,-4.301 -0.128,-6.453 -0.094,-5.497 -0.149,-11.364 -0.211,-16.848 -0.059,-11.719 -0.192,-23.457 0,-35.172 0.402,-2.203 -1.063,0.098 -1.219,1.074 -0.223,1.422 0.176,3.02 0.258,4.532 0.136,2.519 0.273,5.042 0.394,7.566 0.403,8.355 0.567,12.695 0.918,21.203 0.41,10.113 0.777,20.238 1.168,30.355 0.086,2.266 0.172,4.536 0.27,6.797 0.195,4.594 0.078,3.129 0.386,6.172 0.528,-0.332 1.203,-0.035 1.575,-0.992 0.332,-0.859 0.128,-2.332 0.168,-3.504 0.062,-1.91 0.109,-3.824 0.148,-5.738 0.195,-9.375 0.289,-18.766 0.426,-28.149 0.254,-16.488 0.695,-32.972 1.504,-49.359 -1.618,2.649 0.89,-4.617 0.398,-3.957 -1.808,2.422 -0.902,3.367 -0.637,8.25 0.172,3.184 0.309,6.383 0.422,9.582 0.141,4.008 0.223,8.027 0.336,12.043 0.524,21.828 0.543,43.699 0.414,65.555 1.067,-6.797 -0.433,4.914 0.121,4.347 0.614,-0.636 1.305,-1.304 1.688,-2.636 0.398,-1.379 0.324,-3.27 0.48,-4.907 0.551,-5.929 0.836,-9.347 1.364,-15.468 0.953,-11.211 1.843,-22.457 3,-33.555 0.531,-5.113 0.675,-6.105 1.269,-10.859 0.27,-1.95 0.594,-4.399 0.922,-6.344 0.102,-0.59 0.172,-1.235 0.336,-1.735 0.055,-0.171 0.348,-0.191 0.266,-0.101 -1.657,1.883 -1.262,-0.195 -0.993,4.875 0.051,2.168 0.118,4.336 0.149,6.508 0.043,2.75 0.062,5.5 0.082,8.25 0.078,11.547 0.015,23.082 -0.102,34.625 -0.023,1.851 -0.05,3.703 -0.074,5.554 -0.019,1.258 -0.043,2.512 -0.059,3.766 -0.011,0.508 -0.222,1.48 -0.011,1.527 1.859,0.414 1.453,-2.136 1.582,-5.039 0.082,-1.871 0.176,-3.742 0.265,-5.613 0.485,-10.281 0.965,-20.57 1.582,-30.812 0.336,-5.512 0.465,-7.102 0.848,-12.364 0.024,-0.293 0.524,-6.785 0.625,-7.66 0.067,-0.551 0.5,-1.289 0.293,-1.562 -0.316,-0.426 -0.934,-0.286 -1.062,0.531 -0.172,1.058 0.336,2.133 0.453,3.234 0.195,1.883 0.32,3.801 0.48,5.703 0.91,12.047 1.531,24.2 2.258,36.313 0.051,0.277 0.039,0.949 0.16,0.836 0.602,-0.578 1.277,-1.246 1.637,-2.559 0.387,-1.414 0.285,-3.32 0.426,-4.98 0.207,-2.449 0.41,-4.903 0.621,-7.348 0.636,-7.332 0.832,-9.391 1.5,-16.695 0.535,-5.387 0.769,-8.039 1.371,-13.164 0.148,-1.25 0.289,-2.5 0.476,-3.719 0.071,-0.465 0.493,-1.203 0.293,-1.309 -1.586,-0.824 -1.293,0.934 -1.297,2.996 -0.195,6.086 -0.406,12.192 -0.796,18.227 0.48,0.047 0.98,0.48 1.437,0.141 0.18,-0.129 0.098,-0.871 0.149,-1.305 0.21,-1.879 0.402,-3.789 0.687,-5.609 0.078,-0.497 0.176,-0.973 0.266,-1.461 0.082,-0.262 0.379,-0.746 0.242,-0.789 -0.387,-0.122 -0.836,-0.043 -1.156,0.503 -0.141,0.243 0.144,0.766 0.187,1.172 0.223,2.082 0.254,4.289 0.313,6.426 0.129,0.988 -0.024,2.109 0.093,3.113 0.153,1.344 1.817,-0.878 1.817,-0.882 0.277,-0.438 0.297,-1.426 0.441,-2.141 0.184,-0.918 0.363,-1.844 0.543,-2.762 0.508,-2.551 0.633,-3.238 1.168,-5.699 0.164,-0.746 0.309,-1.523 0.5,-2.227 0.117,-0.41 0.621,-0.976 0.422,-1.089 -1.449,-0.809 -0.996,1.32 -0.883,2.851 0.067,3.602 -0.062,7.203 -0.269,10.77 -0.063,1.043 -0.141,2.082 -0.215,3.121 -0.16,2.246 -0.168,1.285 -0.129,2.597 0.574,-0.359 1.219,-0.3 1.715,-1.078 0.344,-0.531 0.406,-1.703 0.609,-2.554 0.27,-1.149 0.539,-2.297 0.809,-3.438 0.176,-0.73 1.558,-6.492 1.765,-7.289 0.243,-0.922 0.508,-1.797 0.762,-2.691 0.231,-0.313 0.559,-1.481 0.695,-0.93 0.141,0.555 -0.644,0.594 -0.621,1.242 0.051,1.383 0.582,2.41 0.801,3.692 0.383,2.253 0.703,4.57 1.012,6.894 0.875,6.641 1.359,11.645 2.082,18.442 0.808,8.093 1.527,16.242 2.222,24.398 0.258,3.035 0.469,6.098 0.766,9.109 0.074,0.77 0.184,1.516 0.277,2.27 0.555,-0.01 1.204,0.719 1.668,-0.016 0.414,-0.656 0.356,-2.246 0.497,-3.398 0.265,-2.188 0.484,-4.403 0.718,-6.61 1.09,-10.378 2.102,-20.808 3.129,-31.226 0.809,-8.508 1.594,-17.031 2.324,-25.582 0.348,-4.082 0.664,-8.168 1.063,-12.223 1.07,-2.183 -0.559,-0.148 -0.578,0.328 -0.071,1.52 0.48,2.832 0.656,4.297 0.332,2.731 0.617,5.496 0.855,8.281 0.903,10.528 1.063,15.188 1.653,26.028 0.582,12.164 0.969,24.379 1.23,36.605 0.09,4.231 0.192,9.207 0.16,13.535 -0.011,0.754 -0.05,1.5 -0.074,2.25 0.43,-0.441 1.094,-0.293 1.289,-1.32 0.27,-1.43 -0.14,-3.133 -0.152,-4.707 -0.016,-2.934 0,-5.867 0.062,-8.797 0.18,-7.898 0.606,-16.89 1.043,-24.691 0.239,-4.184 0.528,-8.344 0.789,-12.52 0.961,-13.648 2,-27.308 3.583,-40.629 -1.477,0.727 0.695,-1.976 0.402,-1.914 -0.438,0.09 -0.945,-0.011 -1.293,0.645 -0.18,0.336 0.07,1.082 0.086,1.629 0.043,1.539 0.031,4.343 0.035,5.73 -0.07,10.242 -0.309,20.481 -0.488,30.715 -0.086,6.305 -0.219,12.606 -0.328,18.906 0.109,1.563 0.015,1.141 1.527,0.145 0.113,-0.074 0.09,-0.512 0.133,-0.766 0.05,-0.285 0.093,-0.574 0.14,-0.859 l -1.343,-0.024 c -0.051,0.278 -0.094,0.563 -0.153,0.832 -0.047,0.227 -0.261,0.575 -0.16,0.657 1.598,1.297 1.461,0.976 1.18,-0.094 -0.074,-1.988 -0.067,-3.981 -0.071,-5.981 0,-4.293 0.024,-8.589 0.075,-12.882 0.062,-4.606 0.078,-6.414 0.179,-11.063 0.137,-6.558 0.36,-13.105 0.465,-19.668 0.059,-2.695 0.082,-3.289 0.094,-5.765 0,-0.575 0.195,-1.411 0,-1.719 -1.496,-2.317 -1.48,-0.578 -1.676,1.5 -1.09,13.476 -1.961,27.054 -2.824,40.625 -0.758,12.394 -1.512,24.797 -2.125,37.238 -0.145,2.938 -0.27,5.883 -0.379,8.832 -0.059,1.57 -0.402,3.301 -0.121,4.723 0.199,0.988 0.852,0.742 1.277,1.113 -0.3,-3.957 -0.148,-1.602 -0.394,-7.637 -0.11,-2.699 -0.219,-5.398 -0.324,-8.097 -0.485,-12.196 -0.95,-24.399 -1.485,-36.582 -0.101,-2.098 -1.094,-23.387 -1.246,-26.086 -0.152,-2.793 -0.34,-5.575 -0.551,-8.344 -0.117,-1.496 0,-3.336 -0.429,-4.449 -1.403,-3.633 -1.594,-1.68 -1.918,0.019 -0.25,4.067 -0.465,8.149 -0.731,12.211 -0.558,8.574 -1.23,17.102 -2.019,25.571 -0.348,3.578 -0.676,7.171 -1.043,10.742 -0.801,7.758 -1.383,12.968 -2.407,20.472 -0.3,2.215 -0.605,4.43 -0.976,6.578 -0.184,1.071 -0.762,1.911 -0.688,3.059 0.047,0.715 0.598,0.125 0.899,0.191 -0.133,-0.742 -0.293,-1.457 -0.399,-2.222 -0.175,-1.278 -0.921,-8.391 -0.992,-9.078 -0.851,-8.102 -1.664,-16.231 -2.457,-24.371 -0.687,-6.934 -1.14,-11.641 -1.875,-18.481 -0.25,-2.328 -0.476,-4.672 -0.773,-6.961 -0.172,-1.328 -0.188,-3.008 -0.633,-3.879 -1.356,-2.636 -1.688,-1.476 -2.504,-0.01 -1.133,4.45 -2.16,9.059 -3.355,13.418 -0.231,0.852 -0.797,1.497 -0.731,2.504 0.055,0.836 0.645,0.668 0.965,1 -0.039,-0.16 -0.117,-0.293 -0.125,-0.48 -0.027,-0.984 0.199,-4.57 0.226,-5.09 0.184,-3.602 0.34,-7.215 0.383,-10.844 -0.074,-2.91 0.231,-3.492 -1.664,-2.836 -0.191,0.067 -0.242,0.746 -0.34,1.157 -0.168,0.722 -0.304,1.488 -0.457,2.234 -1.242,6.062 0.157,-0.738 -1.168,5.695 -0.199,0.918 -0.386,1.844 -0.593,2.75 -0.164,0.711 -0.645,1.332 -0.524,2.09 0.129,0.801 0.676,0.543 1.004,0.883 0.055,0.059 -0.156,0.094 -0.187,-0.039 -0.09,-0.395 -0.164,-2.992 -0.168,-3.086 -0.067,-2.16 -0.098,-4.363 -0.246,-6.504 -0.036,-0.469 0.046,-1.223 -0.137,-1.394 -1.418,-1.321 -1.363,-0.965 -1.742,0.679 -0.282,1.758 -0.496,3.539 -0.735,5.324 -0.078,0.59 -0.152,1.184 -0.25,1.75 -0.054,0.329 -0.347,0.789 -0.215,0.93 0.387,0.41 0.844,0.121 1.266,0.18 0,-2.406 0.102,-4.809 0.195,-7.207 0.145,-3.68 0.313,-7.36 0.532,-11.02 0.125,-2.304 0.519,-3.754 -1.254,-2.929 -0.184,0.085 -0.067,0.89 -0.106,1.335 -0.101,1.239 -0.203,2.481 -0.312,3.719 -0.383,4.391 -0.793,8.77 -1.172,13.164 -0.57,6.254 -0.934,10.477 -1.574,16.696 -0.258,2.457 -0.528,4.906 -0.809,7.343 -0.195,1.664 -0.695,3.239 -0.625,4.957 0.02,0.477 1.578,3.582 0.59,1.586 -0.106,-1.039 -0.231,-2.07 -0.32,-3.121 -0.258,-2.867 -0.653,-8.484 -0.829,-11.144 -0.289,-4.325 -0.668,-10.625 -0.914,-14.938 -0.136,-2.355 -0.261,-4.719 -0.394,-7.078 -0.102,-1.914 -0.192,-3.832 -0.305,-5.742 -0.07,-1.188 0.137,-2.793 -0.25,-3.555 -1.406,-2.793 -1.617,-0.113 -1.738,1.543 -0.078,1.078 -0.125,2.164 -0.188,3.246 -0.086,1.473 -0.171,2.942 -0.257,4.414 -0.817,14.391 -1.493,28.828 -2.43,43.18 -0.137,1.871 -0.254,3.75 -0.402,5.613 -0.157,1.907 -1.106,5.653 0.832,4.86 0.207,-0.086 -0.137,-0.969 -0.161,-1.477 -0.082,-1.855 -0.109,-8.027 -0.121,-9.301 -0.093,-16.472 -0.054,-32.949 0.125,-49.418 0,-1.273 0.301,-2.781 -0.007,-3.816 -0.114,-0.375 -1.422,-2.09 -1.668,-0.879 -0.137,0.688 -0.563,4.152 -0.602,4.473 -0.145,1.207 -0.277,2.425 -0.418,3.64 -0.48,4.633 -0.629,5.934 -1.082,10.867 -1.023,11.157 -1.852,22.411 -2.898,33.551 -0.61,6.106 -0.922,9.602 -1.645,15.465 -0.199,1.641 -0.711,3.168 -0.664,4.875 0.031,1.039 0.613,1.481 0.867,2.324 0.078,0.258 -0.219,-0.359 -0.328,-0.539 -0.07,-1.183 -0.137,-2.367 -0.203,-3.55 -0.477,-21.825 -0.617,-43.68 -0.859,-65.524 -0.051,-4.019 -0.098,-8.043 -0.153,-12.062 -0.043,-3.207 -0.082,-6.411 -0.137,-9.618 -0.086,-4.609 0.504,-6.91 -1.636,-8.144 -0.543,-0.313 0.742,6.219 -0.176,4.012 -0.336,16.445 -0.559,32.902 -0.996,49.336 -0.219,9.386 -0.387,18.808 -0.813,28.16 -0.089,1.918 -0.183,3.832 -0.324,5.726 -0.086,1.141 -0.519,2.289 -0.348,3.367 0.133,0.821 0.684,0.586 1.028,0.879 -0.125,-0.566 -0.301,-1.078 -0.379,-1.691 -0.34,-2.668 -0.692,-8.918 -0.816,-11.141 -0.571,-10.078 -0.969,-20.207 -1.348,-30.336 -0.363,-10.707 -0.395,-10.855 -0.645,-21.226 -0.058,-2.528 -0.113,-5.059 -0.156,-7.59 -0.023,-1.516 0.262,-3.223 -0.039,-4.547 -0.246,-1.078 -0.914,-1.09 -1.371,-1.633 0.027,0.258 0.051,0.516 0.078,0.774 0.355,11.687 0.355,23.425 0.492,35.132 0.031,8.27 0.047,8.856 0.028,16.864 -0.008,2.156 -0.012,4.312 -0.028,6.469 -0.011,1.464 -0.328,3.078 -0.062,4.394 0.179,0.902 1.843,2.93 1.129,1.246 -0.426,-4.394 -0.731,-8.836 -1.024,-13.293 -0.527,-8.054 -0.961,-16.14 -1.328,-24.246 -0.285,-7.434 -0.371,-8.691 -0.516,-15.863 -0.035,-1.766 -0.046,-3.535 -0.066,-5.305 -0.012,-1.027 0.25,-2.301 -0.027,-3.086 -1.688,-4.797 -1.399,-0.992 -1.356,0.106 0.059,14.699 -0.269,29.398 -0.601,44.07 -0.168,5.863 -0.321,11.73 -0.504,17.59 -0.059,1.91 -0.43,3.887 -0.203,5.719 0.152,1.234 0.797,1.703 1.214,2.507 0.083,0.161 -0.144,-0.39 -0.218,-0.582 -0.075,-1.257 -0.145,-2.515 -0.219,-3.773 -0.781,-20.317 -1.125,-40.734 -0.957,-61.137 0.043,-3.039 0.066,-6.082 0.129,-9.121 0.043,-1.922 0.472,-3.961 0.191,-5.762 -0.152,-0.961 -0.945,-1.625 -1.226,-0.851 -0.36,0.996 0.074,2.644 0.097,3.969 0.063,3.8 0.129,11.043 0.164,14.523 0.079,11.41 0.118,22.809 0.047,34.223 -0.035,6.355 -0.09,13.453 -0.238,19.855 -0.043,1.863 -0.121,3.727 -0.184,5.59 0.399,0.68 0.743,1.59 1.192,2.043 0.164,0.168 -0.223,-0.699 -0.27,-1.117 -0.148,-1.332 -0.234,-2.707 -0.316,-4.078 -0.535,-8.856 -0.758,-17.809 -1.141,-26.704 -0.418,-12.394 -0.797,-24.789 -1.109,-37.203 -0.086,-3.41 -0.168,-6.82 -0.238,-10.234 -0.051,-2.418 0.226,-4.992 -0.129,-7.258 -0.211,-1.371 -0.953,-1.805 -1.43,-2.707 0.465,14.727 0.688,29.492 0.828,44.254 0.02,4.609 0.067,9.219 0.059,13.828 -0.012,5.606 -0.145,17.16 -0.278,23.301 -0.05,2.359 -0.105,4.723 -0.203,7.078 -0.054,1.238 -0.492,2.582 -0.254,3.688 0.168,0.796 0.735,0.183 1.102,0.277 -0.113,-0.863 -0.25,-1.715 -0.344,-2.598 -0.156,-1.496 -0.832,-9.699 -0.91,-10.636 -0.605,-7.364 -1.191,-14.739 -1.711,-22.141 -0.16,-2.109 -0.32,-4.219 -0.473,-6.332 -0.109,-1.457 0.059,-3.195 -0.304,-4.383 -1.633,-5.297 -1.59,-0.762 -1.742,0.977 -0.055,0.656 -0.137,1.297 -0.208,1.945 -0.093,0.402 -0.429,0.914 -0.281,1.203 0.25,0.488 0.778,0.754 0.957,0.117 0.168,-0.59 -0.363,-1.14 -0.484,-1.789 -0.219,-1.148 -0.383,-2.355 -0.535,-3.566 -0.387,-3.055 -0.754,-7.188 -1.051,-10.274 -0.141,-1.601 -0.289,-3.199 -0.43,-4.8 -0.105,-1.204 0.02,-2.672 -0.304,-3.61 -1.461,-4.195 -1.575,-2.109 -1.766,-0.039 -0.051,0.52 -0.102,1.035 -0.148,1.555 -0.071,0.5 -0.118,1.015 -0.204,1.504 -0.066,0.383 -0.39,0.859 -0.25,1.097 0.305,0.508 0.735,0.243 1.102,0.321 0.082,0.019 -0.176,-0.016 -0.246,-0.141 -0.086,-0.164 -0.082,-0.582 -0.188,-0.664 -0.492,-0.367 -1.011,-0.41 -1.515,-0.617 -0.012,0.09 -0.031,0.18 -0.028,0.273 0.051,1.071 0.172,2.117 0.227,3.188 0.156,2.969 0.238,5.976 0.195,8.972 -0.129,2.032 -0.472,3.09 1.032,2.543 0.156,-0.054 -0.219,-0.55 -0.286,-0.894 -0.129,-0.676 -0.199,-1.41 -0.285,-2.125 -0.207,-1.746 -0.344,-3.317 -0.512,-5.082 -0.191,-2.356 0.024,-2.539 -1.55,-2.082 -0.114,0.031 0.082,0.512 0.105,0.777 0.192,2.067 0.274,4.192 0.313,6.305 -0.055,2.324 -0.258,1.984 1.258,2.027 0.078,0 -0.106,-0.289 -0.129,-0.469 -0.188,-1.562 -0.168,-3.25 -0.235,-4.851 -0.48,-0.067 -0.969,-0.426 -1.445,-0.199 -0.121,0.054 -0.016,0.601 -0.027,0.902 -0.079,2.828 -0.137,5.699 -0.469,8.434 0.402,0.214 0.793,0.652 1.207,0.636 0.105,0 -0.141,-0.414 -0.168,-0.668 -0.07,-0.613 -0.094,-1.257 -0.121,-1.89 -0.102,-2.356 -0.086,-4.739 -0.246,-7.082 -0.496,0.019 -1.043,-0.461 -1.493,0.05 -0.218,0.254 -0.074,1.18 -0.097,1.77 -0.059,1.316 -0.098,2.637 -0.145,3.957 -0.254,6.75 -0.5,13.508 -0.957,20.199 -0.195,2.371 -0.34,4.77 -0.582,7.114 -0.176,1.746 -0.672,3.339 -0.676,5.136 0,0.774 0.637,2.461 0.657,1.688 0.031,-0.949 -0.512,-1.5 -0.637,-2.403 -0.437,-3.14 -0.809,-10.929 -0.969,-13.75 -0.441,-8.886 -0.422,-8.132 -0.789,-16.976 -0.097,-2.332 -0.191,-4.66 -0.277,-6.992 -0.055,-1.528 0.195,-3.282 -0.141,-4.582 -0.222,-0.879 -1.933,-2.809 -1.273,-0.348 0.258,4.699 0.453,9.441 0.469,14.184 0,0.839 -0.27,1.898 -0.036,2.515 0.301,0.789 0.86,0.52 1.289,0.781 -0.074,-0.421 -0.171,-0.82 -0.214,-1.261 -0.176,-1.785 -0.399,-6.289 -0.477,-7.801 -0.238,-4.504 -0.445,-9.016 -0.672,-13.523 -0.515,-0.649 -0.984,-1.567 -1.543,-1.95 -0.113,-0.082 -0.113,0.512 -0.133,0.793 -0.086,1.098 -0.129,2.211 -0.187,3.321 -0.344,6.777 -0.625,13.574 -1.059,20.32 -0.343,5.258 -0.613,9.918 -1.09,15.086 -0.152,1.633 -0.648,3.195 -0.539,4.847 0.063,0.946 0.571,1.696 0.965,1.672 0.891,-0.05 -3.84,-8.996 -0.5,-6.359 -0.457,-14.348 -0.66,-28.727 -0.937,-43.098 -0.028,-1.312 0.269,-5.812 -1.418,-3.16 -0.254,0.402 0.129,1.438 0.176,2.164 0.378,5.598 0.578,11.258 0.816,16.895 0.277,8.492 0.543,16.992 0.559,25.519 0,2.332 -0.008,4.668 -0.063,6.996 -0.035,1.43 -0.414,2.93 -0.207,4.27 0.152,0.957 0.738,1 1.105,1.5 -0.109,-0.551 -0.257,-1.066 -0.335,-1.652 -0.266,-2.086 -0.743,-8.29 -0.86,-9.911 -0.664,-8.996 -1.176,-18.058 -1.605,-27.136 -0.387,-9.746 -0.461,-10.711 -0.7,-20.227 -0.066,-2.519 0.172,-5.168 -0.152,-7.57 -0.226,-1.672 -0.937,-2.684 -1.414,-4.012 -0.051,-0.137 0.086,0.289 0.133,0.434 0.066,1.472 0.133,2.949 0.199,4.422 0.625,20.832 1.024,41.714 0.867,62.609 -0.035,2.234 -0.031,4.48 -0.105,6.711 -0.039,1.082 -0.453,2.262 -0.235,3.211 0.172,0.734 0.856,1 1.036,0.281 0.207,-0.82 -0.313,-1.769 -0.43,-2.687 -0.379,-2.922 -0.949,-9.028 -1.207,-11.661 -0.86,-9.41 -1.695,-18.832 -2.449,-28.296 -0.707,-8.848 -0.664,-9.157 -1.375,-17.332 -0.145,-1.68 -0.313,-3.352 -0.473,-5.024 -0.559,-0.387 -1.148,-1.734 -1.684,-1.16 -0.394,0.426 -0.121,2.078 -0.136,3.125 -0.028,2.07 0,4.144 0,6.219 0.039,10.277 0.148,20.55 0.058,30.828 -0.082,7.633 -0.129,14.211 -0.297,21.773 -0.054,2.52 -0.117,5.039 -0.214,7.547 -0.067,1.66 -0.446,3.348 -0.266,4.953 0.07,0.66 1.797,3.602 0.691,1.176 -0.129,-1.074 -0.285,-2.133 -0.394,-3.219 -0.289,-2.847 -0.711,-8.707 -0.883,-11.324 -0.613,-9.375 -1.039,-18.82 -1.32,-28.289 -0.094,-3.84 -0.207,-7.68 -0.282,-11.523 -0.148,-7.43 -0.242,-15.891 -0.285,-23.332 -0.019,-3.477 -0.023,-6.954 -0.023,-10.43 0,-2.637 0.308,-5.36 0.035,-7.91 -0.176,-1.61 -0.871,-2.578 -1.309,-3.868 0.258,2.532 0.145,1.137 0.266,5.637 0.063,2.336 0.113,4.676 0.16,7.016 0.266,12.441 0.461,24.89 0.578,37.344 0.032,5.668 0.09,11.332 0.094,16.996 0,1.882 -0.098,25.32 -0.121,29.066 -0.016,2.899 -0.031,5.793 -0.063,8.688 -0.023,1.687 -0.355,3.484 -0.105,5.058 0.168,1.035 0.797,1.129 1.191,1.695 -0.109,-0.562 -0.25,-1.089 -0.324,-1.683 -0.234,-1.875 -0.699,-7.887 -0.804,-9.344 -0.586,-8.055 -1.032,-16.172 -1.325,-24.32 -0.093,-3.16 -0.215,-6.313 -0.281,-9.477 -0.18,-8.883 -0.113,-17.793 0.121,-26.668 l -1.379,0.106 0.004,0 z" />
              </g>
            </g>
          </g>
        </g>
        <g
           id="g62896-3"
           transform="matrix(0,-0.38205112,0.25951836,0,336.52652,316.72894)">
          <rect
             ry="0"
             y="356.3671"
             x="258.59906"
             height="135.36044"
             width="5.0507627"
             id="rect62774-4"
             style="color:#000000;clip-rule:nonzero;display:inline;overflow:visible;visibility:visible;opacity:1;isolation:auto;mix-blend-mode:normal;color-interpolation:sRGB;color-interpolation-filters:linearRGB;solid-color:#000000;solid-opacity:1;fill:#000000;fill-opacity:1;fill-rule:nonzero;stroke:none;stroke-width:1.31489491;stroke-linecap:butt;stroke-linejoin:miter;stroke-miterlimit:4;stroke-dasharray:none;stroke-dashoffset:0;stroke-opacity:1;marker:none;color-rendering:auto;image-rendering:auto;shape-rendering:auto;text-rendering:auto;enable-background:accumulate" />
          <path
             inkscape:transform-center-y="4.9818806"
             d="m 261.12445,513.00193 -8.62886,-14.94562 -8.62886,-14.94563 17.25772,0 17.25772,0 -8.62886,14.94563 z"
             inkscape:randomized="0"
             inkscape:rounded="0"
             inkscape:flatsided="false"
             sodipodi:arg2="2.6179939"
             sodipodi:arg1="1.5707963"
             sodipodi:r2="9.9637489"
             sodipodi:r1="19.927498"
             sodipodi:cy="493.07443"
             sodipodi:cx="261.12445"
             sodipodi:sides="3"
             id="path62776-2"
             style="color:#000000;clip-rule:nonzero;display:inline;overflow:visible;visibility:visible;opacity:1;isolation:auto;mix-blend-mode:normal;color-interpolation:sRGB;color-interpolation-filters:linearRGB;solid-color:#000000;solid-opacity:1;fill:#000000;fill-opacity:1;fill-rule:nonzero;stroke:none;stroke-width:1.31489491;stroke-linecap:butt;stroke-linejoin:miter;stroke-miterlimit:4;stroke-dasharray:none;stroke-dashoffset:0;stroke-opacity:1;marker:none;color-rendering:auto;image-rendering:auto;shape-rendering:auto;text-rendering:auto;enable-background:accumulate"
             sodipodi:type="star" />
        </g>
        <g
           id="g12960"
           transform="translate(69.51778,0)">
          <g
             transform="matrix(0.37170055,0,0,0.37170055,339.13149,87.459103)"
             id="g12797">
            <path
               inkscape:connector-curvature="0"
               style="color:#000000;clip-rule:nonzero;display:inline;overflow:visible;visibility:visible;opacity:1;isolation:auto;mix-blend-mode:normal;color-interpolation:sRGB;color-interpolation-filters:linearRGB;solid-color:#000000;solid-opacity:1;fill:none;fill-opacity:1;fill-rule:nonzero;stroke:#000000;stroke-width:3.70000005;stroke-linecap:butt;stroke-linejoin:miter;stroke-miterlimit:4;stroke-dasharray:none;stroke-dashoffset:0;stroke-opacity:1;marker:none;color-rendering:auto;image-rendering:auto;shape-rendering:auto;text-rendering:auto;enable-background:accumulate"
               d="m 582.65039,164.4375 -7.53516,11.55664 -11.44921,17.21484 0,76.08204 c 0,3.47011 2.79355,6.26367 6.26367,6.26367 l 68.2832,0 c 3.47012,0 6.26367,-2.79356 6.26367,-6.26367 l 0,-98.58985 c 0,-3.47012 -2.79355,-6.26367 -6.26367,-6.26367 l -55.5625,0 z"
               id="rect12744" />
            <path
               style="fill:none;fill-rule:evenodd;stroke:#000000;stroke-width:1px;stroke-linecap:butt;stroke-linejoin:miter;stroke-opacity:1"
               d="m 581.72159,208.88491 50.76017,0"
               id="path12756"
               inkscape:connector-curvature="0" />
            <path
               style="fill:none;fill-rule:evenodd;stroke:#000000;stroke-width:1px;stroke-linecap:butt;stroke-linejoin:miter;stroke-opacity:1"
               d="m 581.72159,196.25802 50.76017,0"
               id="path12756-9"
               inkscape:connector-curvature="0" />
            <path
               style="fill:none;fill-rule:evenodd;stroke:#000000;stroke-width:1px;stroke-linecap:butt;stroke-linejoin:miter;stroke-opacity:1"
               d="m 581.72159,221.5118 50.76017,0"
               id="path12756-2"
               inkscape:connector-curvature="0" />
            <path
               style="fill:none;fill-rule:evenodd;stroke:#000000;stroke-width:1px;stroke-linecap:butt;stroke-linejoin:miter;stroke-opacity:1"
               d="m 581.72159,234.13869 50.76017,0"
               id="path12756-1"
               inkscape:connector-curvature="0" />
            <path
               style="fill:none;fill-rule:evenodd;stroke:#000000;stroke-width:1px;stroke-linecap:butt;stroke-linejoin:miter;stroke-opacity:1"
               d="m 581.72159,246.76559 50.76017,0"
               id="path12756-8"
               inkscape:connector-curvature="0" />
            <path
               style="fill:none;fill-rule:evenodd;stroke:#000000;stroke-width:1px;stroke-linecap:butt;stroke-linejoin:miter;stroke-opacity:1"
               d="m 581.72159,259.39248 50.76017,0"
               id="path12756-99"
               inkscape:connector-curvature="0" />
          </g>
          <g
             transform="matrix(0.37170055,0,0,0.37170055,339.13149,134.55975)"
             id="g12797-1">
            <path
               inkscape:connector-curvature="0"
               style="color:#000000;clip-rule:nonzero;display:inline;overflow:visible;visibility:visible;opacity:1;isolation:auto;mix-blend-mode:normal;color-interpolation:sRGB;color-interpolation-filters:linearRGB;solid-color:#000000;solid-opacity:1;fill:none;fill-opacity:1;fill-rule:nonzero;stroke:#000000;stroke-width:3.70000005;stroke-linecap:butt;stroke-linejoin:miter;stroke-miterlimit:4;stroke-dasharray:none;stroke-dashoffset:0;stroke-opacity:1;marker:none;color-rendering:auto;image-rendering:auto;shape-rendering:auto;text-rendering:auto;enable-background:accumulate"
               d="m 582.65039,164.4375 -7.53516,11.55664 -11.44921,17.21484 0,76.08204 c 0,3.47011 2.79355,6.26367 6.26367,6.26367 l 68.2832,0 c 3.47012,0 6.26367,-2.79356 6.26367,-6.26367 l 0,-98.58985 c 0,-3.47012 -2.79355,-6.26367 -6.26367,-6.26367 l -55.5625,0 z"
               id="rect12744-5" />
            <path
               style="fill:none;fill-rule:evenodd;stroke:#000000;stroke-width:1px;stroke-linecap:butt;stroke-linejoin:miter;stroke-opacity:1"
               d="m 581.72159,208.88491 50.76017,0"
               id="path12756-6"
               inkscape:connector-curvature="0" />
            <path
               style="fill:none;fill-rule:evenodd;stroke:#000000;stroke-width:1px;stroke-linecap:butt;stroke-linejoin:miter;stroke-opacity:1"
               d="m 581.72159,196.25802 50.76017,0"
               id="path12756-9-3"
               inkscape:connector-curvature="0" />
            <path
               style="fill:none;fill-rule:evenodd;stroke:#000000;stroke-width:1px;stroke-linecap:butt;stroke-linejoin:miter;stroke-opacity:1"
               d="m 581.72159,221.5118 50.76017,0"
               id="path12756-2-2"
               inkscape:connector-curvature="0" />
            <path
               style="fill:none;fill-rule:evenodd;stroke:#000000;stroke-width:1px;stroke-linecap:butt;stroke-linejoin:miter;stroke-opacity:1"
               d="m 581.72159,234.13869 50.76017,0"
               id="path12756-1-3"
               inkscape:connector-curvature="0" />
            <path
               style="fill:none;fill-rule:evenodd;stroke:#000000;stroke-width:1px;stroke-linecap:butt;stroke-linejoin:miter;stroke-opacity:1"
               d="m 581.72159,246.76559 50.76017,0"
               id="path12756-8-6"
               inkscape:connector-curvature="0" />
            <path
               style="fill:none;fill-rule:evenodd;stroke:#000000;stroke-width:1px;stroke-linecap:butt;stroke-linejoin:miter;stroke-opacity:1"
               d="m 581.72159,259.39248 50.76017,0"
               id="path12756-99-9"
               inkscape:connector-curvature="0" />
          </g>
          <g
             transform="matrix(0.37170055,0,0,0.37170055,339.13149,181.6604)"
             id="g12797-3">
            <path
               inkscape:connector-curvature="0"
               style="color:#000000;clip-rule:nonzero;display:inline;overflow:visible;visibility:visible;opacity:1;isolation:auto;mix-blend-mode:normal;color-interpolation:sRGB;color-interpolation-filters:linearRGB;solid-color:#000000;solid-opacity:1;fill:none;fill-opacity:1;fill-rule:nonzero;stroke:#000000;stroke-width:3.70000005;stroke-linecap:butt;stroke-linejoin:miter;stroke-miterlimit:4;stroke-dasharray:none;stroke-dashoffset:0;stroke-opacity:1;marker:none;color-rendering:auto;image-rendering:auto;shape-rendering:auto;text-rendering:auto;enable-background:accumulate"
               d="m 582.65039,164.4375 -7.53516,11.55664 -11.44921,17.21484 0,76.08204 c 0,3.47011 2.79355,6.26367 6.26367,6.26367 l 68.2832,0 c 3.47012,0 6.26367,-2.79356 6.26367,-6.26367 l 0,-98.58985 c 0,-3.47012 -2.79355,-6.26367 -6.26367,-6.26367 l -55.5625,0 z"
               id="rect12744-56" />
            <path
               style="fill:none;fill-rule:evenodd;stroke:#000000;stroke-width:1px;stroke-linecap:butt;stroke-linejoin:miter;stroke-opacity:1"
               d="m 581.72159,208.88491 50.76017,0"
               id="path12756-3"
               inkscape:connector-curvature="0" />
            <path
               style="fill:none;fill-rule:evenodd;stroke:#000000;stroke-width:1px;stroke-linecap:butt;stroke-linejoin:miter;stroke-opacity:1"
               d="m 581.72159,196.25802 50.76017,0"
               id="path12756-9-6"
               inkscape:connector-curvature="0" />
            <path
               style="fill:none;fill-rule:evenodd;stroke:#000000;stroke-width:1px;stroke-linecap:butt;stroke-linejoin:miter;stroke-opacity:1"
               d="m 581.72159,221.5118 50.76017,0"
               id="path12756-2-9"
               inkscape:connector-curvature="0" />
            <path
               style="fill:none;fill-rule:evenodd;stroke:#000000;stroke-width:1px;stroke-linecap:butt;stroke-linejoin:miter;stroke-opacity:1"
               d="m 581.72159,234.13869 50.76017,0"
               id="path12756-1-5"
               inkscape:connector-curvature="0" />
            <path
               style="fill:none;fill-rule:evenodd;stroke:#000000;stroke-width:1px;stroke-linecap:butt;stroke-linejoin:miter;stroke-opacity:1"
               d="m 581.72159,246.76559 50.76017,0"
               id="path12756-8-3"
               inkscape:connector-curvature="0" />
            <path
               style="fill:none;fill-rule:evenodd;stroke:#000000;stroke-width:1px;stroke-linecap:butt;stroke-linejoin:miter;stroke-opacity:1"
               d="m 581.72159,259.39248 50.76017,0"
               id="path12756-99-3"
               inkscape:connector-curvature="0" />
          </g>
        </g>
        <g
           id="g62896-3-5"
           transform="matrix(0,-0.38205112,0.25951836,0,463.80575,317.73909)">
          <rect
             ry="0"
             y="356.3671"
             x="258.59906"
             height="135.36044"
             width="5.0507627"
             id="rect62774-4-0"
             style="color:#000000;clip-rule:nonzero;display:inline;overflow:visible;visibility:visible;opacity:1;isolation:auto;mix-blend-mode:normal;color-interpolation:sRGB;color-interpolation-filters:linearRGB;solid-color:#000000;solid-opacity:1;fill:#000000;fill-opacity:1;fill-rule:nonzero;stroke:none;stroke-width:1.31489491;stroke-linecap:butt;stroke-linejoin:miter;stroke-miterlimit:4;stroke-dasharray:none;stroke-dashoffset:0;stroke-opacity:1;marker:none;color-rendering:auto;image-rendering:auto;shape-rendering:auto;text-rendering:auto;enable-background:accumulate" />
          <path
             inkscape:transform-center-y="4.9818806"
             d="m 261.12445,513.00193 -8.62886,-14.94562 -8.62886,-14.94563 17.25772,0 17.25772,0 -8.62886,14.94563 z"
             inkscape:randomized="0"
             inkscape:rounded="0"
             inkscape:flatsided="false"
             sodipodi:arg2="2.6179939"
             sodipodi:arg1="1.5707963"
             sodipodi:r2="9.9637489"
             sodipodi:r1="19.927498"
             sodipodi:cy="493.07443"
             sodipodi:cx="261.12445"
             sodipodi:sides="3"
             id="path62776-2-7"
             style="color:#000000;clip-rule:nonzero;display:inline;overflow:visible;visibility:visible;opacity:1;isolation:auto;mix-blend-mode:normal;color-interpolation:sRGB;color-interpolation-filters:linearRGB;solid-color:#000000;solid-opacity:1;fill:#000000;fill-opacity:1;fill-rule:nonzero;stroke:none;stroke-width:1.31489491;stroke-linecap:butt;stroke-linejoin:miter;stroke-miterlimit:4;stroke-dasharray:none;stroke-dashoffset:0;stroke-opacity:1;marker:none;color-rendering:auto;image-rendering:auto;shape-rendering:auto;text-rendering:auto;enable-background:accumulate"
             sodipodi:type="star" />
        </g>
        <rect
           style="color:#000000;clip-rule:nonzero;display:inline;overflow:visible;visibility:visible;opacity:1;isolation:auto;mix-blend-mode:normal;color-interpolation:sRGB;color-interpolation-filters:linearRGB;solid-color:#000000;solid-opacity:1;fill:none;fill-opacity:1;fill-rule:nonzero;stroke:#000000;stroke-width:3.73290706;stroke-linecap:butt;stroke-linejoin:miter;stroke-miterlimit:4;stroke-dasharray:none;stroke-dashoffset:0;stroke-opacity:1;marker:none;color-rendering:auto;image-rendering:auto;shape-rendering:auto;text-rendering:auto;enable-background:accumulate"
           id="rect13007"
           width="340.38849"
           height="207.04837"
           x="326.11298"
           y="110.91649"
           ry="6.2627549" />
        <g
           transform="translate(-34.324881,-11.091373)"
           style="font-style:normal;font-variant:normal;font-weight:normal;font-stretch:normal;font-size:12.5px;line-height:125%;font-family:Helvetica;-inkscape-font-specification:Helvetica;text-align:center;letter-spacing:0px;word-spacing:0px;text-anchor:middle;fill:#000000;fill-opacity:1;stroke:none;stroke-width:1px;stroke-linecap:butt;stroke-linejoin:miter;stroke-opacity:1"
           id="flowRoot13031">
          <path
             d="m 393.52686,139.47076 q 0.0769,1.3733 0.64819,2.23023 1.08765,1.604 3.83423,1.604 1.23047,0 2.24121,-0.35156 1.95556,-0.68115 1.95556,-2.43896 0,-1.31836 -0.82397,-1.87867 -0.83496,-0.54931 -2.61475,-0.95581 l -2.18628,-0.49438 q -2.14233,-0.4834 -3.03222,-1.06568 -1.53809,-1.01074 -1.53809,-3.02124 0,-2.17529 1.50513,-3.57055 1.50513,-1.39527 4.26269,-1.39527 2.53785,0 4.30665,1.23047 1.77978,1.21948 1.77978,3.91114 l -2.05444,0 q -0.1648,-1.29639 -0.70313,-1.98853 -0.99975,-1.26343 -3.39477,-1.26343 -1.9336,0 -2.77954,0.81299 -0.84595,0.81299 -0.84595,1.88965 0,1.18652 0.98877,1.73584 0.64819,0.35156 2.93335,0.8789 l 2.26318,0.51636 q 1.63696,0.37354 2.52686,1.02173 1.53808,1.13159 1.53808,3.28491 0,2.68067 -1.95556,3.83423 -1.94458,1.15357 -4.52637,1.15357 -3.01026,0 -4.71314,-1.53809 -1.70288,-1.5271 -1.66992,-4.14185 l 2.05445,0 z m 4.4165,-11.37085 0,0 z"
             style="font-size:22.5px"
             id="path13219" />
          <path
             d="m 414.17017,132.91193 2.18628,0 q -0.41749,1.13159 -1.85669,5.16357 -1.07666,3.03223 -1.80176,4.94385 -1.71387,4.50439 -2.41699,5.49316 -0.70313,0.98877 -2.417,0.98877 -0.41748,0 -0.64819,-0.033 -0.21973,-0.033 -0.54932,-0.12085 l 0,-1.80175 q 0.51636,0.14282 0.74707,0.17578 0.23072,0.033 0.4065,0.033 0.54931,0 0.802,-0.18677 0.26367,-0.17578 0.43945,-0.43946 0.0549,-0.0879 0.39551,-0.90087 0.34058,-0.81299 0.49439,-1.2085 l -4.35059,-12.10693 2.24121,0 3.15308,9.58007 3.17505,-9.58007 z m -3.18604,-0.28565 0,0 z"
             style="font-size:22.5px"
             id="path13221" />
          <path
             d="m 419.24585,140.98688 q 0.0879,0.98877 0.49438,1.51611 0.74707,0.95581 2.59278,0.95581 1.09863,0 1.93359,-0.47241 0.83496,-0.4834 0.83496,-1.48316 0,-0.75805 -0.67016,-1.15356 -0.42847,-0.2417 -1.6919,-0.5603 l -1.57104,-0.39551 q -1.50513,-0.37354 -2.21924,-0.83496 -1.27442,-0.802 -1.27442,-2.21924 0,-1.66992 1.19751,-2.70264 1.2085,-1.03271 3.24097,-1.03271 2.65869,0 3.83423,1.56006 0.73608,0.98877 0.71411,2.13135 l -1.86767,0 q -0.0549,-0.67017 -0.47242,-1.21949 -0.68115,-0.78003 -2.36206,-0.78003 -1.1206,0 -1.70288,0.42847 -0.57129,0.42847 -0.57129,1.13159 0,0.76905 0.75806,1.23047 0.43945,0.27466 1.29639,0.4834 l 1.30737,0.3186 q 2.13135,0.51636 2.85644,0.99976 1.15357,0.75806 1.15357,2.38403 0,1.57105 -1.19751,2.71363 -1.18652,1.14257 -3.62549,1.14257 -2.62573,0 -3.72436,-1.18652 -1.08765,-1.19751 -1.16456,-2.95532 l 1.90064,0 z m 2.92236,-8.3606 0,0 z"
             style="font-size:22.5px"
             id="path13223" />
          <path
             d="m 429.75977,129.62701 1.99951,0 0,3.28492 1.87866,0 0,1.61499 -1.87866,0 0,7.67944 q 0,0.61523 0.41748,0.82397 0.23071,0.12085 0.76904,0.12085 0.14282,0 0.30762,0 0.16479,-0.011 0.38452,-0.0329 l 0,1.56005 q -0.34058,0.0989 -0.71411,0.14283 -0.36255,0.0439 -0.79102,0.0439 -1.38427,0 -1.87866,-0.70312 -0.49438,-0.71412 -0.49438,-1.84571 l 0,-7.7893 -1.59302,0 0,-1.61499 1.59302,0 0,-3.28492 z"
             style="font-size:22.5px"
             id="path13225" />
          <path
             d="m 440.54834,132.64825 q 1.25244,0 2.42798,0.59327 1.17554,0.58227 1.79077,1.51611 0.59326,0.88989 0.79102,2.07642 0.17578,0.81298 0.17578,2.59277 l -8.62427,0 q 0.0549,1.79077 0.84595,2.87842 0.79101,1.07666 2.44995,1.07666 1.54907,0 2.47192,-1.02173 0.52735,-0.59326 0.74707,-1.37329 l 1.94458,0 q -0.0769,0.64819 -0.51636,1.45019 -0.42846,0.79102 -0.96679,1.29639 -0.90088,0.87891 -2.23023,1.18652 -0.71411,0.17578 -1.61499,0.17578 -2.19726,0 -3.72436,-1.59301 -1.5271,-1.60401 -1.5271,-4.48243 0,-2.83447 1.53808,-4.60327 1.53809,-1.7688 4.021,-1.7688 z m 3.15308,5.20752 q -0.12085,-1.2854 -0.56031,-2.05444 -0.81299,-1.42822 -2.71362,-1.42822 -1.3623,0 -2.28516,0.98877 -0.92285,0.97778 -0.97778,2.49389 l 6.53687,0 z m -3.33985,-5.22949 0,0 z m 1.42822,-1.27441 -1.50512,0 -2.94434,-3.17505 2.44995,0 1.99951,3.17505 z"
             style="font-size:22.5px"
             id="path13227" />
          <path
             d="m 448.17285,132.91193 1.95557,0 0,1.66992 q 0.70312,-0.86792 1.27441,-1.26343 0.97779,-0.67017 2.21924,-0.67017 1.40625,0 2.26318,0.69214 0.4834,0.39551 0.87891,1.16455 0.65918,-0.94482 1.54907,-1.39526 0.88989,-0.46143 1.99951,-0.46143 2.37305,0 3.22998,1.71387 0.46143,0.92285 0.46143,2.48291 l 0,7.83325 -2.05444,0 0,-8.17382 q 0,-1.17554 -0.59326,-1.61499 -0.58228,-0.43946 -1.42823,-0.43946 -1.16455,0 -2.0105,0.78003 -0.83496,0.78003 -0.83496,2.60376 l 0,6.84448 -2.01049,0 0,-7.67944 q 0,-1.19751 -0.28565,-1.74683 -0.45044,-0.82397 -1.68091,-0.82397 -1.1206,0 -2.04345,0.86792 -0.91187,0.86792 -0.91187,3.14209 l 0,6.24023 -1.97754,0 0,-11.76635 z"
             style="font-size:22.5px"
             id="path13229" />
          <path
             d="m 471.79346,132.64825 q 1.25244,0 2.42798,0.59327 1.17553,0.58227 1.79077,1.51611 0.59326,0.88989 0.79101,2.07642 0.17578,0.81298 0.17578,2.59277 l -8.62426,0 q 0.0549,1.79077 0.84594,2.87842 0.79102,1.07666 2.44995,1.07666 1.54908,0 2.47193,-1.02173 0.52734,-0.59326 0.74707,-1.37329 l 1.94458,0 q -0.0769,0.64819 -0.51636,1.45019 -0.42847,0.79102 -0.9668,1.29639 -0.90087,0.87891 -2.23022,1.18652 -0.71411,0.17578 -1.61499,0.17578 -2.19727,0 -3.72437,-1.59301 -1.5271,-1.60401 -1.5271,-4.48243 0,-2.83447 1.53809,-4.60327 1.53809,-1.7688 4.021,-1.7688 z m 3.15307,5.20752 q -0.12085,-1.2854 -0.5603,-2.05444 -0.81299,-1.42822 -2.71362,-1.42822 -1.36231,0 -2.28516,0.98877 -0.92285,0.97778 -0.97778,2.49389 l 6.53686,0 z m -3.33984,-5.22949 0,0 z"
             style="font-size:22.5px"
             id="path13231" />
          <path
             d="m 486.91064,138.93243 q 0,1.88965 0.80201,3.16407 0.802,1.27441 2.5708,1.27441 1.37329,0 2.25219,-1.17554 0.8899,-1.18652 0.8899,-3.39477 0,-2.23023 -0.91187,-3.2959 -0.91186,-1.07666 -2.2522,-1.07666 -1.49414,0 -2.42797,1.14258 -0.92286,1.14258 -0.92286,3.36181 z m 2.9773,-6.22924 q 1.35132,0 2.26318,0.57129 0.52735,0.32958 1.19751,1.15356 l 0,-5.9436 1.90064,0 0,16.19384 -1.77979,0 0,-1.63696 q -0.69214,1.08765 -1.63696,1.57105 -0.94482,0.48339 -2.16431,0.48339 -1.96655,0 -3.40576,-1.64795 -1.43921,-1.65893 -1.43921,-4.40551 0,-2.5708 1.30738,-4.44947 1.31835,-1.88964 3.75732,-1.88964 z"
             style="font-size:22.5px"
             id="path13233" />
          <path
             d="m 503.08252,132.64825 q 1.25244,0 2.42798,0.59327 1.17554,0.58227 1.79077,1.51611 0.59326,0.88989 0.79102,2.07642 0.17578,0.81298 0.17578,2.59277 l -8.62427,0 q 0.0549,1.79077 0.84595,2.87842 0.79101,1.07666 2.44995,1.07666 1.54907,0 2.47192,-1.02173 0.52734,-0.59326 0.74707,-1.37329 l 1.94458,0 q -0.0769,0.64819 -0.51636,1.45019 -0.42846,0.79102 -0.96679,1.29639 -0.90088,0.87891 -2.23023,1.18652 -0.71411,0.17578 -1.61499,0.17578 -2.19726,0 -3.72436,-1.59301 -1.5271,-1.60401 -1.5271,-4.48243 0,-2.83447 1.53808,-4.60327 1.53809,-1.7688 4.021,-1.7688 z m 3.15308,5.20752 q -0.12085,-1.2854 -0.56031,-2.05444 -0.81299,-1.42822 -2.71362,-1.42822 -1.3623,0 -2.28516,0.98877 -0.92285,0.97778 -0.97778,2.49389 l 6.53687,0 z m -3.33985,-5.22949 0,0 z"
             style="font-size:22.5px"
             id="path13235" />
          <path
             d="m 517.0022,132.91193 1.87866,0 0,2.03247 q 0.23071,-0.59326 1.13159,-1.43921 0.90088,-0.85694 2.07642,-0.85694 0.0549,0 0.18676,0.011 0.13184,0.011 0.45044,0.0439 l 0,2.0874 q -0.17578,-0.033 -0.32959,-0.0439 -0.14282,-0.011 -0.3186,-0.011 -1.49414,0 -2.29614,0.96679 -0.802,0.95581 -0.802,2.20826 l 0,6.76757 -1.97754,0 0,-11.76635 z"
             style="font-size:22.5px"
             id="path13237" />
          <path
             d="m 529.36182,132.64825 q 1.25244,0 2.42797,0.59327 1.17554,0.58227 1.79078,1.51611 0.59326,0.88989 0.79101,2.07642 0.17578,0.81298 0.17578,2.59277 l -8.62426,0 q 0.0549,1.79077 0.84594,2.87842 0.79102,1.07666 2.44995,1.07666 1.54908,0 2.47193,-1.02173 0.52734,-0.59326 0.74707,-1.37329 l 1.94458,0 q -0.0769,0.64819 -0.51636,1.45019 -0.42847,0.79102 -0.9668,1.29639 -0.90087,0.87891 -2.23022,1.18652 -0.71411,0.17578 -1.61499,0.17578 -2.19727,0 -3.72437,-1.59301 -1.5271,-1.60401 -1.5271,-4.48243 0,-2.83447 1.53809,-4.60327 1.53809,-1.7688 4.021,-1.7688 z m 3.15307,5.20752 q -0.12085,-1.2854 -0.5603,-2.05444 -0.81299,-1.42822 -2.71362,-1.42822 -1.36231,0 -2.28516,0.98877 -0.92285,0.97778 -0.97778,2.49389 l 6.53686,0 z m -3.33984,-5.22949 0,0 z"
             style="font-size:22.5px"
             id="path13239" />
          <path
             d="m 541.52368,132.57135 q 1.98853,0 3.22998,0.9668 1.25244,0.96679 1.50513,3.32885 l -1.92261,0 q -0.17578,-1.08764 -0.802,-1.80175 -0.62622,-0.7251 -2.0105,-0.7251 -1.88965,0 -2.70264,1.8457 -0.52734,1.19751 -0.52734,2.95532 0,1.7688 0.74707,2.9773 0.74707,1.2085 2.35108,1.2085 1.23046,0 1.94458,-0.74707 0.72509,-0.75806 0.99975,-2.06543 l 1.92261,0 q -0.32959,2.34008 -1.64795,3.42773 -1.31836,1.07666 -3.3728,1.07666 -2.30713,0 -3.68042,-1.68091 -1.37329,-1.69189 -1.37329,-4.21875 0,-3.09814 1.50512,-4.823 1.50513,-1.72485 3.83423,-1.72485 z m -0.30762,0.0549 0,0 z"
             style="font-size:22.5px"
             id="path13241" />
          <path
             d="m 552.90552,143.40387 q 1.96655,0 2.69165,-1.48315 0.73608,-1.49415 0.73608,-3.31788 0,-1.64794 -0.52734,-2.68066 -0.83496,-1.62598 -2.87842,-1.62598 -1.81274,0 -2.63672,1.38428 -0.82397,1.38428 -0.82397,3.33984 0,1.87867 0.82397,3.13111 0.82398,1.25244 2.61475,1.25244 z m 0.0769,-10.83252 q 2.27417,0 3.84522,1.51611 1.57104,1.51612 1.57104,4.46045 0,2.84546 -1.38428,4.70215 -1.38427,1.85669 -4.29565,1.85669 -2.42798,0 -3.8562,-1.63696 -1.42822,-1.64795 -1.42822,-4.41651 0,-2.9663 1.50512,-4.72412 1.50513,-1.75781 4.04297,-1.75781 z m -0.0659,0.0549 0,0 z"
             style="font-size:22.5px"
             id="path13243" />
          <path
             d="m 560.76074,132.91193 1.87866,0 0,1.66992 q 0.83497,-1.03272 1.7688,-1.48316 0.93384,-0.45044 2.07642,-0.45044 2.50488,0 3.38379,1.74683 0.4834,0.95581 0.4834,2.7356 l 0,7.5476 -2.0105,0 0,-7.41577 q 0,-1.07666 -0.3186,-1.73584 -0.52735,-1.09863 -1.91163,-1.09863 -0.70312,0 -1.15356,0.14282 -0.81299,0.2417 -1.42822,0.9668 -0.49439,0.58227 -0.6482,1.20849 -0.14282,0.61524 -0.14282,1.7688 l 0,6.16333 -1.97754,0 0,-11.76635 z m 4.64722,-0.28565 0,0 z"
             style="font-size:22.5px"
             id="path13245" />
          <path
             d="m 573.28516,132.91193 1.87866,0 0,1.66992 q 0.83496,-1.03272 1.7688,-1.48316 0.93384,-0.45044 2.07641,-0.45044 2.50489,0 3.38379,1.74683 0.4834,0.95581 0.4834,2.7356 l 0,7.5476 -2.0105,0 0,-7.41577 q 0,-1.07666 -0.3186,-1.73584 -0.52734,-1.09863 -1.91162,-1.09863 -0.70313,0 -1.15357,0.14282 -0.81298,0.2417 -1.42822,0.9668 -0.49438,0.58227 -0.64819,1.20849 -0.14282,0.61524 -0.14282,1.7688 l 0,6.16333 -1.97754,0 0,-11.76635 z m 4.64721,-0.28565 0,0 z"
             style="font-size:22.5px"
             id="path13247" />
          <path
             d="m 587.32568,141.54718 q 0,0.85693 0.62622,1.35132 0.62622,0.49438 1.48316,0.49438 1.0437,0 2.02148,-0.4834 1.64795,-0.802 1.64795,-2.62573 l 0,-1.59302 q -0.36255,0.23072 -0.93384,0.38453 -0.57128,0.1538 -1.1206,0.21972 l -1.19751,0.15381 q -1.07666,0.14282 -1.61499,0.45044 -0.91187,0.51636 -0.91187,1.64795 z m 4.79004,-3.99902 q 0.68115,-0.0879 0.91187,-0.57129 0.13183,-0.26367 0.13183,-0.75806 0,-1.01074 -0.72509,-1.46118 -0.71412,-0.46143 -2.05445,-0.46143 -1.54907,0 -2.19726,0.83496 -0.36255,0.46143 -0.47241,1.3733 l -1.84571,0 q 0.0549,-2.1753 1.40625,-3.02124 1.36231,-0.85694 3.15308,-0.85694 2.07641,0 3.3728,0.79102 1.2854,0.79101 1.2854,2.46093 l 0,6.77857 q 0,0.30762 0.12085,0.49438 0.13184,0.18677 0.53833,0.18677 0.13184,0 0.29663,-0.011 0.1648,-0.022 0.35156,-0.0549 l 0,1.46119 q -0.46142,0.13183 -0.70312,0.16479 -0.2417,0.033 -0.65918,0.033 -1.02173,0 -1.48315,-0.7251 -0.2417,-0.38452 -0.34058,-1.08764 -0.60425,0.79101 -1.73584,1.37329 -1.13159,0.58227 -2.4939,0.58227 -1.63696,0 -2.68066,-0.98877 -1.03272,-0.99975 -1.03272,-2.49389 0,-1.63697 1.02173,-2.53785 1.02173,-0.90088 2.68067,-1.10962 l 3.15307,-0.3955 z m -1.63696,-4.92188 0,0 z"
             style="font-size:22.5px"
             id="path13249" />
          <path
             d="m 598.33398,132.96686 2.0105,0 0,11.71142 -2.0105,0 0,-11.71142 z m 0,-4.42749 2.0105,0 0,2.24121 -2.0105,0 0,-2.24121 z"
             style="font-size:22.5px"
             id="path13251" />
          <path
             d="m 604.51929,140.98688 q 0.0879,0.98877 0.49438,1.51611 0.74707,0.95581 2.59278,0.95581 1.09863,0 1.93359,-0.47241 0.83496,-0.4834 0.83496,-1.48316 0,-0.75805 -0.67017,-1.15356 -0.42846,-0.2417 -1.69189,-0.5603 l -1.57105,-0.39551 q -1.50512,-0.37354 -2.21923,-0.83496 -1.27442,-0.802 -1.27442,-2.21924 0,-1.66992 1.19751,-2.70264 1.2085,-1.03271 3.24097,-1.03271 2.65869,0 3.83423,1.56006 0.73608,0.98877 0.71411,2.13135 l -1.86768,0 q -0.0549,-0.67017 -0.47241,-1.21949 -0.68115,-0.78003 -2.36206,-0.78003 -1.12061,0 -1.70288,0.42847 -0.57129,0.42847 -0.57129,1.13159 0,0.76905 0.75806,1.23047 0.43945,0.27466 1.29638,0.4834 l 1.30738,0.3186 q 2.13134,0.51636 2.85644,0.99976 1.15357,0.75806 1.15357,2.38403 0,1.57105 -1.19751,2.71363 -1.18653,1.14257 -3.62549,1.14257 -2.62573,0 -3.72437,-1.18652 -1.08764,-1.19751 -1.16455,-2.95532 l 1.90064,0 z m 2.92236,-8.3606 0,0 z"
             style="font-size:22.5px"
             id="path13253" />
          <path
             d="m 615.81323,140.98688 q 0.0879,0.98877 0.49439,1.51611 0.74707,0.95581 2.59277,0.95581 1.09863,0 1.93359,-0.47241 0.83497,-0.4834 0.83497,-1.48316 0,-0.75805 -0.67017,-1.15356 -0.42847,-0.2417 -1.6919,-0.5603 l -1.57104,-0.39551 q -1.50513,-0.37354 -2.21924,-0.83496 -1.27441,-0.802 -1.27441,-2.21924 0,-1.66992 1.19751,-2.70264 1.20849,-1.03271 3.24096,-1.03271 2.6587,0 3.83423,1.56006 0.73609,0.98877 0.71411,2.13135 l -1.86767,0 q -0.0549,-0.67017 -0.47241,-1.21949 -0.68116,-0.78003 -2.36206,-0.78003 -1.12061,0 -1.70289,0.42847 -0.57128,0.42847 -0.57128,1.13159 0,0.76905 0.75805,1.23047 0.43946,0.27466 1.29639,0.4834 l 1.30737,0.3186 q 2.13135,0.51636 2.85645,0.99976 1.15356,0.75806 1.15356,2.38403 0,1.57105 -1.19751,2.71363 -1.18652,1.14257 -3.62549,1.14257 -2.62573,0 -3.72436,-1.18652 -1.08765,-1.19751 -1.16455,-2.95532 l 1.90063,0 z m 2.92237,-8.3606 0,0 z"
             style="font-size:22.5px"
             id="path13255" />
          <path
             d="m 627.44775,141.54718 q 0,0.85693 0.62622,1.35132 0.62623,0.49438 1.48316,0.49438 1.0437,0 2.02148,-0.4834 1.64795,-0.802 1.64795,-2.62573 l 0,-1.59302 q -0.36255,0.23072 -0.93384,0.38453 -0.57128,0.1538 -1.1206,0.21972 l -1.19751,0.15381 q -1.07666,0.14282 -1.61499,0.45044 -0.91187,0.51636 -0.91187,1.64795 z m 4.79004,-3.99902 q 0.68116,-0.0879 0.91187,-0.57129 0.13183,-0.26367 0.13183,-0.75806 0,-1.01074 -0.72509,-1.46118 -0.71411,-0.46143 -2.05445,-0.46143 -1.54907,0 -2.19726,0.83496 -0.36255,0.46143 -0.47241,1.3733 l -1.84571,0 q 0.0549,-2.1753 1.40625,-3.02124 1.36231,-0.85694 3.15308,-0.85694 2.07641,0 3.3728,0.79102 1.2854,0.79101 1.2854,2.46093 l 0,6.77857 q 0,0.30762 0.12085,0.49438 0.13184,0.18677 0.53833,0.18677 0.13184,0 0.29663,-0.011 0.1648,-0.022 0.35156,-0.0549 l 0,1.46119 q -0.46142,0.13183 -0.70312,0.16479 -0.2417,0.033 -0.65918,0.033 -1.02173,0 -1.48315,-0.7251 -0.2417,-0.38452 -0.34058,-1.08764 -0.60425,0.79101 -1.73584,1.37329 -1.13159,0.58227 -2.4939,0.58227 -1.63696,0 -2.68066,-0.98877 -1.03272,-0.99975 -1.03272,-2.49389 0,-1.63697 1.02173,-2.53785 1.02173,-0.90088 2.68067,-1.10962 l 3.15307,-0.3955 z m -1.63696,-4.92188 0,0 z"
             style="font-size:22.5px"
             id="path13257" />
          <path
             d="m 638.45605,132.91193 1.87867,0 0,1.66992 q 0.83496,-1.03272 1.7688,-1.48316 0.93383,-0.45044 2.07641,-0.45044 2.50488,0 3.38379,1.74683 0.4834,0.95581 0.4834,2.7356 l 0,7.5476 -2.0105,0 0,-7.41577 q 0,-1.07666 -0.3186,-1.73584 -0.52735,-1.09863 -1.91162,-1.09863 -0.70313,0 -1.15357,0.14282 -0.81299,0.2417 -1.42822,0.9668 -0.49439,0.58227 -0.64819,1.20849 -0.14283,0.61524 -0.14283,1.7688 l 0,6.16333 -1.97754,0 0,-11.76635 z m 4.64722,-0.28565 0,0 z"
             style="font-size:22.5px"
             id="path13259" />
          <path
             d="m 655.51782,132.57135 q 1.98853,0 3.22998,0.9668 1.25244,0.96679 1.50513,3.32885 l -1.92261,0 q -0.17578,-1.08764 -0.802,-1.80175 -0.62622,-0.7251 -2.0105,-0.7251 -1.88965,0 -2.70263,1.8457 -0.52735,1.19751 -0.52735,2.95532 0,1.7688 0.74707,2.9773 0.74707,1.2085 2.35108,1.2085 1.23047,0 1.94458,-0.74707 0.72509,-0.75806 0.99975,-2.06543 l 1.92261,0 q -0.32959,2.34008 -1.64795,3.42773 -1.31836,1.07666 -3.3728,1.07666 -2.30713,0 -3.68042,-1.68091 -1.37329,-1.69189 -1.37329,-4.21875 0,-3.09814 1.50512,-4.823 1.50513,-1.72485 3.83423,-1.72485 z m -0.30761,0.0549 0,0 z"
             style="font-size:22.5px"
             id="path13261" />
          <path
             d="m 667.13037,132.64825 q 1.25244,0 2.42798,0.59327 1.17554,0.58227 1.79077,1.51611 0.59326,0.88989 0.79102,2.07642 0.17578,0.81298 0.17578,2.59277 l -8.62427,0 q 0.0549,1.79077 0.84595,2.87842 0.79101,1.07666 2.44995,1.07666 1.54907,0 2.47192,-1.02173 0.52735,-0.59326 0.74707,-1.37329 l 1.94458,0 q -0.0769,0.64819 -0.51635,1.45019 -0.42847,0.79102 -0.9668,1.29639 -0.90088,0.87891 -2.23023,1.18652 -0.71411,0.17578 -1.61499,0.17578 -2.19726,0 -3.72436,-1.59301 -1.5271,-1.60401 -1.5271,-4.48243 0,-2.83447 1.53808,-4.60327 1.53809,-1.7688 4.021,-1.7688 z m 3.15308,5.20752 q -0.12085,-1.2854 -0.56031,-2.05444 -0.81298,-1.42822 -2.71362,-1.42822 -1.3623,0 -2.28515,0.98877 -0.92286,0.97778 -0.97779,2.49389 l 6.53687,0 z m -3.33985,-5.22949 0,0 z"
             style="font-size:22.5px"
             id="path13263" />
          <path
             d="m 475.70459,167.05743 q 0,1.88965 0.802,3.16407 0.802,1.27441 2.5708,1.27441 1.37329,0 2.2522,-1.17554 0.88989,-1.18652 0.88989,-3.39477 0,-2.23023 -0.91186,-3.2959 -0.91187,-1.07666 -2.2522,-1.07666 -1.49414,0 -2.42798,1.14258 -0.92285,1.14258 -0.92285,3.36181 z m 2.97729,-6.22924 q 1.35132,0 2.26319,0.57129 0.52734,0.32958 1.19751,1.15356 l 0,-5.9436 1.90063,0 0,16.19384 -1.77978,0 0,-1.63696 q -0.69214,1.08765 -1.63697,1.57105 -0.94482,0.48339 -2.1643,0.48339 -1.96655,0 -3.40576,-1.64795 -1.43921,-1.65893 -1.43921,-4.40551 0,-2.5708 1.30737,-4.44947 1.31836,-1.88964 3.75732,-1.88964 z"
             style="font-size:22.5px"
             id="path13265" />
          <path
             d="m 491.87646,160.77325 q 1.25245,0 2.42798,0.59327 1.17554,0.58227 1.79077,1.51611 0.59327,0.88989 0.79102,2.07642 0.17578,0.81298 0.17578,2.59277 l -8.62427,0 q 0.0549,1.79077 0.84595,2.87842 0.79102,1.07666 2.44995,1.07666 1.54907,0 2.47193,-1.02173 0.52734,-0.59326 0.74707,-1.37329 l 1.94458,0 q -0.0769,0.64819 -0.51636,1.45019 -0.42847,0.79102 -0.9668,1.29639 -0.90088,0.87891 -2.23022,1.18652 -0.71411,0.17578 -1.61499,0.17578 -2.19727,0 -3.72437,-1.59301 -1.5271,-1.60401 -1.5271,-4.48243 0,-2.83447 1.53809,-4.60327 1.53808,-1.7688 4.02099,-1.7688 z m 3.15308,5.20752 q -0.12085,-1.2854 -0.5603,-2.05444 -0.81299,-1.42822 -2.71362,-1.42822 -1.36231,0 -2.28516,0.98877 -0.92285,0.97778 -0.97778,2.49389 l 6.53686,0 z m -3.33984,-5.22949 0,0 z"
             style="font-size:22.5px"
             id="path13267" />
          <path
             d="m 505.79614,156.66437 1.97754,0 0,16.13891 -1.97754,0 0,-16.13891 z"
             style="font-size:22.5px"
             id="path13269" />
          <path
             d="m 512.26709,169.67218 q 0,0.85693 0.62622,1.35132 0.62622,0.49438 1.48315,0.49438 1.04371,0 2.02149,-0.4834 1.64795,-0.802 1.64795,-2.62573 l 0,-1.59302 q -0.36255,0.23072 -0.93384,0.38453 -0.57129,0.1538 -1.1206,0.21972 l -1.19751,0.15381 q -1.07666,0.14282 -1.61499,0.45044 -0.91187,0.51636 -0.91187,1.64795 z m 4.79004,-3.99902 q 0.68115,-0.0879 0.91186,-0.57129 0.13184,-0.26367 0.13184,-0.75806 0,-1.01074 -0.7251,-1.46118 -0.71411,-0.46143 -2.05444,-0.46143 -1.54907,0 -2.19727,0.83496 -0.36255,0.46143 -0.47241,1.3733 l -1.8457,0 q 0.0549,-2.1753 1.40625,-3.02124 1.3623,-0.85694 3.15307,-0.85694 2.07642,0 3.37281,0.79102 1.2854,0.79101 1.2854,2.46093 l 0,6.77857 q 0,0.30762 0.12085,0.49438 0.13183,0.18677 0.53833,0.18677 0.13183,0 0.29663,-0.011 0.16479,-0.022 0.35156,-0.0549 l 0,1.46119 q -0.46143,0.13183 -0.70312,0.16479 -0.2417,0.033 -0.65918,0.033 -1.02173,0 -1.48316,-0.7251 -0.2417,-0.38452 -0.34057,-1.08764 -0.60425,0.79101 -1.73584,1.37329 -1.1316,0.58227 -2.4939,0.58227 -1.63696,0 -2.68067,-0.98877 -1.03271,-0.99975 -1.03271,-2.49389 0,-1.63697 1.02173,-2.53785 1.02173,-0.90088 2.68066,-1.10962 l 3.15308,-0.3955 z m -1.63696,-4.92188 0,0 z"
             style="font-size:22.5px"
             id="path13271" />
          <path
             d="m 534.48145,171.47394 q 1.38427,0 2.29614,-1.15357 0.92285,-1.16455 0.92285,-3.47168 0,-1.40625 -0.40649,-2.41699 -0.76905,-1.94458 -2.8125,-1.94458 -2.05445,0 -2.8125,2.05444 -0.4065,1.09864 -0.4065,2.79053 0,1.36231 0.4065,2.31812 0.76904,1.82373 2.8125,1.82373 z m -5.11963,-10.38208 1.9226,0 0,1.56006 q 0.59327,-0.80201 1.29639,-1.24146 0.99976,-0.65918 2.35107,-0.65918 1.99952,0 3.39478,1.53809 1.39526,1.5271 1.39526,4.37256 0,3.84521 -2.01049,5.49316 -1.27442,1.0437 -2.96631,1.0437 -1.32935,0 -2.23023,-0.58227 -0.52734,-0.32959 -1.17553,-1.1316 l 0,6.00953 -1.97754,0 0,-16.40259 z"
             style="font-size:22.5px"
             id="path13273" />
          <path
             d="m 543.55615,169.67218 q 0,0.85693 0.62622,1.35132 0.62622,0.49438 1.48316,0.49438 1.0437,0 2.02148,-0.4834 1.64795,-0.802 1.64795,-2.62573 l 0,-1.59302 q -0.36255,0.23072 -0.93384,0.38453 -0.57129,0.1538 -1.1206,0.21972 l -1.19751,0.15381 q -1.07666,0.14282 -1.61499,0.45044 -0.91187,0.51636 -0.91187,1.64795 z m 4.79004,-3.99902 q 0.68115,-0.0879 0.91187,-0.57129 0.13183,-0.26367 0.13183,-0.75806 0,-1.01074 -0.7251,-1.46118 -0.71411,-0.46143 -2.05444,-0.46143 -1.54907,0 -2.19726,0.83496 -0.36255,0.46143 -0.47242,1.3733 l -1.8457,0 q 0.0549,-2.1753 1.40625,-3.02124 1.36231,-0.85694 3.15308,-0.85694 2.07641,0 3.3728,0.79102 1.2854,0.79101 1.2854,2.46093 l 0,6.77857 q 0,0.30762 0.12085,0.49438 0.13184,0.18677 0.53833,0.18677 0.13184,0 0.29663,-0.011 0.1648,-0.022 0.35156,-0.0549 l 0,1.46119 q -0.46142,0.13183 -0.70312,0.16479 -0.2417,0.033 -0.65918,0.033 -1.02173,0 -1.48316,-0.7251 -0.2417,-0.38452 -0.34057,-1.08764 -0.60425,0.79101 -1.73584,1.37329 -1.13159,0.58227 -2.4939,0.58227 -1.63696,0 -2.68066,-0.98877 -1.03272,-0.99975 -1.03272,-2.49389 0,-1.63697 1.02173,-2.53785 1.02173,-0.90088 2.68067,-1.10962 l 3.15307,-0.3955 z m -1.63696,-4.92188 0,0 z"
             style="font-size:22.5px"
             id="path13275" />
          <path
             d="m 554.61938,161.03693 1.87867,0 0,2.03247 q 0.23071,-0.59326 1.13159,-1.43921 0.90088,-0.85694 2.07641,-0.85694 0.0549,0 0.18677,0.011 0.13184,0.011 0.45044,0.0439 l 0,2.0874 q -0.17578,-0.033 -0.32959,-0.0439 -0.14282,-0.011 -0.3186,-0.011 -1.49414,0 -2.29614,0.96679 -0.80201,0.95581 -0.80201,2.20826 l 0,6.76757 -1.97754,0 0,-11.76635 z"
             style="font-size:22.5px"
             id="path13277" />
          <path
             d="m 566.74829,171.52887 q 1.96655,0 2.69165,-1.48315 0.73609,-1.49415 0.73609,-3.31788 0,-1.64794 -0.52735,-2.68066 -0.83496,-1.62598 -2.87842,-1.62598 -1.81274,0 -2.63672,1.38428 -0.82397,1.38428 -0.82397,3.33984 0,1.87867 0.82397,3.13111 0.82398,1.25244 2.61475,1.25244 z m 0.0769,-10.83252 q 2.27417,0 3.84521,1.51611 1.57105,1.51612 1.57105,4.46045 0,2.84546 -1.38428,4.70215 -1.38428,1.85669 -4.29566,1.85669 -2.42798,0 -3.8562,-1.63696 -1.42822,-1.64795 -1.42822,-4.41651 0,-2.9663 1.50513,-4.72412 1.50512,-1.75781 4.04297,-1.75781 z m -0.0659,0.0549 0,0 z"
             style="font-size:22.5px"
             id="path13279" />
          <path
             d="m 574.65845,156.66437 1.97754,0 0,16.13891 -1.97754,0 0,-16.13891 z"
             style="font-size:22.5px"
             id="path13281" />
          <path
             d="m 584.51318,160.77325 q 1.25244,0 2.42798,0.59327 1.17554,0.58227 1.79077,1.51611 0.59327,0.88989 0.79102,2.07642 0.17578,0.81298 0.17578,2.59277 l -8.62427,0 q 0.0549,1.79077 0.84595,2.87842 0.79102,1.07666 2.44995,1.07666 1.54907,0 2.47193,-1.02173 0.52734,-0.59326 0.74707,-1.37329 l 1.94458,0 q -0.0769,0.64819 -0.51636,1.45019 -0.42847,0.79102 -0.9668,1.29639 -0.90088,0.87891 -2.23022,1.18652 -0.71411,0.17578 -1.61499,0.17578 -2.19727,0 -3.72437,-1.59301 -1.5271,-1.60401 -1.5271,-4.48243 0,-2.83447 1.53809,-4.60327 1.53808,-1.7688 4.02099,-1.7688 z m 3.15308,5.20752 q -0.12085,-1.2854 -0.5603,-2.05444 -0.81299,-1.42822 -2.71363,-1.42822 -1.3623,0 -2.28515,0.98877 -0.92285,0.97778 -0.97779,2.49389 l 6.53687,0 z m -3.33984,-5.22949 0,0 z"
             style="font-size:22.5px"
             id="path13283" />
        </g>
      </g>
    </g>
  </g>
</svg>
