<?xml version="1.0" encoding="UTF-8" standalone="no"?>
<svg
   xmlns:dc="http://purl.org/dc/elements/1.1/"
   xmlns:cc="http://creativecommons.org/ns#"
   xmlns:rdf="http://www.w3.org/1999/02/22-rdf-syntax-ns#"
   xmlns:svg="http://www.w3.org/2000/svg"
   xmlns="http://www.w3.org/2000/svg"
   xmlns:sodipodi="http://sodipodi.sourceforge.net/DTD/sodipodi-0.dtd"
   xmlns:inkscape="http://www.inkscape.org/namespaces/inkscape"
   id="chart-31b4413f-0725-45b3-a8c8-43327ea4d8d6"
   class="pygal-chart"
   viewBox="0 0 901.65844 600.82238"
   version="1.1"
   inkscape:version="0.91 r13725"
   sodipodi:docname="Hist_reference.svg"
   width="901.65845"
   height="600.82239">
  <metadata
     id="metadata14505">
    <rdf:RDF>
      <cc:Work
         rdf:about="">
        <dc:format>image/svg+xml</dc:format>
        <dc:type
           rdf:resource="http://purl.org/dc/dcmitype/StillImage" />
        <dc:title>Pygal</dc:title>
      </cc:Work>
    </rdf:RDF>
  </metadata>
  <sodipodi:namedview
     borderopacity="1"
     objecttolerance="10"
     gridtolerance="10"
     guidetolerance="10"
     inkscape:pageopacity="0"
     inkscape:pageshadow="2"
     inkscape:window-width="1255"
     inkscape:window-height="696"
     id="namedview14503"
     showgrid="false"
     fit-margin-left="1"
     fit-margin-top="1"
     fit-margin-right="1"
     fit-margin-bottom="1"
     inkscape:zoom="0.55625732"
     inkscape:cx="441.2159"
     inkscape:cy="306.66927"
     inkscape:window-x="0"
     inkscape:window-y="0"
     inkscape:window-maximized="0"
     inkscape:current-layer="chart-31b4413f-0725-45b3-a8c8-43327ea4d8d6" />
  <!--Generated with pygal 2.2.3 (lxml) ©Kozea 2012-2016 on 2017-11-21-->
  <!--http://pygal.org-->
  <!--http://github.com/Kozea/pygal-->
  <defs
     id="defs14128" />
  <title
     id="title14136">Pygal</title>
  <path
     class="axis major line"
     d="m 270.57975,572.42893 623.6,0"
     id="path14150"
     inkscape:connector-curvature="0"
     style="color:#000000;clip-rule:nonzero;display:inline;overflow:visible;visibility:visible;opacity:1;isolation:auto;mix-blend-mode:normal;color-interpolation:sRGB;color-interpolation-filters:linearRGB;solid-color:#000000;solid-opacity:1;fill:none;fill-opacity:1;fill-rule:nonzero;stroke:#c5c5c5;stroke-width:1;stroke-linecap:butt;stroke-linejoin:miter;stroke-miterlimit:4;stroke-dasharray:4, 4;stroke-dashoffset:0;stroke-opacity:1;color-rendering:auto;image-rendering:auto;shape-rendering:auto;text-rendering:auto;enable-background:accumulate" />
  <text
     class="major"
     x="258.69089"
     y="575.92896"
     id="text14152"
     style="color:#000000;font-style:normal;font-variant:normal;font-weight:normal;font-stretch:normal;font-size:26.44286728px;line-height:normal;font-family:Consolas, 'Liberation Mono', Menlo, Courier, monospace;text-indent:0;text-align:start;text-decoration:none;text-decoration-line:none;text-decoration-style:solid;text-decoration-color:#000000;letter-spacing:normal;word-spacing:normal;text-transform:none;direction:ltr;block-progression:tb;writing-mode:lr-tb;baseline-shift:baseline;text-anchor:start;white-space:normal;clip-rule:nonzero;display:inline;overflow:visible;visibility:visible;opacity:1;isolation:auto;mix-blend-mode:normal;color-interpolation:sRGB;color-interpolation-filters:linearRGB;solid-color:#000000;solid-opacity:1;fill:#000000;fill-opacity:1;fill-rule:nonzero;stroke:none;stroke-width:1;stroke-linecap:butt;stroke-linejoin:miter;stroke-miterlimit:4;stroke-dasharray:none;stroke-dashoffset:0;stroke-opacity:0.8;color-rendering:auto;image-rendering:auto;shape-rendering:auto;text-rendering:auto;enable-background:accumulate">0</text>
  <path
     class="guide line"
     d="m 270.57975,507.8652 623.6,0"
     id="path14158"
     inkscape:connector-curvature="0"
     style="color:#000000;clip-rule:nonzero;display:inline;overflow:visible;visibility:visible;opacity:1;isolation:auto;mix-blend-mode:normal;color-interpolation:sRGB;color-interpolation-filters:linearRGB;solid-color:#000000;solid-opacity:1;fill:none;fill-opacity:1;fill-rule:nonzero;stroke:#c5c5c5;stroke-width:1;stroke-linecap:butt;stroke-linejoin:miter;stroke-miterlimit:4;stroke-dasharray:4, 4;stroke-dashoffset:0;stroke-opacity:1;color-rendering:auto;image-rendering:auto;shape-rendering:auto;text-rendering:auto;enable-background:accumulate" />
  <text
     class=""
     x="242.78384"
     y="511.36517"
     id="text14160"
     style="color:#000000;font-style:normal;font-variant:normal;font-weight:normal;font-stretch:normal;font-size:26.44286728px;line-height:normal;font-family:Consolas, 'Liberation Mono', Menlo, Courier, monospace;text-indent:0;text-align:start;text-decoration:none;text-decoration-line:none;text-decoration-style:solid;text-decoration-color:#000000;letter-spacing:normal;word-spacing:normal;text-transform:none;direction:ltr;block-progression:tb;writing-mode:lr-tb;baseline-shift:baseline;text-anchor:start;white-space:normal;clip-rule:nonzero;display:inline;overflow:visible;visibility:visible;opacity:1;isolation:auto;mix-blend-mode:normal;color-interpolation:sRGB;color-interpolation-filters:linearRGB;solid-color:#000000;solid-opacity:1;fill:#000000;fill-opacity:1;fill-rule:nonzero;stroke:none;stroke-width:1;stroke-linecap:butt;stroke-linejoin:miter;stroke-miterlimit:4;stroke-dasharray:none;stroke-dashoffset:0;stroke-opacity:0.8;color-rendering:auto;image-rendering:auto;shape-rendering:auto;text-rendering:auto;enable-background:accumulate">10</text>
  <path
     class="guide line"
     d="m 270.57975,443.30145 623.6,0"
     id="path14166"
     inkscape:connector-curvature="0"
     style="color:#000000;clip-rule:nonzero;display:inline;overflow:visible;visibility:visible;opacity:1;isolation:auto;mix-blend-mode:normal;color-interpolation:sRGB;color-interpolation-filters:linearRGB;solid-color:#000000;solid-opacity:1;fill:none;fill-opacity:1;fill-rule:nonzero;stroke:#c5c5c5;stroke-width:1;stroke-linecap:butt;stroke-linejoin:miter;stroke-miterlimit:4;stroke-dasharray:4, 4;stroke-dashoffset:0;stroke-opacity:1;color-rendering:auto;image-rendering:auto;shape-rendering:auto;text-rendering:auto;enable-background:accumulate" />
  <text
     class=""
     x="242.78384"
     y="446.80145"
     id="text14168"
     style="color:#000000;font-style:normal;font-variant:normal;font-weight:normal;font-stretch:normal;font-size:26.44286728px;line-height:normal;font-family:Consolas, 'Liberation Mono', Menlo, Courier, monospace;text-indent:0;text-align:start;text-decoration:none;text-decoration-line:none;text-decoration-style:solid;text-decoration-color:#000000;letter-spacing:normal;word-spacing:normal;text-transform:none;direction:ltr;block-progression:tb;writing-mode:lr-tb;baseline-shift:baseline;text-anchor:start;white-space:normal;clip-rule:nonzero;display:inline;overflow:visible;visibility:visible;opacity:1;isolation:auto;mix-blend-mode:normal;color-interpolation:sRGB;color-interpolation-filters:linearRGB;solid-color:#000000;solid-opacity:1;fill:#000000;fill-opacity:1;fill-rule:nonzero;stroke:none;stroke-width:1;stroke-linecap:butt;stroke-linejoin:miter;stroke-miterlimit:4;stroke-dasharray:none;stroke-dashoffset:0;stroke-opacity:0.8;color-rendering:auto;image-rendering:auto;shape-rendering:auto;text-rendering:auto;enable-background:accumulate">20</text>
  <path
     class="guide line"
     d="m 270.57975,378.73772 623.6,0"
     id="path14174"
     inkscape:connector-curvature="0"
     style="color:#000000;clip-rule:nonzero;display:inline;overflow:visible;visibility:visible;opacity:1;isolation:auto;mix-blend-mode:normal;color-interpolation:sRGB;color-interpolation-filters:linearRGB;solid-color:#000000;solid-opacity:1;fill:none;fill-opacity:1;fill-rule:nonzero;stroke:#c5c5c5;stroke-width:1;stroke-linecap:butt;stroke-linejoin:miter;stroke-miterlimit:4;stroke-dasharray:4, 4;stroke-dashoffset:0;stroke-opacity:1;color-rendering:auto;image-rendering:auto;shape-rendering:auto;text-rendering:auto;enable-background:accumulate" />
  <text
     class=""
     x="242.78384"
     y="382.23773"
     id="text14176"
     style="color:#000000;font-style:normal;font-variant:normal;font-weight:normal;font-stretch:normal;font-size:26.44286728px;line-height:normal;font-family:Consolas, 'Liberation Mono', Menlo, Courier, monospace;text-indent:0;text-align:start;text-decoration:none;text-decoration-line:none;text-decoration-style:solid;text-decoration-color:#000000;letter-spacing:normal;word-spacing:normal;text-transform:none;direction:ltr;block-progression:tb;writing-mode:lr-tb;baseline-shift:baseline;text-anchor:start;white-space:normal;clip-rule:nonzero;display:inline;overflow:visible;visibility:visible;opacity:1;isolation:auto;mix-blend-mode:normal;color-interpolation:sRGB;color-interpolation-filters:linearRGB;solid-color:#000000;solid-opacity:1;fill:#000000;fill-opacity:1;fill-rule:nonzero;stroke:none;stroke-width:1;stroke-linecap:butt;stroke-linejoin:miter;stroke-miterlimit:4;stroke-dasharray:none;stroke-dashoffset:0;stroke-opacity:0.8;color-rendering:auto;image-rendering:auto;shape-rendering:auto;text-rendering:auto;enable-background:accumulate">30</text>
  <path
     class="guide line"
     d="m 270.57975,314.17399 623.6,0"
     id="path14182"
     inkscape:connector-curvature="0"
     style="color:#000000;clip-rule:nonzero;display:inline;overflow:visible;visibility:visible;opacity:1;isolation:auto;mix-blend-mode:normal;color-interpolation:sRGB;color-interpolation-filters:linearRGB;solid-color:#000000;solid-opacity:1;fill:none;fill-opacity:1;fill-rule:nonzero;stroke:#c5c5c5;stroke-width:1;stroke-linecap:butt;stroke-linejoin:miter;stroke-miterlimit:4;stroke-dasharray:4, 4;stroke-dashoffset:0;stroke-opacity:1;color-rendering:auto;image-rendering:auto;shape-rendering:auto;text-rendering:auto;enable-background:accumulate" />
  <text
     class=""
     x="242.78384"
     y="317.67401"
     id="text14184"
     style="color:#000000;font-style:normal;font-variant:normal;font-weight:normal;font-stretch:normal;font-size:26.44286728px;line-height:normal;font-family:Consolas, 'Liberation Mono', Menlo, Courier, monospace;text-indent:0;text-align:start;text-decoration:none;text-decoration-line:none;text-decoration-style:solid;text-decoration-color:#000000;letter-spacing:normal;word-spacing:normal;text-transform:none;direction:ltr;block-progression:tb;writing-mode:lr-tb;baseline-shift:baseline;text-anchor:start;white-space:normal;clip-rule:nonzero;display:inline;overflow:visible;visibility:visible;opacity:1;isolation:auto;mix-blend-mode:normal;color-interpolation:sRGB;color-interpolation-filters:linearRGB;solid-color:#000000;solid-opacity:1;fill:#000000;fill-opacity:1;fill-rule:nonzero;stroke:none;stroke-width:1;stroke-linecap:butt;stroke-linejoin:miter;stroke-miterlimit:4;stroke-dasharray:none;stroke-dashoffset:0;stroke-opacity:0.8;color-rendering:auto;image-rendering:auto;shape-rendering:auto;text-rendering:auto;enable-background:accumulate">40</text>
  <path
     class="major guide line"
     d="m 270.57975,249.61025 623.6,0"
     id="path14190"
     inkscape:connector-curvature="0"
     style="color:#000000;clip-rule:nonzero;display:inline;overflow:visible;visibility:visible;opacity:1;isolation:auto;mix-blend-mode:normal;color-interpolation:sRGB;color-interpolation-filters:linearRGB;solid-color:#000000;solid-opacity:1;fill:none;fill-opacity:1;fill-rule:nonzero;stroke:#c5c5c5;stroke-width:1;stroke-linecap:butt;stroke-linejoin:miter;stroke-miterlimit:4;stroke-dasharray:4, 4;stroke-dashoffset:0;stroke-opacity:1;color-rendering:auto;image-rendering:auto;shape-rendering:auto;text-rendering:auto;enable-background:accumulate" />
  <text
     class="major"
     x="242.78384"
     y="253.11026"
     id="text14192"
     style="color:#000000;font-style:normal;font-variant:normal;font-weight:normal;font-stretch:normal;font-size:26.44286728px;line-height:normal;font-family:Consolas, 'Liberation Mono', Menlo, Courier, monospace;text-indent:0;text-align:start;text-decoration:none;text-decoration-line:none;text-decoration-style:solid;text-decoration-color:#000000;letter-spacing:normal;word-spacing:normal;text-transform:none;direction:ltr;block-progression:tb;writing-mode:lr-tb;baseline-shift:baseline;text-anchor:start;white-space:normal;clip-rule:nonzero;display:inline;overflow:visible;visibility:visible;opacity:1;isolation:auto;mix-blend-mode:normal;color-interpolation:sRGB;color-interpolation-filters:linearRGB;solid-color:#000000;solid-opacity:1;fill:#000000;fill-opacity:1;fill-rule:nonzero;stroke:none;stroke-width:1;stroke-linecap:butt;stroke-linejoin:miter;stroke-miterlimit:4;stroke-dasharray:none;stroke-dashoffset:0;stroke-opacity:0.8;color-rendering:auto;image-rendering:auto;shape-rendering:auto;text-rendering:auto;enable-background:accumulate">50</text>
  <path
     class="guide line"
     d="m 270.57975,185.04652 623.6,0"
     id="path14198"
     inkscape:connector-curvature="0"
     style="color:#000000;clip-rule:nonzero;display:inline;overflow:visible;visibility:visible;opacity:1;isolation:auto;mix-blend-mode:normal;color-interpolation:sRGB;color-interpolation-filters:linearRGB;solid-color:#000000;solid-opacity:1;fill:none;fill-opacity:1;fill-rule:nonzero;stroke:#c5c5c5;stroke-width:1;stroke-linecap:butt;stroke-linejoin:miter;stroke-miterlimit:4;stroke-dasharray:4, 4;stroke-dashoffset:0;stroke-opacity:1;color-rendering:auto;image-rendering:auto;shape-rendering:auto;text-rendering:auto;enable-background:accumulate" />
  <text
     class=""
     x="242.78384"
     y="188.54654"
     id="text14200"
     style="color:#000000;font-style:normal;font-variant:normal;font-weight:normal;font-stretch:normal;font-size:26.44286728px;line-height:normal;font-family:Consolas, 'Liberation Mono', Menlo, Courier, monospace;text-indent:0;text-align:start;text-decoration:none;text-decoration-line:none;text-decoration-style:solid;text-decoration-color:#000000;letter-spacing:normal;word-spacing:normal;text-transform:none;direction:ltr;block-progression:tb;writing-mode:lr-tb;baseline-shift:baseline;text-anchor:start;white-space:normal;clip-rule:nonzero;display:inline;overflow:visible;visibility:visible;opacity:1;isolation:auto;mix-blend-mode:normal;color-interpolation:sRGB;color-interpolation-filters:linearRGB;solid-color:#000000;solid-opacity:1;fill:#000000;fill-opacity:1;fill-rule:nonzero;stroke:none;stroke-width:1;stroke-linecap:butt;stroke-linejoin:miter;stroke-miterlimit:4;stroke-dasharray:none;stroke-dashoffset:0;stroke-opacity:0.8;color-rendering:auto;image-rendering:auto;shape-rendering:auto;text-rendering:auto;enable-background:accumulate">60</text>
  <path
     class="guide line"
     d="m 270.57975,120.48278 623.6,0"
     id="path14206"
     inkscape:connector-curvature="0"
     style="color:#000000;clip-rule:nonzero;display:inline;overflow:visible;visibility:visible;opacity:1;isolation:auto;mix-blend-mode:normal;color-interpolation:sRGB;color-interpolation-filters:linearRGB;solid-color:#000000;solid-opacity:1;fill:none;fill-opacity:1;fill-rule:nonzero;stroke:#c5c5c5;stroke-width:1;stroke-linecap:butt;stroke-linejoin:miter;stroke-miterlimit:4;stroke-dasharray:4, 4;stroke-dashoffset:0;stroke-opacity:1;color-rendering:auto;image-rendering:auto;shape-rendering:auto;text-rendering:auto;enable-background:accumulate" />
  <text
     class=""
     x="242.78384"
     y="123.98282"
     id="text14208"
     style="color:#000000;font-style:normal;font-variant:normal;font-weight:normal;font-stretch:normal;font-size:26.44286728px;line-height:normal;font-family:Consolas, 'Liberation Mono', Menlo, Courier, monospace;text-indent:0;text-align:start;text-decoration:none;text-decoration-line:none;text-decoration-style:solid;text-decoration-color:#000000;letter-spacing:normal;word-spacing:normal;text-transform:none;direction:ltr;block-progression:tb;writing-mode:lr-tb;baseline-shift:baseline;text-anchor:start;white-space:normal;clip-rule:nonzero;display:inline;overflow:visible;visibility:visible;opacity:1;isolation:auto;mix-blend-mode:normal;color-interpolation:sRGB;color-interpolation-filters:linearRGB;solid-color:#000000;solid-opacity:1;fill:#000000;fill-opacity:1;fill-rule:nonzero;stroke:none;stroke-width:1;stroke-linecap:butt;stroke-linejoin:miter;stroke-miterlimit:4;stroke-dasharray:none;stroke-dashoffset:0;stroke-opacity:0.8;color-rendering:auto;image-rendering:auto;shape-rendering:auto;text-rendering:auto;enable-background:accumulate">70</text>
  <path
     class="guide line"
     d="m 270.57975,55.919063 623.6,0"
     id="path14214"
     inkscape:connector-curvature="0"
     style="color:#000000;clip-rule:nonzero;display:inline;overflow:visible;visibility:visible;opacity:1;isolation:auto;mix-blend-mode:normal;color-interpolation:sRGB;color-interpolation-filters:linearRGB;solid-color:#000000;solid-opacity:1;fill:none;fill-opacity:1;fill-rule:nonzero;stroke:#c5c5c5;stroke-width:1;stroke-linecap:butt;stroke-linejoin:miter;stroke-miterlimit:4;stroke-dasharray:4, 4;stroke-dashoffset:0;stroke-opacity:1;color-rendering:auto;image-rendering:auto;shape-rendering:auto;text-rendering:auto;enable-background:accumulate" />
  <text
     class=""
     x="242.78384"
     y="59.242859"
     id="text14216"
     style="color:#000000;font-style:normal;font-variant:normal;font-weight:normal;font-stretch:normal;font-size:26.44286728px;line-height:normal;font-family:Consolas, 'Liberation Mono', Menlo, Courier, monospace;text-indent:0;text-align:start;text-decoration:none;text-decoration-line:none;text-decoration-style:solid;text-decoration-color:#000000;letter-spacing:normal;word-spacing:normal;text-transform:none;direction:ltr;block-progression:tb;writing-mode:lr-tb;baseline-shift:baseline;text-anchor:start;white-space:normal;clip-rule:nonzero;display:inline;overflow:visible;visibility:visible;opacity:1;isolation:auto;mix-blend-mode:normal;color-interpolation:sRGB;color-interpolation-filters:linearRGB;solid-color:#000000;solid-opacity:1;fill:#000000;fill-opacity:1;fill-rule:nonzero;stroke:none;stroke-width:1;stroke-linecap:butt;stroke-linejoin:miter;stroke-miterlimit:4;stroke-dasharray:none;stroke-dashoffset:0;stroke-opacity:0.8;color-rendering:auto;image-rendering:auto;shape-rendering:auto;text-rendering:auto;enable-background:accumulate">80</text>
  <rect
     style="fill:#f44336;fill-opacity:0.7;stroke:#f44336;stroke-opacity:0.8"
     id="rect14236"
     y="572.42896"
     x="443.05313"
     width="23.217108"
     ry="0"
     rx="0"
     height="0"
     class="rect reactive tooltip-trigger" />
  <rect
     style="fill:#f44336;fill-opacity:0.7;stroke:#f44336;stroke-opacity:0.8"
     id="rect14246"
     y="572.42896"
     x="592.95697"
     width="23.217108"
     ry="0"
     rx="0"
     height="0"
     class="rect reactive tooltip-trigger" />
  <rect
     style="fill:#f44336;fill-opacity:0.7;stroke:#f44336;stroke-opacity:0.8"
     id="rect14256"
     y="572.42896"
     x="742.86078"
     width="23.217108"
     ry="0"
     rx="0"
     height="0"
     class="rect reactive tooltip-trigger" />
  <rect
     style="fill:#3f51b5;fill-opacity:0.7;stroke:#3f51b5;stroke-opacity:0.8"
     id="rect14270"
     y="572.42896"
     x="319.53235"
     width="23.217108"
     ry="0"
     rx="0"
     height="0"
     class="rect reactive tooltip-trigger" />
  <rect
     style="fill:#3f51b5;fill-opacity:0.7;stroke:#3f51b5;stroke-opacity:0.8"
     id="rect14290"
     y="572.42896"
     x="619.34003"
     width="23.217108"
     ry="0"
     rx="0"
     height="0"
     class="rect reactive tooltip-trigger" />
  <rect
     style="fill:#3f51b5;fill-opacity:0.7;stroke:#3f51b5;stroke-opacity:0.8"
     id="rect14300"
     y="572.42896"
     x="769.2439"
     width="23.217108"
     ry="0"
     rx="0"
     height="0"
     class="rect reactive tooltip-trigger" />
  <rect
     style="fill:#009688;fill-opacity:0.7;stroke:#009688;stroke-opacity:0.8"
     id="rect14314"
     y="572.42896"
     x="345.91544"
     width="23.217108"
     ry="0"
     rx="0"
     height="0"
     class="rect reactive tooltip-trigger" />
  <rect
     style="fill:#009688;fill-opacity:0.7;stroke:#009688;stroke-opacity:0.8"
     id="rect14324"
     y="572.42896"
     x="495.81924"
     width="23.217108"
     ry="0"
     rx="0"
     height="0"
     class="rect reactive tooltip-trigger" />
  <rect
     style="fill:#009688;fill-opacity:0.7;stroke:#009688;stroke-opacity:0.8"
     id="rect14344"
     y="572.42896"
     x="795.62701"
     width="23.217108"
     ry="0"
     rx="0"
     height="0"
     class="rect reactive tooltip-trigger" />
  <rect
     style="fill:#ffc107;fill-opacity:0.7;stroke:#ffc107;stroke-opacity:0.8"
     id="rect14358"
     y="572.42896"
     x="372.29849"
     width="23.217108"
     ry="0"
     rx="0"
     height="0"
     class="rect reactive tooltip-trigger" />
  <rect
     style="fill:#ffc107;fill-opacity:0.7;stroke:#ffc107;stroke-opacity:0.8"
     id="rect14368"
     y="572.42896"
     x="522.20233"
     width="23.217108"
     ry="0"
     rx="0"
     height="0"
     class="rect reactive tooltip-trigger" />
  <rect
     style="fill:#ffc107;fill-opacity:0.7;stroke:#ffc107;stroke-opacity:0.8"
     id="rect14378"
     y="572.42896"
     x="672.1062"
     width="23.217108"
     ry="0"
     rx="0"
     height="0"
     class="rect reactive tooltip-trigger" />
  <rect
     style="fill:#ff5722;fill-opacity:0.7;stroke:#ff5722;stroke-opacity:0.8"
     id="rect14402"
     y="572.42896"
     x="398.68158"
     width="23.217108"
     ry="0"
     rx="0"
     height="0"
     class="rect reactive tooltip-trigger" />
  <rect
     style="fill:#ff5722;fill-opacity:0.7;stroke:#ff5722;stroke-opacity:0.8"
     id="rect14412"
     y="572.42896"
     x="548.58539"
     width="23.217108"
     ry="0"
     rx="0"
     height="0"
     class="rect reactive tooltip-trigger" />
  <rect
     style="fill:#ff5722;fill-opacity:0.7;stroke:#ff5722;stroke-opacity:0.8"
     id="rect14422"
     y="572.42896"
     x="698.48926"
     width="23.217108"
     ry="0"
     rx="0"
     height="0"
     class="rect reactive tooltip-trigger" />
  <rect
     style="font-size:medium;font-family:Consolas, 'Liberation Mono', Menlo, Courier, monospace;fill-opacity:0.95;stroke-width:0.5"
     y="23.198181"
     x="270.57974"
     id="rect14470"
     width="0"
     ry="0"
     rx="0"
     height="0"
     class="tooltip-box" />
  <g
     id="REFMLPASR"
     inkscape:label="#g33426"
     class="fragment fade-in"
     data-fragment-index="1"
     transform="translate(243.10083,0)">
    <g
       id="g33419">
      <g
         id="g16093"
         transform="translate(62.176192,32.467393)">
        <rect
           class="rect reactive tooltip-trigger"
           height="497.78638"
           rx="0"
           ry="0"
           width="23.217108"
           x="27.872253"
           y="42.175152"
           id="rect14226"
           style="color:#000000;clip-rule:nonzero;display:inline;overflow:visible;visibility:visible;opacity:1;isolation:auto;mix-blend-mode:normal;color-interpolation:sRGB;color-interpolation-filters:linearRGB;solid-color:#000000;solid-opacity:1;fill:#73fd00;fill-opacity:0.44623658;fill-rule:nonzero;stroke:#6be21b;stroke-width:1.49618006;stroke-linecap:butt;stroke-linejoin:miter;stroke-miterlimit:4;stroke-dasharray:none;stroke-dashoffset:0;stroke-opacity:1;color-rendering:auto;image-rendering:auto;shape-rendering:auto;text-rendering:auto;enable-background:accumulate" />
        <text
           x="-12.368819"
           y="564.24139"
           id="text14479"
           style="font-size:24.70401382px;font-family:Consolas, 'Liberation Mono', Menlo, Courier, monospace;fill-opacity:1;stroke:none;stroke-opacity:0.8">MLP ASR</text>
      </g>
      <text
         xml:space="preserve"
         style="font-style:normal;font-variant:normal;font-weight:normal;font-stretch:normal;font-size:35px;line-height:125%;font-family:Helvetica;-inkscape-font-specification:Helvetica;text-align:center;letter-spacing:0px;word-spacing:0px;text-anchor:middle;fill:#000000;fill-opacity:1;stroke:none;stroke-width:1px;stroke-linecap:butt;stroke-linejoin:miter;stroke-opacity:1"
         x="104.56227"
         y="63.301392"
         id="text16116"
         sodipodi:linespacing="125%"><tspan
           sodipodi:role="line"
           id="tspan16118"
           style="font-size:35px;stroke:none"
           x="104.56227"
           y="63.301392">77,1</tspan></text>
    </g>
  </g>
  <g
     id="REFMLPBI"
     inkscape:label="#g33434"
     class="fragment fade-in"
     data-fragment-index="3"
     transform="translate(243.10083,0)">
    <g
       transform="translate(57.637221,32.467393)"
       id="g16104">
      <rect
         style="color:#000000;clip-rule:nonzero;display:inline;overflow:visible;visibility:visible;opacity:1;isolation:auto;mix-blend-mode:normal;color-interpolation:sRGB;color-interpolation-filters:linearRGB;solid-color:#000000;solid-opacity:1;fill:#1bcae2;fill-opacity:0.44623658;fill-rule:nonzero;stroke:#1bcae2;stroke-width:1.49617994;stroke-linecap:butt;stroke-linejoin:miter;stroke-miterlimit:4;stroke-dasharray:none;stroke-dashoffset:0;stroke-opacity:1;color-rendering:auto;image-rendering:auto;shape-rendering:auto;text-rendering:auto;enable-background:accumulate"
         id="rect14280"
         y="159.03551"
         x="204.15918"
         width="23.217108"
         ry="0"
         rx="0"
         height="380.92603"
         class="rect reactive tooltip-trigger" />
      <text
         style="font-size:24.70401382px;font-family:Consolas, 'Liberation Mono', Menlo, Courier, monospace;fill-opacity:1;stroke:none;stroke-opacity:0.8"
         id="text14484"
         y="565.16412"
         x="134.49057">MLP Binaire</text>
    </g>
    <text
       sodipodi:linespacing="125%"
       id="text16116-3"
       y="177.15707"
       x="273.59296"
       style="font-style:normal;font-variant:normal;font-weight:normal;font-stretch:normal;font-size:35px;line-height:125%;font-family:Helvetica;-inkscape-font-specification:Helvetica;text-align:center;letter-spacing:0px;word-spacing:0px;text-anchor:middle;fill:#000000;fill-opacity:1;stroke:none;stroke-width:1px;stroke-linecap:butt;stroke-linejoin:miter;stroke-opacity:1"
       xml:space="preserve"><tspan
         y="177.15707"
         x="273.59296"
         style="font-size:35px;stroke:none"
         id="tspan16118-6"
         sodipodi:role="line">59,0</tspan></text>
  </g>
  <g
     id="REFMLPTRS"
     inkscape:label="#g33441"
     class="fragment fade-in"
     data-fragment-index="2"
     transform="translate(243.10083,0)">
    <g
       transform="translate(53.098265,32.467393)"
       id="g16108">
      <rect
         style="color:#000000;clip-rule:nonzero;display:inline;overflow:visible;visibility:visible;opacity:1;isolation:auto;mix-blend-mode:normal;color-interpolation:sRGB;color-interpolation-filters:linearRGB;solid-color:#000000;solid-opacity:1;fill:#fafccb;fill-opacity:1;fill-rule:nonzero;stroke:#d6b656;stroke-width:1;stroke-linecap:butt;stroke-linejoin:miter;stroke-miterlimit:4;stroke-dasharray:none;stroke-dashoffset:0;stroke-opacity:1;color-rendering:auto;image-rendering:auto;shape-rendering:auto;text-rendering:auto;enable-background:accumulate"
         id="rect14334"
         y="1.5"
         x="380.44611"
         width="23.217108"
         ry="0"
         rx="0"
         height="538.46155"
         class="rect reactive tooltip-trigger" />
      <text
         style="font-size:24.70401382px;font-family:Consolas, 'Liberation Mono', Menlo, Courier, monospace;fill-opacity:1;stroke:none;stroke-opacity:0.8"
         id="text14489"
         y="564.1535"
         x="340.6322">MLP TRS</text>
    </g>
    <text
       sodipodi:linespacing="125%"
       id="text16116-9"
       y="25.541016"
       x="445.17856"
       style="font-style:normal;font-variant:normal;font-weight:normal;font-stretch:normal;font-size:35px;line-height:125%;font-family:Helvetica;-inkscape-font-specification:Helvetica;text-align:center;letter-spacing:0px;word-spacing:0px;text-anchor:middle;fill:#000000;fill-opacity:1;stroke:none;stroke-width:1px;stroke-linecap:butt;stroke-linejoin:miter;stroke-opacity:1"
       xml:space="preserve"><tspan
         y="25.541016"
         x="445.17856"
         style="font-size:35px;stroke:none"
         id="tspan16118-0"
         sodipodi:role="line">83,4</tspan></text>
  </g>
  <g
     id="REFSVM"
     inkscape:label="#g33448"
     class="fragment fade-in"
     data-fragment-index="4"
     transform="translate(243.10083,0)">
    <g
       transform="translate(22.176261,32.467393)"
       id="g16112">
      <rect
         style="color:#000000;clip-rule:nonzero;display:inline;overflow:visible;visibility:visible;opacity:1;isolation:auto;mix-blend-mode:normal;color-interpolation:sRGB;color-interpolation-filters:linearRGB;solid-color:#000000;solid-opacity:1;fill:#1bcae2;fill-opacity:0.44623658;fill-rule:nonzero;stroke:#1bcae2;stroke-width:1.49617994;stroke-linecap:butt;stroke-linejoin:miter;stroke-miterlimit:4;stroke-dasharray:none;stroke-dashoffset:0;stroke-opacity:1;color-rendering:auto;image-rendering:auto;shape-rendering:auto;text-rendering:auto;enable-background:accumulate"
         id="rect14432"
         y="65.418091"
         x="583.11609"
         width="23.217108"
         ry="0"
         rx="0"
         height="474.54346"
         class="rect reactive tooltip-trigger" />
      <text
         style="font-size:24.70401382px;font-family:Consolas, 'Liberation Mono', Menlo, Courier, monospace;fill-opacity:1;stroke:none;stroke-opacity:0.8"
         id="text14499"
         y="565.30438"
         x="552.3913">SVM[2]</text>
    </g>
    <text
       sodipodi:linespacing="125%"
       id="text16116-97"
       y="83.67514"
       x="617.01202"
       style="font-style:normal;font-variant:normal;font-weight:normal;font-stretch:normal;font-size:35px;line-height:125%;font-family:Helvetica;-inkscape-font-specification:Helvetica;text-align:center;letter-spacing:0px;word-spacing:0px;text-anchor:middle;fill:#000000;fill-opacity:1;stroke:none;stroke-width:1px;stroke-linecap:butt;stroke-linejoin:miter;stroke-opacity:1"
       xml:space="preserve"><tspan
         y="83.67514"
         x="617.01202"
         style="font-size:35px;stroke:none"
         id="tspan16118-3"
         sodipodi:role="line">73,5</tspan></text>
  </g>
  <rect
     style="color:#000000;clip-rule:nonzero;display:inline;overflow:visible;visibility:visible;opacity:1;isolation:auto;mix-blend-mode:normal;color-interpolation:sRGB;color-interpolation-filters:linearRGB;solid-color:#000000;solid-opacity:1;fill:#1bcae2;fill-opacity:0.44623658;fill-rule:nonzero;stroke:#1bcae2;stroke-width:1.49617994;stroke-linecap:butt;stroke-linejoin:miter;stroke-miterlimit:4;stroke-dasharray:none;stroke-dashoffset:0;stroke-opacity:1;marker:none;color-rendering:auto;image-rendering:auto;shape-rendering:auto;text-rendering:auto;enable-background:accumulate"
     id="rect4494"
     width="43.1455"
     height="39.550041"
     x="1.74809"
     y="36.384502" />
  <text
     xml:space="preserve"
     style="font-style:normal;font-variant:normal;font-weight:normal;font-stretch:normal;font-size:30px;line-height:125%;font-family:Helvetica;-inkscape-font-specification:Helvetica;text-align:center;letter-spacing:0px;word-spacing:0px;text-anchor:middle;fill:#000000;fill-opacity:1;stroke:none;stroke-width:1px;stroke-linecap:butt;stroke-linejoin:miter;stroke-opacity:1"
     x="104.67567"
     y="66.896828"
     id="text4496"
     sodipodi:linespacing="125%"><tspan
       sodipodi:role="line"
       id="tspan4498"
       x="104.67567"
       y="66.896828">ASR</tspan></text>
  <rect
     style="color:#000000;clip-rule:nonzero;display:inline;overflow:visible;visibility:visible;opacity:1;isolation:auto;mix-blend-mode:normal;color-interpolation:sRGB;color-interpolation-filters:linearRGB;solid-color:#000000;solid-opacity:1;fill:#fafccb;fill-opacity:1;fill-rule:nonzero;stroke:#d6b656;stroke-width:1;stroke-linecap:butt;stroke-linejoin:miter;stroke-miterlimit:4;stroke-dasharray:none;stroke-dashoffset:0;stroke-opacity:1;marker:none;color-rendering:auto;image-rendering:auto;shape-rendering:auto;text-rendering:auto;enable-background:accumulate"
     id="rect4494-8"
     width="43.1455"
     height="39.550041"
     x="1.74809"
     y="164.02327" />
  <text
     xml:space="preserve"
     style="font-style:normal;font-variant:normal;font-weight:normal;font-stretch:normal;font-size:30px;line-height:125%;font-family:Helvetica;-inkscape-font-specification:Helvetica;text-align:center;letter-spacing:0px;word-spacing:0px;text-anchor:middle;fill:#000000;fill-opacity:1;stroke:none;stroke-width:1px;stroke-linecap:butt;stroke-linejoin:miter;stroke-opacity:1"
     x="103.78212"
     y="194.5356"
     id="text4496-8"
     sodipodi:linespacing="125%"><tspan
       sodipodi:role="line"
       id="tspan4498-3"
       x="103.78212"
       y="194.5356">TRS</tspan></text>
  <rect
     style="color:#000000;clip-rule:nonzero;display:inline;overflow:visible;visibility:visible;opacity:1;isolation:auto;mix-blend-mode:normal;color-interpolation:sRGB;color-interpolation-filters:linearRGB;solid-color:#000000;solid-opacity:1;fill:#73fd00;fill-opacity:0.44623658;fill-rule:nonzero;stroke:#6be21b;stroke-width:1.49618006;stroke-linecap:butt;stroke-linejoin:miter;stroke-miterlimit:4;stroke-dasharray:none;stroke-dashoffset:0;stroke-opacity:1;marker:none;color-rendering:auto;image-rendering:auto;shape-rendering:auto;text-rendering:auto;enable-background:accumulate"
     id="rect4494-86"
     width="43.1455"
     height="39.550041"
     x="1.74809"
     y="291.61298" />
  <text
     xml:space="preserve"
     style="font-style:normal;font-variant:normal;font-weight:normal;font-stretch:normal;font-size:30px;line-height:125%;font-family:Helvetica;-inkscape-font-specification:Helvetica;text-align:center;letter-spacing:0px;word-spacing:0px;text-anchor:middle;fill:#000000;fill-opacity:1;stroke:none;stroke-width:1px;stroke-linecap:butt;stroke-linejoin:miter;stroke-opacity:1"
     x="132.17079"
     y="303.08234"
     id="text4496-84"
     sodipodi:linespacing="125%"><tspan
       sodipodi:role="line"
       id="tspan4498-37"
       x="132.17079"
       y="303.08234">Meilleurs</tspan><tspan
       sodipodi:role="line"
       x="132.17079"
       y="340.58234"
       id="tspan4531">ASR</tspan></text>
</svg>
