<?xml version="1.0" encoding="UTF-8" standalone="no"?>
<!-- Created with Inkscape (http://www.inkscape.org/) -->

<svg
   xmlns:dc="http://purl.org/dc/elements/1.1/"
   xmlns:cc="http://creativecommons.org/ns#"
   xmlns:rdf="http://www.w3.org/1999/02/22-rdf-syntax-ns#"
   xmlns:svg="http://www.w3.org/2000/svg"
   xmlns="http://www.w3.org/2000/svg"
   xmlns:sodipodi="http://sodipodi.sourceforge.net/DTD/sodipodi-0.dtd"
   xmlns:inkscape="http://www.inkscape.org/namespaces/inkscape"
   id="svg2"
   version="1.1"
   inkscape:version="0.91 r13725"
   width="698.75"
   height="978.75"
   xml:space="preserve"
   sodipodi:docname="AE.svg"><metadata
     id="metadata8"><rdf:RDF><cc:Work
         rdf:about=""><dc:format>image/svg+xml</dc:format><dc:type
           rdf:resource="http://purl.org/dc/dcmitype/StillImage" /><dc:title /></cc:Work></rdf:RDF></metadata><defs
     id="defs6"><clipPath
       clipPathUnits="userSpaceOnUse"
       id="clipPath18"><path
         d="M 0,0 559,0 559,783 0,783 0,0 z"
         id="path20" /></clipPath></defs><sodipodi:namedview
     pagecolor="#ffffff"
     bordercolor="#666666"
     borderopacity="1"
     objecttolerance="10"
     gridtolerance="10"
     guidetolerance="10"
     inkscape:pageopacity="0"
     inkscape:pageshadow="2"
     inkscape:window-width="1281"
     inkscape:window-height="749"
     id="namedview4"
     showgrid="false"
     inkscape:zoom="0.48224776"
     inkscape:cx="563.05656"
     inkscape:cy="634.75616"
     inkscape:window-x="0"
     inkscape:window-y="0"
     inkscape:window-maximized="0"
     inkscape:current-layer="g14" /><g
     id="g10"
     inkscape:groupmode="layer"
     inkscape:label="AE"
     transform="matrix(1.25,0,0,-1.25,0,978.75)"><g
       id="g12" /><g
       id="g14"><g
         id="g16"
         clip-path="url(#clipPath18)"><path
           d="M 0,783 559,783 559,0 0,0 0,783 z"
           style="fill:#ffffff;fill-opacity:1;fill-rule:nonzero;stroke:none"
           id="path22" /><g
           id="g24"
           transform="matrix(1,0,0,-1,0,783)"><path
             d="m 127.0707,625.0924 c 9.7927,9.7689 9.7927,25.6075 0,35.3764 -9.7926,9.769 -25.6695,9.769 -35.46205,0 -9.79264,-9.7689 -9.79264,-25.6075 0,-35.3764 9.79255,-9.769 25.66945,-9.769 35.46205,0"
             style="fill:none;stroke:#000000;stroke-opacity:1;stroke-width:3;stroke-linecap:round;stroke-linejoin:round;stroke-miterlimit:10;stroke-dasharray:none"
             id="path26" /></g><g
           id="g28"
           transform="matrix(1,0,0,-1,0,783)"><path
             d="m 194.7746,625.0924 c 9.7926,9.7689 9.7926,25.6075 0,35.3764 -9.7926,9.769 -25.6695,9.769 -35.4621,0 -9.7926,-9.7689 -9.7926,-25.6075 0,-35.3764 9.7926,-9.769 25.6695,-9.769 35.4621,0"
             style="fill:none;stroke:#000000;stroke-opacity:1;stroke-width:3;stroke-linecap:round;stroke-linejoin:round;stroke-miterlimit:10;stroke-dasharray:none"
             id="path30" /></g><g
           id="g32"
           transform="matrix(1,0,0,-1,0,783)"><path
             d="m 262.4785,625.0924 c 9.7926,9.7689 9.7926,25.6075 0,35.3764 -9.7926,9.769 -25.6695,9.769 -35.4621,0 -9.7927,-9.7689 -9.7927,-25.6075 0,-35.3764 9.7926,-9.769 25.6695,-9.769 35.4621,0"
             style="fill:none;stroke:#000000;stroke-opacity:1;stroke-width:3;stroke-linecap:round;stroke-linejoin:round;stroke-miterlimit:10;stroke-dasharray:none"
             id="path34" /></g><g
           id="g36"
           transform="matrix(1,0,0,-1,0,783)"><path
             d="m 397.8862,625.0924 c 9.7926,9.7689 9.7926,25.6075 0,35.3764 -9.7926,9.769 -25.6695,9.769 -35.4621,0 -9.7926,-9.7689 -9.7926,-25.6075 0,-35.3764 9.7926,-9.769 25.6695,-9.769 35.4621,0"
             style="fill:none;stroke:#000000;stroke-opacity:1;stroke-width:3;stroke-linecap:round;stroke-linejoin:round;stroke-miterlimit:10;stroke-dasharray:none"
             id="path38" /></g><g
           id="g40"
           transform="matrix(1,0,0,-1,0,783)"><path
             d="m 465.59,625.0924 c 9.7927,9.7689 9.7927,25.6075 0,35.3764 -9.7925,9.769 -25.6694,9.769 -35.462,0 -9.7927,-9.7689 -9.7927,-25.6075 0,-35.3764 9.7926,-9.769 25.6695,-9.769 35.462,0"
             style="fill:none;stroke:#000000;stroke-opacity:1;stroke-width:3;stroke-linecap:round;stroke-linejoin:round;stroke-miterlimit:10;stroke-dasharray:none"
             id="path42" /></g><g
           id="g44"
           transform="matrix(1,0,0,-1,0,783)"><path
             d="m 533.2939,625.0924 c 9.7926,9.7689 9.7926,25.6075 0,35.3764 -9.7926,9.769 -25.6695,9.769 -35.4621,0 -9.7926,-9.7689 -9.7926,-25.6075 0,-35.3764 9.7926,-9.769 25.6695,-9.769 35.4621,0"
             style="fill:none;stroke:#000000;stroke-opacity:1;stroke-width:3;stroke-linecap:round;stroke-linejoin:round;stroke-miterlimit:10;stroke-dasharray:none"
             id="path46" /></g><g
           id="g48"
           transform="matrix(1,0,0,-1,312.5066,156.3888)"><text
             transform="translate(-29.96128,21.16)"
             id="text50"><tspan
               style="fill:#000000;fill-opacity:1;fill-rule:nonzero;stroke:none;font-family:Helvetica Neue;font-variant:normal;font-weight:normal;font-size:60;writing-mode:lr;-inkscape-font-specification:HelveticaNeue"
               x="0"
               y="0"
               id="tspan52">…</tspan></text>
</g><g
           id="g54"
           transform="matrix(1,0,0,-1,0,783)"><path
             d="m 262.4785,375.5332 c 9.7926,9.769 9.7926,25.6075 0,35.3765 -9.7926,9.769 -25.6695,9.769 -35.4621,0 -9.7927,-9.769 -9.7927,-25.6075 0,-35.3765 9.7926,-9.769 25.6695,-9.769 35.4621,0"
             style="fill:none;stroke:#000000;stroke-opacity:1;stroke-width:3;stroke-linecap:round;stroke-linejoin:round;stroke-miterlimit:10;stroke-dasharray:none"
             id="path56" /></g><g
           id="g58"
           transform="matrix(1,0,0,-1,0,783)"><path
             d="m 397.8862,375.5332 c 9.7926,9.769 9.7926,25.6075 0,35.3765 -9.7926,9.769 -25.6695,9.769 -35.4621,0 -9.7926,-9.769 -9.7926,-25.6075 0,-35.3765 9.7926,-9.769 25.6695,-9.769 35.4621,0"
             style="fill:none;stroke:#000000;stroke-opacity:1;stroke-width:3;stroke-linecap:round;stroke-linejoin:round;stroke-miterlimit:10;stroke-dasharray:none"
             id="path60" /></g><g
           id="g62"
           transform="matrix(1,0,0,-1,312.5066,405.948)"><text
             transform="translate(-29.96128,21.16)"
             id="text64"><tspan
               style="fill:#000000;fill-opacity:1;fill-rule:nonzero;stroke:none;font-family:Helvetica Neue;font-variant:normal;font-weight:normal;font-size:60;writing-mode:lr;-inkscape-font-specification:HelveticaNeue"
               x="0"
               y="0"
               id="tspan66">…</tspan></text>
</g><g
           id="g68"
           transform="matrix(1,0,0,-1,0,783)"><path
             d="m 127.0707,125.8281 c 9.7927,9.769 9.7927,25.6076 0,35.3765 -9.7926,9.769 -25.6695,9.769 -35.46205,0 -9.79264,-9.7689 -9.79264,-25.6075 0,-35.3765 9.79255,-9.769 25.66945,-9.769 35.46205,0"
             style="fill:none;stroke:#000000;stroke-opacity:1;stroke-width:3;stroke-linecap:round;stroke-linejoin:round;stroke-miterlimit:10;stroke-dasharray:none"
             id="path70" /></g><g
           id="g72"
           transform="matrix(1,0,0,-1,0,783)"><path
             d="m 194.7746,125.8281 c 9.7926,9.769 9.7926,25.6076 0,35.3765 -9.7926,9.769 -25.6695,9.769 -35.4621,0 -9.7926,-9.7689 -9.7926,-25.6075 0,-35.3765 9.7926,-9.769 25.6695,-9.769 35.4621,0"
             style="fill:none;stroke:#000000;stroke-opacity:1;stroke-width:3;stroke-linecap:round;stroke-linejoin:round;stroke-miterlimit:10;stroke-dasharray:none"
             id="path74" /></g><g
           id="g76"
           transform="matrix(1,0,0,-1,0,783)"><path
             d="m 262.4785,125.8281 c 9.7926,9.769 9.7926,25.6076 0,35.3765 -9.7926,9.769 -25.6695,9.769 -35.4621,0 -9.7927,-9.7689 -9.7927,-25.6075 0,-35.3765 9.7926,-9.769 25.6695,-9.769 35.4621,0"
             style="fill:none;stroke:#000000;stroke-opacity:1;stroke-width:3;stroke-linecap:round;stroke-linejoin:round;stroke-miterlimit:10;stroke-dasharray:none"
             id="path78" /></g><g
           id="g80"
           transform="matrix(1,0,0,-1,0,783)"><path
             d="m 397.8862,125.8281 c 9.7926,9.769 9.7926,25.6076 0,35.3765 -9.7926,9.769 -25.6695,9.769 -35.4621,0 -9.7926,-9.7689 -9.7926,-25.6075 0,-35.3765 9.7926,-9.769 25.6695,-9.769 35.4621,0"
             style="fill:none;stroke:#000000;stroke-opacity:1;stroke-width:3;stroke-linecap:round;stroke-linejoin:round;stroke-miterlimit:10;stroke-dasharray:none"
             id="path82" /></g><g
           id="g84"
           transform="matrix(1,0,0,-1,0,783)"><path
             d="m 465.59,125.8281 c 9.7927,9.769 9.7927,25.6076 0,35.3765 -9.7925,9.769 -25.6694,9.769 -35.462,0 -9.7927,-9.7689 -9.7927,-25.6075 0,-35.3765 9.7926,-9.769 25.6695,-9.769 35.462,0"
             style="fill:none;stroke:#000000;stroke-opacity:1;stroke-width:3;stroke-linecap:round;stroke-linejoin:round;stroke-miterlimit:10;stroke-dasharray:none"
             id="path86" /></g><g
           id="g88"
           transform="matrix(1,0,0,-1,0,783)"><path
             d="m 533.2939,125.8281 c 9.7926,9.769 9.7926,25.6076 0,35.3765 -9.7926,9.769 -25.6695,9.769 -35.4621,0 -9.7926,-9.7689 -9.7926,-25.6075 0,-35.3765 9.7926,-9.769 25.6695,-9.769 35.4621,0"
             style="fill:none;stroke:#000000;stroke-opacity:1;stroke-width:3;stroke-linecap:round;stroke-linejoin:round;stroke-miterlimit:10;stroke-dasharray:none"
             id="path90" /></g><g
           id="g92"
           transform="matrix(1,0,0,-1,312.5066,655.653)"><text
             transform="translate(-29.96128,21.16)"
             id="text94"><tspan
               style="fill:#000000;fill-opacity:1;fill-rule:nonzero;stroke:none;font-family:Helvetica Neue;font-variant:normal;font-weight:normal;font-size:60;writing-mode:lr;-inkscape-font-specification:HelveticaNeue"
               x="0"
               y="0"
               id="tspan96">…</tspan></text>
</g><g
           id="g98"
           transform="matrix(1,0,0,-1,308.3387,49.11578)"><text
             id="text100"
             style="font-style:normal;font-variant:normal;font-weight:normal;font-stretch:normal;font-family:Arial;-inkscape-font-specification:Arial"
             x="-144.7247"
             y="13.94"><tspan
               style="font-style:normal;font-variant:normal;font-weight:normal;font-stretch:normal;font-size:40px;font-family:Arial;-inkscape-font-specification:Arial;writing-mode:lr-tb;fill:#000000;fill-opacity:1;fill-rule:nonzero;stroke:none"
               sodipodi:role="line"
               id="tspan102"
               x="-144.7247"
               y="13.94">Vecteur d'entrée</tspan></text>
</g><g
           id="g104"
           transform="matrix(1,0,0,-1,0,783)"><path
             d="M 232.0982,369.8951 121.9889,166.8427"
             style="fill:none;stroke:#000000;stroke-opacity:1;stroke-width:2;stroke-linecap:round;stroke-linejoin:round;stroke-miterlimit:10;stroke-dasharray:none"
             id="path106" /></g><g
           id="g108"
           transform="matrix(1,0,0,-1,0,783)"><path
             d="M 237.8066,367.6224 183.9844,169.1154"
             style="fill:none;stroke:#000000;stroke-opacity:1;stroke-width:2;stroke-linecap:round;stroke-linejoin:round;stroke-miterlimit:10;stroke-dasharray:none"
             id="path110" /></g><g
           id="g112"
           transform="matrix(1,0,0,-1,0,783)"><path
             d="m 244.7474,366.7065 0,-196.6751"
             style="fill:none;stroke:#000000;stroke-opacity:1;stroke-width:2;stroke-linecap:round;stroke-linejoin:round;stroke-miterlimit:10;stroke-dasharray:none"
             id="path114" /></g><g
           id="g116"
           transform="matrix(1,0,0,-1,0,783)"><path
             d="M 257.3966,369.8951 367.506,166.8427"
             style="fill:none;stroke:#000000;stroke-opacity:1;stroke-width:2;stroke-linecap:round;stroke-linejoin:round;stroke-miterlimit:10;stroke-dasharray:none"
             id="path118" /></g><g
           id="g120"
           transform="matrix(1,0,0,-1,0,783)"><path
             d="M 261.4952,372.6317 431.1112,164.1061"
             style="fill:none;stroke:#000000;stroke-opacity:1;stroke-width:2;stroke-linecap:round;stroke-linejoin:round;stroke-miterlimit:10;stroke-dasharray:none"
             id="path122" /></g><g
           id="g124"
           transform="matrix(1,0,0,-1,0,783)"><path
             d="M 264.265,375.2253 496.0453,161.5125"
             style="fill:none;stroke:#000000;stroke-opacity:1;stroke-width:2;stroke-linecap:round;stroke-linejoin:round;stroke-miterlimit:10;stroke-dasharray:none"
             id="path126" /></g><g
           id="g128"
           transform="matrix(1,0,0,-1,0,783)"><path
             d="M 360.6376,375.2253 128.8572,161.5125"
             style="fill:none;stroke:#000000;stroke-opacity:1;stroke-width:2;stroke-linecap:round;stroke-linejoin:round;stroke-miterlimit:10;stroke-dasharray:none"
             id="path130" /></g><g
           id="g132"
           transform="matrix(1,0,0,-1,0,783)"><path
             d="M 363.4074,372.6317 193.7913,164.1061"
             style="fill:none;stroke:#000000;stroke-opacity:1;stroke-width:2;stroke-linecap:round;stroke-linejoin:round;stroke-miterlimit:10;stroke-dasharray:none"
             id="path134" /></g><g
           id="g136"
           transform="matrix(1,0,0,-1,0,783)"><path
             d="M 367.506,369.8951 257.3966,166.8427"
             style="fill:none;stroke:#000000;stroke-opacity:1;stroke-width:2;stroke-linecap:round;stroke-linejoin:round;stroke-miterlimit:10;stroke-dasharray:none"
             id="path138" /></g><g
           id="g140"
           transform="matrix(1,0,0,-1,0,783)"><path
             d="m 380.1551,366.7065 0,-196.6751"
             style="fill:none;stroke:#000000;stroke-opacity:1;stroke-width:2;stroke-linecap:round;stroke-linejoin:round;stroke-miterlimit:10;stroke-dasharray:none"
             id="path142" /></g><g
           id="g144"
           transform="matrix(1,0,0,-1,0,783)"><path
             d="m 387.096,367.6224 53.8222,-198.507"
             style="fill:none;stroke:#000000;stroke-opacity:1;stroke-width:2;stroke-linecap:round;stroke-linejoin:round;stroke-miterlimit:10;stroke-dasharray:none"
             id="path146" /></g><g
           id="g148"
           transform="matrix(1,0,0,-1,0,783)"><path
             d="M 392.8043,369.8951 502.9137,166.8427"
             style="fill:none;stroke:#000000;stroke-opacity:1;stroke-width:2;stroke-linecap:round;stroke-linejoin:round;stroke-miterlimit:10;stroke-dasharray:none"
             id="path150" /></g><g
           id="g152"
           transform="matrix(1,0,0,-1,0,783)"><path
             d="M 121.9946,619.4574 232.0925,416.5447"
             style="fill:none;stroke:#000000;stroke-opacity:1;stroke-width:2;stroke-linecap:round;stroke-linejoin:round;stroke-miterlimit:10;stroke-dasharray:none"
             id="path154" /></g><g
           id="g156"
           transform="matrix(1,0,0,-1,0,783)"><path
             d="m 183.9881,617.1825 53.8147,-198.363"
             style="fill:none;stroke:#000000;stroke-opacity:1;stroke-width:2;stroke-linecap:round;stroke-linejoin:round;stroke-miterlimit:10;stroke-dasharray:none"
             id="path158" /></g><g
           id="g160"
           transform="matrix(1,0,0,-1,0,783)"><path
             d="m 244.7474,616.2656 0,-196.5292"
             style="fill:none;stroke:#000000;stroke-opacity:1;stroke-width:2;stroke-linecap:round;stroke-linejoin:round;stroke-miterlimit:10;stroke-dasharray:none"
             id="path162" /></g><g
           id="g164"
           transform="matrix(1,0,0,-1,0,783)"><path
             d="M 367.5002,619.4574 257.4023,416.5447"
             style="fill:none;stroke:#000000;stroke-opacity:1;stroke-width:2;stroke-linecap:round;stroke-linejoin:round;stroke-miterlimit:10;stroke-dasharray:none"
             id="path166" /></g><g
           id="g168"
           transform="matrix(1,0,0,-1,0,783)"><path
             d="M 431.1053,622.1957 261.5011,413.8064"
             style="fill:none;stroke:#000000;stroke-opacity:1;stroke-width:2;stroke-linecap:round;stroke-linejoin:round;stroke-miterlimit:10;stroke-dasharray:none"
             id="path170" /></g><g
           id="g172"
           transform="matrix(1,0,0,-1,0,783)"><path
             d="M 496.0401,624.7901 264.2702,411.2119"
             style="fill:none;stroke:#000000;stroke-opacity:1;stroke-width:2;stroke-linecap:round;stroke-linejoin:round;stroke-miterlimit:10;stroke-dasharray:none"
             id="path174" /></g><g
           id="g176"
           transform="matrix(1,0,0,-1,0,783)"><path
             d="M 128.8625,624.7901 360.6323,411.2119"
             style="fill:none;stroke:#000000;stroke-opacity:1;stroke-width:2;stroke-linecap:round;stroke-linejoin:round;stroke-miterlimit:10;stroke-dasharray:none"
             id="path178" /></g><g
           id="g180"
           transform="matrix(1,0,0,-1,0,783)"><path
             d="M 193.7972,622.1957 363.4015,413.8064"
             style="fill:none;stroke:#000000;stroke-opacity:1;stroke-width:2;stroke-linecap:round;stroke-linejoin:round;stroke-miterlimit:10;stroke-dasharray:none"
             id="path182" /></g><g
           id="g184"
           transform="matrix(1,0,0,-1,0,783)"><path
             d="M 257.4023,619.4574 367.5002,416.5447"
             style="fill:none;stroke:#000000;stroke-opacity:1;stroke-width:2;stroke-linecap:round;stroke-linejoin:round;stroke-miterlimit:10;stroke-dasharray:none"
             id="path186" /></g><g
           id="g188"
           transform="matrix(1,0,0,-1,0,783)"><path
             d="m 380.1551,616.2656 0,-196.5292"
             style="fill:none;stroke:#000000;stroke-opacity:1;stroke-width:2;stroke-linecap:round;stroke-linejoin:round;stroke-miterlimit:10;stroke-dasharray:none"
             id="path190" /></g><g
           id="g192"
           transform="matrix(1,0,0,-1,0,783)"><path
             d="M 440.9144,617.1825 387.0997,418.8195"
             style="fill:none;stroke:#000000;stroke-opacity:1;stroke-width:2;stroke-linecap:round;stroke-linejoin:round;stroke-miterlimit:10;stroke-dasharray:none"
             id="path194" /></g><g
           id="g196"
           transform="matrix(1,0,0,-1,0,783)"><path
             d="M 502.908,619.4574 392.81,416.5447"
             style="fill:none;stroke:#000000;stroke-opacity:1;stroke-width:2;stroke-linecap:round;stroke-linejoin:round;stroke-miterlimit:10;stroke-dasharray:none"
             id="path198" /></g><path
           d="m 55.52589,392.0492 -14.22315,0 0,252.6399 -13.518,0 20.62957,14.9869 20.62957,-14.9869 -13.51799,0 0,-252.6399 z"
           style="fill:#000000;fill-opacity:1;fill-rule:nonzero;stroke:none"
           id="path200" /><path
           d="m 55.52589,118.7881 -14.22315,0 0,252.6399 -13.518,0 20.62957,14.9869 20.62957,-14.9869 -13.51799,0 0,-252.6399 z"
           style="fill:#000000;fill-opacity:1;fill-rule:nonzero;stroke:none"
           id="path202" /><g
           id="g204"
           transform="matrix(0,1,1,0,20.51483,259.0673)"><text
             transform="translate(-68.16,13.94)"
             id="text206"
             style="-inkscape-font-specification:Arial;font-family:Arial;font-weight:normal;font-style:normal;font-stretch:normal;font-variant:normal;"><tspan
               style="font-variant:normal;font-weight:normal;font-size:40px;font-family:Arial;-inkscape-font-specification:Arial;writing-mode:lr-tb;fill:#000000;fill-opacity:1;fill-rule:nonzero;stroke:none;font-style:normal;font-stretch:normal;"
               sodipodi:role="line"
               id="tspan208"
               x="0"
               y="0">Ecodeur</tspan></text>
</g><g
           id="g210"
           transform="matrix(0,1,1,0,18.15974,523.877)"><text
             transform="translate(-69.64,13.94)"
             id="text212"><tspan
               style="font-style:normal;font-variant:normal;font-weight:normal;font-stretch:normal;font-size:40px;font-family:ARial;-inkscape-font-specification:ARial;writing-mode:lr-tb;fill:#000000;fill-opacity:1;fill-rule:nonzero;stroke:none"
               sodipodi:role="line"
               id="tspan214"
               x="0"
               y="0">Decodeur</tspan></text>
</g><g
           id="g216"
           transform="matrix(1,0,0,-1,311.1523,695.97)"><text
             transform="translate(-13.31065,18.27483)"
             id="text218"><tspan
               style="fill:#000000;fill-opacity:1;fill-rule:nonzero;stroke:none;font-family:Helvetica Neue;font-variant:normal;font-weight:bold;font-size:50;writing-mode:lr;-inkscape-font-specification:HelveticaNeue-Bold"
               x="0"
               y="0"
               id="tspan220">x</tspan></text>
</g><g
           id="g222"
           transform="matrix(1,0,0,-1,312.3804,714.8682)"><text
             transform="translate(-14.87638,18.27483)"
             id="text224"><tspan
               style="fill:#000000;fill-opacity:1;fill-rule:nonzero;stroke:none;font-family:Helvetica Neue;font-variant:normal;font-weight:bold;font-size:50;writing-mode:lr;-inkscape-font-specification:HelveticaNeue-Bold"
               x="0"
               y="0"
               id="tspan226">~</tspan></text>
</g><g
           id="g228"
           transform="matrix(1,0,0,-1,482.7543,447.8147)"><text
             transform="translate(-47.55906,-6.839996)"
             id="text230"><tspan
               style="font-variant:normal;font-weight:normal;font-size:30px;font-family:'Helvetica Neue';-inkscape-font-specification:HelveticaNeue;writing-mode:lr-tb;fill:#000000;fill-opacity:1;fill-rule:nonzero;stroke:none"
               x="0"
               sodipodi:role="line"
               id="tspan232"
               y="0">Couche </tspan></text>
</g><g
           id="g234"
           transform="matrix(1,0,0,-1,482.7543,447.8147)"><text
             transform="translate(-41.15406,29)"
             id="text236"><tspan
               style="font-variant:normal;font-weight:normal;font-size:30px;font-family:'Helvetica Neue';-inkscape-font-specification:HelveticaNeue;writing-mode:lr-tb;fill:#000000;fill-opacity:1;fill-rule:nonzero;stroke:none"
               sodipodi:role="line"
               id="tspan238"
               x="0"
               y="0">Cachée</tspan></text>
</g><g
           id="g240"
           transform="matrix(1,0,0,-1,99.39432,279.3642)"><text
             transform="translate(-28.32,22.12979)"
             id="text242"><tspan
               style="font-variant:normal;font-weight:bold;font-size:60px;font-family:'Helvetica Neue';-inkscape-font-specification:HelveticaNeue-Bold;writing-mode:lr-tb;fill:#000000;fill-opacity:1;fill-rule:nonzero;stroke:none"
               x="0"
               y="0"
               id="tspan244">M</tspan></text>
</g><g
           id="g246"
           transform="matrix(1,0,0,-1,102.4425,226.4158)" /><g
           id="g252"
           transform="matrix(1,0,0,-1,102.4425,226.4158)" /><g
           id="g258"
           transform="matrix(1,0,0,-1,482.9853,392.6262)"><text
             transform="translate(-17.79,22.12979)"
             id="text260"><tspan
               style="fill:#000000;fill-opacity:1;fill-rule:nonzero;stroke:none;font-family:Helvetica Neue;font-variant:normal;font-weight:bold;font-size:60;writing-mode:lr;-inkscape-font-specification:HelveticaNeue-Bold"
               x="0"
               y="0"
               id="tspan262">h</tspan></text>
</g><g
           id="g264"
           transform="matrix(1,0,0,-1,99.85636,523.877)"><text
             transform="translate(-28.32,22.12979)"
             id="text266"><tspan
               style="font-variant:normal;font-weight:bold;font-size:60px;font-family:'Helvetica Neue';-inkscape-font-specification:HelveticaNeue-Bold;writing-mode:lr-tb;fill:#000000;fill-opacity:1;fill-rule:nonzero;stroke:none"
               x="0"
               y="0"
               id="tspan268">M</tspan></text>
</g><g
           id="g270"
           transform="matrix(1,0,0,-1,102.4425,470.5119)"><text
             transform="translate(-39.01706,-5.615997)"
             id="text272"><tspan
               style="font-variant:normal;font-weight:normal;font-size:22px;font-family:'Helvetica Neue';-inkscape-font-specification:HelveticaNeue;writing-mode:lr-tb;fill:#000000;fill-opacity:1;fill-rule:nonzero;stroke:none"
               sodipodi:role="line"
               id="tspan274"
               x="0"
               y="0">Matrice</tspan></text>
</g><g
           id="g276"
           transform="matrix(1,0,0,-1,102.4425,470.5119)"><text
             id="text278"
             x="-44.287144"
             y="21"><tspan
               style="font-variant:normal;font-weight:normal;font-size:22px;font-family:'Helvetica Neue';-inkscape-font-specification:HelveticaNeue;writing-mode:lr-tb;fill:#000000;fill-opacity:1;fill-rule:nonzero;stroke:none"
               sodipodi:role="line"
               id="tspan280"
               x="-44.287144"
               y="21">de poids</tspan></text>
</g><g
           id="g282"
           transform="matrix(1,0,0,-1,135.8254,314.6526)"><text
             transform="translate(-12.51674,7.680923)"
             id="text284"><tspan
               style="fill:#000000;fill-opacity:1;fill-rule:nonzero;stroke:none;font-family:Helvetica Neue;font-variant:normal;font-weight:bold;font-size:22;writing-mode:lr;-inkscape-font-specification:HelveticaNeue-Bold"
               x="0 6.512 18.744"
               y="0"
               sodipodi:role="line"
               id="tspan286">(1)</tspan></text>
</g><g
           id="g288"
           transform="matrix(1,0,0,-1,136.3742,559.7424)"><text
             transform="translate(-12.51674,7.680923)"
             id="text290"><tspan
               style="fill:#000000;fill-opacity:1;fill-rule:nonzero;stroke:none;font-family:Helvetica Neue;font-variant:normal;font-weight:bold;font-size:22;writing-mode:lr;-inkscape-font-specification:HelveticaNeue-Bold"
               x="0 6.512 18.744"
               y="0"
               sodipodi:role="line"
               id="tspan292">(2)</tspan></text>
</g><g
           id="g294"
           transform="matrix(1,0,0,-1,307.7477,90.1082)"><text
             id="text296"
             transform="translate(-13.31065,18.27483)"><tspan
               style="fill:#000000;fill-opacity:1;fill-rule:nonzero;stroke:none;font-family:Helvetica Neue;font-variant:normal;font-weight:bold;font-size:50;writing-mode:lr;-inkscape-font-specification:HelveticaNeue-Bold"
               x="0"
               y="0"
               id="tspan298">x</tspan></text>
</g><g
           id="g300"
           transform="matrix(1,0,0,-1,0,783)"><path
             d="m 88.4969,113.0493 447.6427,0 c 5.5228,0 10,4.4772 10,10 l 0,41.9767 c 0,5.5229 -4.4772,10 -10,10 l -447.6427,0 c -5.52285,0 -10,-4.4771 -10,-10 l 0,-41.9767 c 0,-5.5228 4.47715,-10 10,-10 z"
             style="fill:none;stroke:#000000;stroke-opacity:1;stroke-width:2;stroke-linecap:round;stroke-linejoin:round;stroke-miterlimit:10;stroke-dasharray:none"
             id="path302" /></g><g
           id="g304"
           transform="matrix(1,0,0,-1,0,783)"><path
             d="m 220.9018,360.9563 180.0158,0 c 5.5229,0 10,4.4771 10,10 l 0,41.9767 c 0,5.5229 -4.4771,10 -10,10 l -180.0158,0 c -5.5229,0 -10,-4.4771 -10,-10 l 0,-41.9767 c 0,-5.5229 4.4771,-10 10,-10 z"
             style="fill:none;stroke:#000000;stroke-opacity:1;stroke-width:2;stroke-linecap:round;stroke-linejoin:round;stroke-miterlimit:10;stroke-dasharray:none"
             id="path306" /></g><g
           id="g308"
           transform="matrix(1,0,0,-1,0,783)"><path
             d="m 88.4969,611.6804 447.6427,0 c 5.5228,0 10,4.4771 10,10 l 0,41.9767 c 0,5.5229 -4.4772,10 -10,10 l -447.6427,0 c -5.52285,0 -10,-4.4771 -10,-10 l 0,-41.9767 c 0,-5.5229 4.47715,-10 10,-10 z"
             style="fill:none;stroke:#000000;stroke-opacity:1;stroke-width:2;stroke-linecap:round;stroke-linejoin:round;stroke-miterlimit:10;stroke-dasharray:none"
             id="path310" /></g><g
           id="g312"
           transform="matrix(1,0,0,-1,308.3387,745.6953)"><text
             id="text314"
             style="font-style:normal;font-variant:normal;font-weight:normal;font-stretch:normal;font-family:Arial;-inkscape-font-specification:Arial"
             x="-146.39822"
             y="13.94"><tspan
               style="font-style:normal;font-variant:normal;font-weight:normal;font-stretch:normal;font-size:40px;font-family:Arial;-inkscape-font-specification:Arial;writing-mode:lr-tb;fill:#000000;fill-opacity:1;fill-rule:nonzero;stroke:none"
               sodipodi:role="line"
               id="tspan316"
               x="-146.39822"
               y="13.94">Vecteur de sortie</tspan></text>
</g></g><text
         style="font-size:12px"
         y="-232.75009"
         x="60.755981"
         id="text272-8"
         transform="scale(1,-1)"><tspan
           style="font-variant:normal;font-weight:normal;font-size:22px;font-family:'Helvetica Neue';-inkscape-font-specification:HelveticaNeue;writing-mode:lr-tb;fill:#000000;fill-opacity:1;fill-rule:nonzero;stroke:none"
           sodipodi:role="line"
           id="tspan274-4"
           x="60.755981"
           y="-232.75009">Matrice</tspan></text>
<text
         style="font-size:12px"
         id="text278-7"
         x="55.485897"
         y="-206.13412"
         transform="scale(1,-1)"><tspan
           style="font-variant:normal;font-weight:normal;font-size:22px;font-family:'Helvetica Neue';-inkscape-font-specification:HelveticaNeue;writing-mode:lr-tb;fill:#000000;fill-opacity:1;fill-rule:nonzero;stroke:none"
           sodipodi:role="line"
           id="tspan280-1"
           x="55.485897"
           y="-206.13412">de poids</tspan></text>
</g></g></svg>