<?xml version="1.0" encoding="UTF-8" standalone="no"?>
<svg
   xmlns:dc="http://purl.org/dc/elements/1.1/"
   xmlns:cc="http://creativecommons.org/ns#"
   xmlns:rdf="http://www.w3.org/1999/02/22-rdf-syntax-ns#"
   xmlns:svg="http://www.w3.org/2000/svg"
   xmlns="http://www.w3.org/2000/svg"
   xmlns:xlink="http://www.w3.org/1999/xlink"
   xmlns:sodipodi="http://sodipodi.sourceforge.net/DTD/sodipodi-0.dtd"
   xmlns:inkscape="http://www.inkscape.org/namespaces/inkscape"
   id="chart-afbce335-9ef9-426f-93eb-0ae5f28c97d0"
   class="pygal-chart"
   viewBox="0 0 895.85065 564.02148"
   version="1.1"
   inkscape:version="0.91 r13725"
   sodipodi:docname="time.svg"
   width="895.85065"
   height="564.02148">
  <path
     class="axis major line"
     d="m 179.85063,537.03725 716,0"
     id="path25"
     inkscape:connector-curvature="0"
     style="stroke:#a3a3a3;stroke-opacity:1" />
  <path
     class="guide line"
     d="m 179.85063,438.1911 716,0"
     id="path33"
     inkscape:connector-curvature="0"
     style="fill:none;stroke:#a3a3a3;stroke-dasharray:4, 4;stroke-opacity:1" />
  <path
     class="guide line"
     d="m 179.85063,339.34496 716,0"
     id="path41"
     inkscape:connector-curvature="0"
     style="fill:none;stroke:#a3a3a3;stroke-dasharray:4, 4;stroke-opacity:1" />
  <path
     class="guide line"
     d="m 179.85063,240.49879 716,0"
     id="path49"
     inkscape:connector-curvature="0"
     style="fill:none;stroke:#a3a3a3;stroke-dasharray:4, 4;stroke-opacity:1" />
  <path
     class="guide line"
     d="m 179.85063,141.65264 716,0"
     id="path57"
     inkscape:connector-curvature="0"
     style="fill:none;stroke:#a3a3a3;stroke-dasharray:4, 4;stroke-opacity:1" />
  <path
     class="major guide line"
     d="m 179.85063,42.80649 716,0"
     id="path65"
     inkscape:connector-curvature="0"
     style="fill:none;stroke:#a3a3a3;stroke-dasharray:6, 6;stroke-opacity:1" />
  <path
     inkscape:connector-curvature="0"
     id="path73"
     d="m 179.85063,32.921875 0,513.999995"
     class="line"
     style="stroke:#a3a3a3;stroke-opacity:1" />
  <path
     class="guide line"
     d="m 262.46601,32.921875 0,513.999995"
     id="path77"
     inkscape:connector-curvature="0"
     style="opacity:0;fill:none;stroke:#a3a3a3;stroke-dasharray:4, 4;stroke-opacity:1" />
  <path
     class="guide line"
     d="m 400.15832,32.921875 0,513.999995"
     id="path83"
     inkscape:connector-curvature="0"
     style="opacity:0;fill:none;stroke:#a3a3a3;stroke-dasharray:4, 4;stroke-opacity:1" />
  <path
     class="guide line"
     d="m 537.85063,32.921875 0,513.999995"
     id="path89"
     inkscape:connector-curvature="0"
     style="opacity:0;fill:none;stroke:#a3a3a3;stroke-dasharray:4, 4;stroke-opacity:1" />
  <path
     class="guide line"
     d="m 675.54294,32.921875 0,513.999995"
     id="path95"
     inkscape:connector-curvature="0"
     style="opacity:0;fill:none;stroke:#a3a3a3;stroke-dasharray:4, 4;stroke-opacity:1" />
  <path
     class="guide line"
     d="m 813.23525,32.921875 0,513.999995"
     id="path101"
     inkscape:connector-curvature="0"
     style="opacity:0;fill:none;stroke:#a3a3a3;stroke-dasharray:4, 4;stroke-opacity:1" />
  <metadata
     id="metadata638">
    <rdf:RDF>
      <cc:Work
         rdf:about="">
        <dc:format>image/svg+xml</dc:format>
        <dc:type
           rdf:resource="http://purl.org/dc/dcmitype/StillImage" />
        <dc:title>Temps nécéssaire à l'apprentissage (en minutes)</dc:title>
      </cc:Work>
    </rdf:RDF>
  </metadata>
  <sodipodi:namedview
     pagecolor="#ffffff"
     bordercolor="#666666"
     borderopacity="1"
     objecttolerance="10"
     gridtolerance="10"
     guidetolerance="10"
     inkscape:pageopacity="0"
     inkscape:pageshadow="2"
     inkscape:window-width="1276"
     inkscape:window-height="755"
     id="namedview636"
     showgrid="false"
     fit-margin-top="0"
     fit-margin-left="0"
     fit-margin-right="0"
     fit-margin-bottom="0"
     inkscape:zoom="1.025"
     inkscape:cx="398.77746"
     inkscape:cy="435.74464"
     inkscape:window-x="4"
     inkscape:window-y="1"
     inkscape:window-maximized="1"
     inkscape:current-layer="chart-afbce335-9ef9-426f-93eb-0ae5f28c97d0" />
  <!--Generated with pygal 2.2.3 (lxml) ©Kozea 2012-2016 on 2017-03-28-->
  <!--http://pygal.org-->
  <!--http://github.com/Kozea/pygal-->
  <defs
     id="defs3">
    <style
       type="text/css"
       id="style5">#chart-afbce335-9ef9-426f-93eb-0ae5f28c97d0{-webkit-user-select:none;-webkit-font-smoothing:antialiased;font-family:Consolas,&quot;Liberation Mono&quot;,Menlo,Courier,monospace}#chart-afbce335-9ef9-426f-93eb-0ae5f28c97d0 .title{font-family:Consolas,&quot;Liberation Mono&quot;,Menlo,Courier,monospace;font-size:16px}#chart-afbce335-9ef9-426f-93eb-0ae5f28c97d0 .legends .legend text{font-family:Consolas,&quot;Liberation Mono&quot;,Menlo,Courier,monospace;font-size:14px}#chart-afbce335-9ef9-426f-93eb-0ae5f28c97d0 .axis text{font-family:Consolas,&quot;Liberation Mono&quot;,Menlo,Courier,monospace;font-size:10px}#chart-afbce335-9ef9-426f-93eb-0ae5f28c97d0 .axis text.major{font-family:Consolas,&quot;Liberation Mono&quot;,Menlo,Courier,monospace;font-size:10px}#chart-afbce335-9ef9-426f-93eb-0ae5f28c97d0 .text-overlay text.value{font-family:Consolas,&quot;Liberation Mono&quot;,Menlo,Courier,monospace;font-size:16px}#chart-afbce335-9ef9-426f-93eb-0ae5f28c97d0 .text-overlay text.label{font-family:Consolas,&quot;Liberation Mono&quot;,Menlo,Courier,monospace;font-size:10px}#chart-afbce335-9ef9-426f-93eb-0ae5f28c97d0 .tooltip{font-family:Consolas,&quot;Liberation Mono&quot;,Menlo,Courier,monospace;font-size:14px}#chart-afbce335-9ef9-426f-93eb-0ae5f28c97d0 text.no_data{font-family:Consolas,&quot;Liberation Mono&quot;,Menlo,Courier,monospace;font-size:64px}
#chart-afbce335-9ef9-426f-93eb-0ae5f28c97d0{background-color:rgba(249,249,249,1)}#chart-afbce335-9ef9-426f-93eb-0ae5f28c97d0 path,#chart-afbce335-9ef9-426f-93eb-0ae5f28c97d0 line,#chart-afbce335-9ef9-426f-93eb-0ae5f28c97d0 rect,#chart-afbce335-9ef9-426f-93eb-0ae5f28c97d0 circle{-webkit-transition:150ms;-moz-transition:150ms;transition:150ms}#chart-afbce335-9ef9-426f-93eb-0ae5f28c97d0 .graph &gt; .background{fill:rgba(249,249,249,1)}#chart-afbce335-9ef9-426f-93eb-0ae5f28c97d0 .plot &gt; .background{fill:rgba(255,255,255,1)}#chart-afbce335-9ef9-426f-93eb-0ae5f28c97d0 .graph{fill:rgba(0,0,0,.87)}#chart-afbce335-9ef9-426f-93eb-0ae5f28c97d0 text.no_data{fill:rgba(0,0,0,1)}#chart-afbce335-9ef9-426f-93eb-0ae5f28c97d0 .title{fill:rgba(0,0,0,1)}#chart-afbce335-9ef9-426f-93eb-0ae5f28c97d0 .legends .legend text{fill:rgba(0,0,0,.87)}#chart-afbce335-9ef9-426f-93eb-0ae5f28c97d0 .legends .legend:hover text{fill:rgba(0,0,0,1)}#chart-afbce335-9ef9-426f-93eb-0ae5f28c97d0 .axis .line{stroke:rgba(0,0,0,1)}#chart-afbce335-9ef9-426f-93eb-0ae5f28c97d0 .axis .guide.line{stroke:rgba(0,0,0,.54)}#chart-afbce335-9ef9-426f-93eb-0ae5f28c97d0 .axis .major.line{stroke:rgba(0,0,0,.87)}#chart-afbce335-9ef9-426f-93eb-0ae5f28c97d0 .axis text.major{fill:rgba(0,0,0,1)}#chart-afbce335-9ef9-426f-93eb-0ae5f28c97d0 .axis.y .guides:hover .guide.line,#chart-afbce335-9ef9-426f-93eb-0ae5f28c97d0 .line-graph .axis.x .guides:hover .guide.line,#chart-afbce335-9ef9-426f-93eb-0ae5f28c97d0 .stackedline-graph .axis.x .guides:hover .guide.line,#chart-afbce335-9ef9-426f-93eb-0ae5f28c97d0 .xy-graph .axis.x .guides:hover .guide.line{stroke:rgba(0,0,0,1)}#chart-afbce335-9ef9-426f-93eb-0ae5f28c97d0 .axis .guides:hover text{fill:rgba(0,0,0,1)}#chart-afbce335-9ef9-426f-93eb-0ae5f28c97d0 .reactive{fill-opacity:.7;stroke-opacity:.8}#chart-afbce335-9ef9-426f-93eb-0ae5f28c97d0 .ci{stroke:rgba(0,0,0,.87)}#chart-afbce335-9ef9-426f-93eb-0ae5f28c97d0 .reactive.active,#chart-afbce335-9ef9-426f-93eb-0ae5f28c97d0 .active .reactive{fill-opacity:.8;stroke-opacity:.9;stroke-width:4}#chart-afbce335-9ef9-426f-93eb-0ae5f28c97d0 .ci .reactive.active{stroke-width:1.5}#chart-afbce335-9ef9-426f-93eb-0ae5f28c97d0 .series text{fill:rgba(0,0,0,1)}#chart-afbce335-9ef9-426f-93eb-0ae5f28c97d0 .tooltip rect{fill:rgba(255,255,255,1);stroke:rgba(0,0,0,1);-webkit-transition:opacity 150ms;-moz-transition:opacity 150ms;transition:opacity 150ms}#chart-afbce335-9ef9-426f-93eb-0ae5f28c97d0 .tooltip .label{fill:rgba(0,0,0,.87)}#chart-afbce335-9ef9-426f-93eb-0ae5f28c97d0 .tooltip .label{fill:rgba(0,0,0,.87)}#chart-afbce335-9ef9-426f-93eb-0ae5f28c97d0 .tooltip .legend{font-size:.8em;fill:rgba(0,0,0,.54)}#chart-afbce335-9ef9-426f-93eb-0ae5f28c97d0 .tooltip .x_label{font-size:.6em;fill:rgba(0,0,0,1)}#chart-afbce335-9ef9-426f-93eb-0ae5f28c97d0 .tooltip .xlink{font-size:.5em;text-decoration:underline}#chart-afbce335-9ef9-426f-93eb-0ae5f28c97d0 .tooltip .value{font-size:1.5em}#chart-afbce335-9ef9-426f-93eb-0ae5f28c97d0 .bound{font-size:.5em}#chart-afbce335-9ef9-426f-93eb-0ae5f28c97d0 .max-value{font-size:.75em;fill:rgba(0,0,0,.54)}#chart-afbce335-9ef9-426f-93eb-0ae5f28c97d0 .map-element{fill:rgba(255,255,255,1);stroke:rgba(0,0,0,.54) !important}#chart-afbce335-9ef9-426f-93eb-0ae5f28c97d0 .map-element .reactive{fill-opacity:inherit;stroke-opacity:inherit}#chart-afbce335-9ef9-426f-93eb-0ae5f28c97d0 .color-0,#chart-afbce335-9ef9-426f-93eb-0ae5f28c97d0 .color-0 a:visited{stroke:#F44336;fill:#F44336}#chart-afbce335-9ef9-426f-93eb-0ae5f28c97d0 .color-1,#chart-afbce335-9ef9-426f-93eb-0ae5f28c97d0 .color-1 a:visited{stroke:#3F51B5;fill:#3F51B5}#chart-afbce335-9ef9-426f-93eb-0ae5f28c97d0 .color-2,#chart-afbce335-9ef9-426f-93eb-0ae5f28c97d0 .color-2 a:visited{stroke:#009688;fill:#009688}#chart-afbce335-9ef9-426f-93eb-0ae5f28c97d0 .color-3,#chart-afbce335-9ef9-426f-93eb-0ae5f28c97d0 .color-3 a:visited{stroke:#FFC107;fill:#FFC107}#chart-afbce335-9ef9-426f-93eb-0ae5f28c97d0 .color-4,#chart-afbce335-9ef9-426f-93eb-0ae5f28c97d0 .color-4 a:visited{stroke:#FF5722;fill:#FF5722}#chart-afbce335-9ef9-426f-93eb-0ae5f28c97d0 .color-5,#chart-afbce335-9ef9-426f-93eb-0ae5f28c97d0 .color-5 a:visited{stroke:#9C27B0;fill:#9C27B0}#chart-afbce335-9ef9-426f-93eb-0ae5f28c97d0 .color-6,#chart-afbce335-9ef9-426f-93eb-0ae5f28c97d0 .color-6 a:visited{stroke:#03A9F4;fill:#03A9F4}#chart-afbce335-9ef9-426f-93eb-0ae5f28c97d0 .text-overlay .color-0 text{fill:black}#chart-afbce335-9ef9-426f-93eb-0ae5f28c97d0 .text-overlay .color-1 text{fill:black}#chart-afbce335-9ef9-426f-93eb-0ae5f28c97d0 .text-overlay .color-2 text{fill:black}#chart-afbce335-9ef9-426f-93eb-0ae5f28c97d0 .text-overlay .color-3 text{fill:black}#chart-afbce335-9ef9-426f-93eb-0ae5f28c97d0 .text-overlay .color-4 text{fill:black}#chart-afbce335-9ef9-426f-93eb-0ae5f28c97d0 .text-overlay .color-5 text{fill:black}#chart-afbce335-9ef9-426f-93eb-0ae5f28c97d0 .text-overlay .color-6 text{fill:black}
#chart-afbce335-9ef9-426f-93eb-0ae5f28c97d0 text.no_data{text-anchor:middle}#chart-afbce335-9ef9-426f-93eb-0ae5f28c97d0 .guide.line{fill:none}#chart-afbce335-9ef9-426f-93eb-0ae5f28c97d0 .centered{text-anchor:middle}#chart-afbce335-9ef9-426f-93eb-0ae5f28c97d0 .title{text-anchor:middle}#chart-afbce335-9ef9-426f-93eb-0ae5f28c97d0 .legends .legend text{fill-opacity:1}#chart-afbce335-9ef9-426f-93eb-0ae5f28c97d0 .axis.x text{text-anchor:middle}#chart-afbce335-9ef9-426f-93eb-0ae5f28c97d0 .axis.x:not(.web) text[transform]{text-anchor:start}#chart-afbce335-9ef9-426f-93eb-0ae5f28c97d0 .axis.x:not(.web) text[transform].backwards{text-anchor:end}#chart-afbce335-9ef9-426f-93eb-0ae5f28c97d0 .axis.y text{text-anchor:end}#chart-afbce335-9ef9-426f-93eb-0ae5f28c97d0 .axis.y text[transform].backwards{text-anchor:start}#chart-afbce335-9ef9-426f-93eb-0ae5f28c97d0 .axis.y2 text{text-anchor:start}#chart-afbce335-9ef9-426f-93eb-0ae5f28c97d0 .axis.y2 text[transform].backwards{text-anchor:end}#chart-afbce335-9ef9-426f-93eb-0ae5f28c97d0 .axis .guide.line{stroke-dasharray:4,4}#chart-afbce335-9ef9-426f-93eb-0ae5f28c97d0 .axis .major.guide.line{stroke-dasharray:6,6}#chart-afbce335-9ef9-426f-93eb-0ae5f28c97d0 .horizontal .axis.y .guide.line,#chart-afbce335-9ef9-426f-93eb-0ae5f28c97d0 .horizontal .axis.y2 .guide.line,#chart-afbce335-9ef9-426f-93eb-0ae5f28c97d0 .vertical .axis.x .guide.line{opacity:0}#chart-afbce335-9ef9-426f-93eb-0ae5f28c97d0 .horizontal .axis.always_show .guide.line,#chart-afbce335-9ef9-426f-93eb-0ae5f28c97d0 .vertical .axis.always_show .guide.line{opacity:1 !important}#chart-afbce335-9ef9-426f-93eb-0ae5f28c97d0 .axis.y .guides:hover .guide.line,#chart-afbce335-9ef9-426f-93eb-0ae5f28c97d0 .axis.y2 .guides:hover .guide.line,#chart-afbce335-9ef9-426f-93eb-0ae5f28c97d0 .axis.x .guides:hover .guide.line{opacity:1}#chart-afbce335-9ef9-426f-93eb-0ae5f28c97d0 .axis .guides:hover text{opacity:1}#chart-afbce335-9ef9-426f-93eb-0ae5f28c97d0 .nofill{fill:none}#chart-afbce335-9ef9-426f-93eb-0ae5f28c97d0 .subtle-fill{fill-opacity:.2}#chart-afbce335-9ef9-426f-93eb-0ae5f28c97d0 .dot{stroke-width:1px;fill-opacity:1}#chart-afbce335-9ef9-426f-93eb-0ae5f28c97d0 .dot.active{stroke-width:5px}#chart-afbce335-9ef9-426f-93eb-0ae5f28c97d0 .dot.negative{fill:transparent}#chart-afbce335-9ef9-426f-93eb-0ae5f28c97d0 text,#chart-afbce335-9ef9-426f-93eb-0ae5f28c97d0 tspan{stroke:none !important}#chart-afbce335-9ef9-426f-93eb-0ae5f28c97d0 .series text.active{opacity:1}#chart-afbce335-9ef9-426f-93eb-0ae5f28c97d0 .tooltip rect{fill-opacity:.95;stroke-width:.5}#chart-afbce335-9ef9-426f-93eb-0ae5f28c97d0 .tooltip text{fill-opacity:1}#chart-afbce335-9ef9-426f-93eb-0ae5f28c97d0 .showable{visibility:hidden}#chart-afbce335-9ef9-426f-93eb-0ae5f28c97d0 .showable.shown{visibility:visible}#chart-afbce335-9ef9-426f-93eb-0ae5f28c97d0 .gauge-background{fill:rgba(229,229,229,1);stroke:none}#chart-afbce335-9ef9-426f-93eb-0ae5f28c97d0 .bg-lines{stroke:rgba(249,249,249,1);stroke-width:2px}</style>
    <script
       type="text/javascript"
       id="script7">window.pygal = window.pygal || {};window.pygal.config = window.pygal.config || {};window.pygal.config['afbce335-9ef9-426f-93eb-0ae5f28c97d0'] = {&quot;dynamic_print_values&quot;: false, &quot;truncate_label&quot;: null, &quot;inner_radius&quot;: 0, &quot;print_values&quot;: false, &quot;xrange&quot;: null, &quot;box_mode&quot;: &quot;extremes&quot;, &quot;title&quot;: &quot;Temps n\u00e9c\u00e9ssaire \u00e0 l'apprentissage (en minutes)&quot;, &quot;legend_at_bottom_columns&quot;: null, &quot;height&quot;: 600, &quot;legend_at_bottom&quot;: false, &quot;show_legend&quot;: true, &quot;show_dots&quot;: true, &quot;explicit_size&quot;: false, &quot;y_labels_major&quot;: null, &quot;show_minor_x_labels&quot;: true, &quot;width&quot;: 800, &quot;force_uri_protocol&quot;: &quot;https&quot;, &quot;half_pie&quot;: false, &quot;style&quot;: {&quot;major_label_font_family&quot;: &quot;Consolas, \&quot;Liberation Mono\&quot;, Menlo, Courier, monospace&quot;, &quot;title_font_family&quot;: &quot;Consolas, \&quot;Liberation Mono\&quot;, Menlo, Courier, monospace&quot;, &quot;stroke_opacity&quot;: &quot;.8&quot;, &quot;legend_font_family&quot;: &quot;Consolas, \&quot;Liberation Mono\&quot;, Menlo, Courier, monospace&quot;, &quot;colors&quot;: [&quot;#F44336&quot;, &quot;#3F51B5&quot;, &quot;#009688&quot;, &quot;#FFC107&quot;, &quot;#FF5722&quot;, &quot;#9C27B0&quot;, &quot;#03A9F4&quot;, &quot;#8BC34A&quot;, &quot;#FF9800&quot;, &quot;#E91E63&quot;, &quot;#2196F3&quot;, &quot;#4CAF50&quot;, &quot;#FFEB3B&quot;, &quot;#673AB7&quot;, &quot;#00BCD4&quot;, &quot;#CDDC39&quot;, &quot;#9E9E9E&quot;, &quot;#607D8B&quot;], &quot;legend_font_size&quot;: 14, &quot;no_data_font_family&quot;: &quot;Consolas, \&quot;Liberation Mono\&quot;, Menlo, Courier, monospace&quot;, &quot;major_label_font_size&quot;: 10, &quot;value_background&quot;: &quot;rgba(229, 229, 229, 1)&quot;, &quot;ci_colors&quot;: [], &quot;label_font_family&quot;: &quot;Consolas, \&quot;Liberation Mono\&quot;, Menlo, Courier, monospace&quot;, &quot;label_font_size&quot;: 10, &quot;tooltip_font_size&quot;: 14, &quot;value_font_size&quot;: 16, &quot;font_family&quot;: &quot;Consolas, \&quot;Liberation Mono\&quot;, Menlo, Courier, monospace&quot;, &quot;opacity&quot;: &quot;.7&quot;, &quot;foreground&quot;: &quot;rgba(0, 0, 0, .87)&quot;, &quot;plot_background&quot;: &quot;rgba(255, 255, 255, 1)&quot;, &quot;value_label_font_size&quot;: 10, &quot;value_label_font_family&quot;: &quot;Consolas, \&quot;Liberation Mono\&quot;, Menlo, Courier, monospace&quot;, &quot;background&quot;: &quot;rgba(249, 249, 249, 1)&quot;, &quot;no_data_font_size&quot;: 64, &quot;value_colors&quot;: [], &quot;guide_stroke_dasharray&quot;: &quot;4,4&quot;, &quot;transition&quot;: &quot;150ms&quot;, &quot;foreground_subtle&quot;: &quot;rgba(0, 0, 0, .54)&quot;, &quot;value_font_family&quot;: &quot;Consolas, \&quot;Liberation Mono\&quot;, Menlo, Courier, monospace&quot;, &quot;tooltip_font_family&quot;: &quot;Consolas, \&quot;Liberation Mono\&quot;, Menlo, Courier, monospace&quot;, &quot;title_font_size&quot;: 16, &quot;stroke_opacity_hover&quot;: &quot;.9&quot;, &quot;major_guide_stroke_dasharray&quot;: &quot;6,6&quot;, &quot;opacity_hover&quot;: &quot;.8&quot;, &quot;foreground_strong&quot;: &quot;rgba(0, 0, 0, 1)&quot;}, &quot;x_label_rotation&quot;: 0, &quot;fill&quot;: false, &quot;missing_value_fill_truncation&quot;: &quot;x&quot;, &quot;zero&quot;: 0, &quot;margin_right&quot;: null, &quot;interpolation_parameters&quot;: {}, &quot;x_labels_major&quot;: null, &quot;rounded_bars&quot;: null, &quot;show_y_labels&quot;: true, &quot;dots_size&quot;: 2.5, &quot;show_y_guides&quot;: true, &quot;show_minor_y_labels&quot;: true, &quot;x_labels&quot;: [&quot;AE&quot;, &quot;DDAE&quot;, &quot;SAE&quot;, &quot;SDAE(seq)&quot;, &quot;SDAE(parallel)&quot;], &quot;y_title&quot;: null, &quot;order_min&quot;: null, &quot;formatter&quot;: null, &quot;disable_xml_declaration&quot;: false, &quot;strict&quot;: false, &quot;css&quot;: [&quot;file://style.css&quot;, &quot;file://graph.css&quot;], &quot;tooltip_fancy_mode&quot;: true, &quot;defs&quot;: [], &quot;show_only_major_dots&quot;: false, &quot;y_label_rotation&quot;: 0, &quot;show_x_labels&quot;: true, &quot;min_scale&quot;: 4, &quot;show_x_guides&quot;: false, &quot;spacing&quot;: 10, &quot;x_labels_major_count&quot;: null, &quot;pretty_print&quot;: false, &quot;tooltip_border_radius&quot;: 0, &quot;interpolate&quot;: null, &quot;js&quot;: [&quot;//kozea.github.io/pygal.js/2.0.x/pygal-tooltips.min.js&quot;], &quot;y_labels&quot;: null, &quot;stroke_style&quot;: null, &quot;print_labels&quot;: false, &quot;interpolation_precision&quot;: 250, &quot;x_title&quot;: null, &quot;y_labels_major_every&quot;: null, &quot;logarithmic&quot;: false, &quot;legends&quot;: [&quot;&quot;, &quot;&quot;, &quot;&quot;, &quot;&quot;, &quot;&quot;, &quot;&quot;, &quot;&quot;], &quot;max_scale&quot;: 16, &quot;print_zeroes&quot;: true, &quot;no_data_text&quot;: &quot;No data&quot;, &quot;truncate_legend&quot;: null, &quot;x_labels_major_every&quot;: null, &quot;secondary_range&quot;: null, &quot;legend_box_size&quot;: 12, &quot;no_prefix&quot;: false, &quot;stroke&quot;: true, &quot;stack_from_top&quot;: false, &quot;include_x_axis&quot;: false, &quot;range&quot;: null, &quot;classes&quot;: [&quot;pygal-chart&quot;], &quot;margin_top&quot;: null, &quot;margin_left&quot;: null, &quot;y_labels_major_count&quot;: null, &quot;margin_bottom&quot;: null, &quot;inverse_y_axis&quot;: false, &quot;margin&quot;: 20, &quot;allow_interruptions&quot;: false, &quot;print_values_position&quot;: &quot;center&quot;}</script>
    <script
       type="text/javascript"
       xlink:href="https://kozea.github.io/pygal.js/2.0.x/pygal-tooltips.min.js"
       id="script9" />
  </defs>
  <title
     id="title11">Temps nécéssaire à l'apprentissage (en minutes)</title>
  <text
     class="major"
     x="175.1821"
     y="540.46442"
     id="text27"
     style="font-size:15.14281368px;font-family:Consolas, 'Liberation Mono', Menlo, Courier, monospace;text-anchor:end;stroke:none">0</text>
  <text
     class=""
     x="175.1821"
     y="448.39294"
     id="text35"
     style="font-size:15.14281368px;font-family:Consolas, 'Liberation Mono', Menlo, Courier, monospace;text-anchor:end;stroke:none">10</text>
  <text
     class=""
     x="175.1821"
     y="350.08377"
     id="text43"
     style="font-size:15.14281368px;font-family:Consolas, 'Liberation Mono', Menlo, Courier, monospace;text-anchor:end;stroke:none">20</text>
  <text
     class=""
     x="175.1821"
     y="251.23761"
     id="text51"
     style="font-size:15.14281368px;font-family:Consolas, 'Liberation Mono', Menlo, Courier, monospace;text-anchor:end;stroke:none">30</text>
  <text
     class=""
     x="175.1821"
     y="152.35448"
     id="text59"
     style="font-size:15.14281368px;font-family:Consolas, 'Liberation Mono', Menlo, Courier, monospace;text-anchor:end;stroke:none">40</text>
  <text
     class="major"
     x="175.1821"
     y="53.508324"
     id="text67"
     style="font-size:15.14281368px;font-family:Consolas, 'Liberation Mono', Menlo, Courier, monospace;text-anchor:end;stroke:none">50</text>
  <text
     class=""
     x="262.77585"
     y="561.15619"
     id="text79"
     style="font-size:13.64682198px;font-family:Consolas, 'Liberation Mono', Menlo, Courier, monospace;text-anchor:middle;stroke:none">AE</text>
  <text
     class=""
     x="400.13498"
     y="561.15619"
     id="text85"
     style="font-size:13.64682198px;font-family:Consolas, 'Liberation Mono', Menlo, Courier, monospace;text-anchor:middle;stroke:none">DDAE</text>
  <text
     class=""
     x="537.82062"
     y="561.15619"
     id="text91"
     style="font-size:13.64682198px;font-family:Consolas, 'Liberation Mono', Menlo, Courier, monospace;text-anchor:middle;stroke:none">SAE</text>
  <text
     class=""
     x="676.49585"
     y="561.15619"
     id="text97"
     style="font-size:13.64682198px;font-family:Consolas, 'Liberation Mono', Menlo, Courier, monospace;text-anchor:middle;stroke:none">SDAE(seq)</text>
  <text
     class=""
     x="814.18811"
     y="561.15619"
     id="text103"
     style="font-size:13.64682198px;font-family:Consolas, 'Liberation Mono', Menlo, Courier, monospace;text-anchor:middle;stroke:none">SDAE(parallel)</text>
  <rect
     style="color:#000000;clip-rule:nonzero;display:inline;overflow:visible;visibility:visible;opacity:1;isolation:auto;mix-blend-mode:normal;color-interpolation:sRGB;color-interpolation-filters:linearRGB;solid-color:#000000;solid-opacity:1;fill:#03a9f4;fill-opacity:0.7;fill-rule:nonzero;stroke:#0095ff;stroke-width:2;stroke-linecap:butt;stroke-linejoin:miter;stroke-miterlimit:4;stroke-dasharray:none;stroke-dashoffset:0;stroke-opacity:0.8;color-rendering:auto;image-rendering:auto;shape-rendering:auto;text-rendering:auto;enable-background:accumulate"
     id="rect111"
     y="438.1911"
     x="201.88139"
     width="121.16923"
     ry="0"
     rx="0"
     height="98.846153"
     class="rect reactive tooltip-trigger" />
  <rect
     style="fill:#f44336;fill-opacity:0.7;stroke:#f44336;stroke-opacity:0.8"
     id="rect123"
     y="537.03723"
     x="339.5737"
     width="121.16923"
     ry="0"
     rx="0"
     height="0"
     class="rect reactive tooltip-trigger" />
  <rect
     style="color:#000000;clip-rule:nonzero;display:inline;overflow:visible;visibility:visible;opacity:1;isolation:auto;mix-blend-mode:normal;color-interpolation:sRGB;color-interpolation-filters:linearRGB;solid-color:#000000;solid-opacity:1;fill:#03a9f4;fill-opacity:0.7;fill-rule:nonzero;stroke:#0095ff;stroke-width:2;stroke-linecap:butt;stroke-linejoin:miter;stroke-miterlimit:4;stroke-dasharray:none;stroke-dashoffset:0;stroke-opacity:0.8;color-rendering:auto;image-rendering:auto;shape-rendering:auto;text-rendering:auto;enable-background:accumulate"
     id="rect135"
     y="438.1911"
     x="477.26599"
     width="121.16923"
     ry="0"
     rx="0"
     height="98.846153"
     class="rect reactive tooltip-trigger" />
  <rect
     style="color:#000000;clip-rule:nonzero;display:inline;overflow:visible;visibility:visible;opacity:1;isolation:auto;mix-blend-mode:normal;color-interpolation:sRGB;color-interpolation-filters:linearRGB;solid-color:#000000;solid-opacity:1;fill:#03a9f4;fill-opacity:0.7;fill-rule:nonzero;stroke:#0095ff;stroke-width:2;stroke-linecap:butt;stroke-linejoin:miter;stroke-miterlimit:4;stroke-dasharray:none;stroke-dashoffset:0;stroke-opacity:0.8;color-rendering:auto;image-rendering:auto;shape-rendering:auto;text-rendering:auto;enable-background:accumulate"
     id="rect147"
     y="438.1911"
     x="614.95831"
     width="121.16923"
     ry="0"
     rx="0"
     height="98.846153"
     class="rect reactive tooltip-trigger" />
  <rect
     style="color:#000000;clip-rule:nonzero;display:inline;overflow:visible;visibility:visible;opacity:1;isolation:auto;mix-blend-mode:normal;color-interpolation:sRGB;color-interpolation-filters:linearRGB;solid-color:#000000;solid-opacity:1;fill:#03a9f4;fill-opacity:0.7;fill-rule:nonzero;stroke:#0095ff;stroke-width:2;stroke-linecap:butt;stroke-linejoin:miter;stroke-miterlimit:4;stroke-dasharray:none;stroke-dashoffset:0;stroke-opacity:0.8;color-rendering:auto;image-rendering:auto;shape-rendering:auto;text-rendering:auto;enable-background:accumulate"
     id="rect159"
     y="438.1911"
     x="752.65063"
     width="121.16923"
     ry="0"
     rx="0"
     height="98.846153"
     class="rect reactive tooltip-trigger" />
  <rect
     style="fill:#3f51b5;fill-opacity:0.7;stroke:#3f51b5;stroke-opacity:0.8"
     id="rect175"
     y="438.1911"
     x="201.88139"
     width="121.16923"
     ry="0"
     rx="0"
     height="0"
     class="rect reactive tooltip-trigger" />
  <rect
     style="fill:#3f51b5;fill-opacity:0.7;stroke:#3f51b5;stroke-opacity:0.8"
     id="rect187"
     y="537.03723"
     x="339.5737"
     width="121.16923"
     ry="0"
     rx="0"
     height="0"
     class="rect reactive tooltip-trigger" />
  <rect
     style="fill:#3f51b5;fill-opacity:0.7;stroke:#3f51b5;stroke-opacity:0.8"
     id="rect199"
     y="438.1911"
     x="477.26599"
     width="121.16923"
     ry="0"
     rx="0"
     height="0"
     class="rect reactive tooltip-trigger" />
  <rect
     style="color:#000000;clip-rule:nonzero;display:inline;overflow:visible;visibility:visible;opacity:1;isolation:auto;mix-blend-mode:normal;color-interpolation:sRGB;color-interpolation-filters:linearRGB;solid-color:#000000;solid-opacity:1;fill:#03a9f4;fill-opacity:0.7;fill-rule:nonzero;stroke:#0095ff;stroke-width:2;stroke-linecap:butt;stroke-linejoin:miter;stroke-miterlimit:4;stroke-dasharray:none;stroke-dashoffset:0;stroke-opacity:0.8;color-rendering:auto;image-rendering:auto;shape-rendering:auto;text-rendering:auto;enable-background:accumulate"
     id="rect211"
     y="339.34494"
     x="614.95831"
     width="121.16923"
     ry="0"
     rx="0"
     height="98.846153"
     class="rect reactive tooltip-trigger" />
  <rect
     style="fill:#3f51b5;fill-opacity:0.7;stroke:#3f51b5;stroke-opacity:0.8"
     id="rect223"
     y="438.1911"
     x="752.65063"
     width="121.16923"
     ry="0"
     rx="0"
     height="0"
     class="rect reactive tooltip-trigger" />
  <rect
     style="fill:#009688;fill-opacity:0.7;stroke:#009688;stroke-opacity:0.8"
     id="rect239"
     y="438.1911"
     x="201.88139"
     width="121.16923"
     ry="0"
     rx="0"
     height="0"
     class="rect reactive tooltip-trigger" />
  <rect
     style="color:#000000;clip-rule:nonzero;display:inline;overflow:visible;visibility:visible;opacity:1;isolation:auto;mix-blend-mode:normal;color-interpolation:sRGB;color-interpolation-filters:linearRGB;solid-color:#000000;solid-opacity:1;fill:#03a9f4;fill-opacity:0.7;fill-rule:nonzero;stroke:#0095ff;stroke-width:2;stroke-linecap:butt;stroke-linejoin:miter;stroke-miterlimit:4;stroke-dasharray:none;stroke-dashoffset:0;stroke-opacity:0.8;color-rendering:auto;image-rendering:auto;shape-rendering:auto;text-rendering:auto;enable-background:accumulate"
     id="rect251"
     y="289.92188"
     x="339.5737"
     width="121.16923"
     ry="0"
     rx="0"
     height="247.11539"
     class="rect reactive tooltip-trigger" />
  <rect
     style="fill:#009688;fill-opacity:0.7;stroke:#009688;stroke-opacity:0.8"
     id="rect263"
     y="438.1911"
     x="477.26599"
     width="121.16923"
     ry="0"
     rx="0"
     height="0"
     class="rect reactive tooltip-trigger" />
  <rect
     style="fill:#009688;fill-opacity:0.7;stroke:#009688;stroke-opacity:0.8"
     id="rect275"
     y="339.34494"
     x="614.95831"
     width="121.16923"
     ry="0"
     rx="0"
     height="0"
     class="rect reactive tooltip-trigger" />
  <rect
     style="fill:#009688;fill-opacity:0.7;stroke:#009688;stroke-opacity:0.8"
     id="rect287"
     y="438.1911"
     x="752.65063"
     width="121.16923"
     ry="0"
     rx="0"
     height="0"
     class="rect reactive tooltip-trigger" />
  <rect
     style="fill:#ffc107;fill-opacity:0.7;stroke:#ffc107;stroke-opacity:0.8"
     id="rect303"
     y="438.1911"
     x="201.88139"
     width="121.16923"
     ry="0"
     rx="0"
     height="0"
     class="rect reactive tooltip-trigger" />
  <rect
     style="fill:#ffc107;fill-opacity:0.7;stroke:#ffc107;stroke-opacity:0.8"
     id="rect315"
     y="289.92188"
     x="339.5737"
     width="121.16923"
     ry="0"
     rx="0"
     height="0"
     class="rect reactive tooltip-trigger" />
  <rect
     style="color:#000000;clip-rule:nonzero;display:inline;overflow:visible;visibility:visible;opacity:1;isolation:auto;mix-blend-mode:normal;color-interpolation:sRGB;color-interpolation-filters:linearRGB;solid-color:#000000;solid-opacity:1;fill:#03a9f4;fill-opacity:0.7;fill-rule:nonzero;stroke:#0095ff;stroke-width:2;stroke-linecap:butt;stroke-linejoin:miter;stroke-miterlimit:4;stroke-dasharray:none;stroke-dashoffset:0;stroke-opacity:0.8;color-rendering:auto;image-rendering:auto;shape-rendering:auto;text-rendering:auto;enable-background:accumulate"
     id="rect327"
     y="339.34494"
     x="477.26599"
     width="121.16923"
     ry="0"
     rx="0"
     height="98.846153"
     class="rect reactive tooltip-trigger" />
  <rect
     style="fill:#ffc107;fill-opacity:0.7;stroke:#ffc107;stroke-opacity:0.8"
     id="rect339"
     y="339.34494"
     x="614.95831"
     width="121.16923"
     ry="0"
     rx="0"
     height="0"
     class="rect reactive tooltip-trigger" />
  <rect
     style="fill:#ffc107;fill-opacity:0.7;stroke:#ffc107;stroke-opacity:0.8"
     id="rect351"
     y="438.1911"
     x="752.65063"
     width="121.16923"
     ry="0"
     rx="0"
     height="0"
     class="rect reactive tooltip-trigger" />
  <rect
     style="fill:#ff5722;fill-opacity:0.7;stroke:#ff5722;stroke-opacity:0.8"
     id="rect367"
     y="438.1911"
     x="201.88139"
     width="121.16923"
     ry="0"
     rx="0"
     height="0"
     class="rect reactive tooltip-trigger" />
  <rect
     style="fill:#ff5722;fill-opacity:0.7;stroke:#ff5722;stroke-opacity:0.8"
     id="rect379"
     y="289.92188"
     x="339.5737"
     width="121.16923"
     ry="0"
     rx="0"
     height="0"
     class="rect reactive tooltip-trigger" />
  <rect
     style="color:#000000;clip-rule:nonzero;display:inline;overflow:visible;visibility:visible;opacity:1;isolation:auto;mix-blend-mode:normal;color-interpolation:sRGB;color-interpolation-filters:linearRGB;solid-color:#000000;solid-opacity:1;fill:#03a9f4;fill-opacity:0.7;fill-rule:nonzero;stroke:#0095ff;stroke-width:2;stroke-linecap:butt;stroke-linejoin:miter;stroke-miterlimit:4;stroke-dasharray:none;stroke-dashoffset:0;stroke-opacity:0.8;color-rendering:auto;image-rendering:auto;shape-rendering:auto;text-rendering:auto;enable-background:accumulate"
     id="rect391"
     y="240.49879"
     x="477.26599"
     width="121.16923"
     ry="0"
     rx="0"
     height="98.846153"
     class="rect reactive tooltip-trigger" />
  <rect
     style="fill:#ff5722;fill-opacity:0.7;stroke:#ff5722;stroke-opacity:0.8"
     id="rect403"
     y="339.34494"
     x="614.95831"
     width="121.16923"
     ry="0"
     rx="0"
     height="0"
     class="rect reactive tooltip-trigger" />
  <rect
     style="fill:#ff5722;fill-opacity:0.7;stroke:#ff5722;stroke-opacity:0.8"
     id="rect415"
     y="438.1911"
     x="752.65063"
     width="121.16923"
     ry="0"
     rx="0"
     height="0"
     class="rect reactive tooltip-trigger" />
  <rect
     style="fill:#9c27b0;fill-opacity:0.7;stroke:#9c27b0;stroke-opacity:0.8"
     id="rect431"
     y="438.1911"
     x="201.88139"
     width="121.16923"
     ry="0"
     rx="0"
     height="0"
     class="rect reactive tooltip-trigger" />
  <rect
     style="fill:#9c27b0;fill-opacity:0.7;stroke:#9c27b0;stroke-opacity:0.8"
     id="rect443"
     y="289.92188"
     x="339.5737"
     width="121.16923"
     ry="0"
     rx="0"
     height="0"
     class="rect reactive tooltip-trigger" />
  <rect
     style="color:#000000;clip-rule:nonzero;display:inline;overflow:visible;visibility:visible;opacity:1;isolation:auto;mix-blend-mode:normal;color-interpolation:sRGB;color-interpolation-filters:linearRGB;solid-color:#000000;solid-opacity:1;fill:#03a9f4;fill-opacity:0.7;fill-rule:nonzero;stroke:#0095ff;stroke-width:2;stroke-linecap:butt;stroke-linejoin:miter;stroke-miterlimit:4;stroke-dasharray:none;stroke-dashoffset:0;stroke-opacity:0.8;color-rendering:auto;image-rendering:auto;shape-rendering:auto;text-rendering:auto;enable-background:accumulate"
     id="rect455"
     y="42.806488"
     x="477.26599"
     width="121.16923"
     ry="0"
     rx="0"
     height="197.69231"
     class="rect reactive tooltip-trigger" />
  <rect
     style="fill:#9c27b0;fill-opacity:0.7;stroke:#9c27b0;stroke-opacity:0.8"
     id="rect467"
     y="339.34494"
     x="614.95831"
     width="121.16923"
     ry="0"
     rx="0"
     height="0"
     class="rect reactive tooltip-trigger" />
  <rect
     style="fill:#9c27b0;fill-opacity:0.7;stroke:#9c27b0;stroke-opacity:0.8"
     id="rect479"
     y="438.1911"
     x="752.65063"
     width="121.16923"
     ry="0"
     rx="0"
     height="0"
     class="rect reactive tooltip-trigger" />
  <rect
     style="fill:#03a9f4;fill-opacity:0.7;stroke:#03a9f4;stroke-opacity:0.8"
     id="rect495"
     y="438.1911"
     x="201.88139"
     width="121.16923"
     ry="0"
     rx="0"
     height="0"
     class="rect reactive tooltip-trigger" />
  <rect
     style="fill:#03a9f4;fill-opacity:0.7;stroke:#03a9f4;stroke-opacity:0.8"
     id="rect507"
     y="289.92188"
     x="339.5737"
     width="121.16923"
     ry="0"
     rx="0"
     height="0"
     class="rect reactive tooltip-trigger" />
  <rect
     style="fill:#03a9f4;fill-opacity:0.7;stroke:#03a9f4;stroke-opacity:0.8"
     id="rect519"
     y="42.806488"
     x="477.26599"
     width="121.16923"
     ry="0"
     rx="0"
     height="0"
     class="rect reactive tooltip-trigger" />
  <rect
     style="color:#000000;clip-rule:nonzero;display:inline;overflow:visible;visibility:visible;opacity:1;isolation:auto;mix-blend-mode:normal;color-interpolation:sRGB;color-interpolation-filters:linearRGB;solid-color:#000000;solid-opacity:1;fill:#03a9f4;fill-opacity:0.7;fill-rule:nonzero;stroke:#0095ff;stroke-width:2;stroke-linecap:butt;stroke-linejoin:miter;stroke-miterlimit:4;stroke-dasharray:none;stroke-dashoffset:0;stroke-opacity:0.8;color-rendering:auto;image-rendering:auto;shape-rendering:auto;text-rendering:auto;enable-background:accumulate"
     id="rect531"
     y="191.07571"
     x="614.95831"
     width="121.16923"
     ry="0"
     rx="0"
     height="148.26923"
     class="rect reactive tooltip-trigger" />
  <rect
     style="fill:#03a9f4;fill-opacity:0.7;stroke:#0095ff;stroke-width:2;stroke-miterlimit:4;stroke-dasharray:none;stroke-opacity:0.8"
     id="rect543"
     y="289.92188"
     x="752.65063"
     width="121.16923"
     ry="0"
     rx="0"
     height="148.26923"
     class="rect reactive tooltip-trigger" />
  <text
     class="title plot_title"
     x="515.85065"
     y="12.921875"
     id="text555"
     style="font-size:16px;font-family:Consolas, 'Liberation Mono', Menlo, Courier, monospace;text-anchor:middle;stroke:none">Temps nécéssaire à l'apprentissage (en minutes)</text>
  <rect
     style="font-size:medium;font-family:Consolas, 'Liberation Mono', Menlo, Courier, monospace;fill-opacity:0.95;stroke-width:0.5"
     y="32.921875"
     x="179.85063"
     id="rect593"
     width="0"
     ry="0"
     rx="0"
     height="0"
     class="tooltip-box" />
  <text
     style="font-size:14px;font-family:Consolas, 'Liberation Mono', Menlo, Courier, monospace;fill-opacity:1;stroke:none;stroke-opacity:0.8"
     id="text602"
     y="54.121872"
     x="142.85063" />
  <text
     style="font-size:14px;font-family:Consolas, 'Liberation Mono', Menlo, Courier, monospace;fill-opacity:1;stroke:none;stroke-opacity:0.8"
     id="text607"
     y="75.121872"
     x="142.85063" />
  <text
     style="font-size:14px;font-family:Consolas, 'Liberation Mono', Menlo, Courier, monospace;fill-opacity:1;stroke:none;stroke-opacity:0.8"
     id="text612"
     y="96.121872"
     x="142.85063" />
  <text
     style="font-size:14px;font-family:Consolas, 'Liberation Mono', Menlo, Courier, monospace;fill-opacity:1;stroke:none;stroke-opacity:0.8"
     id="text617"
     y="117.12187"
     x="142.85063" />
  <text
     style="font-size:14px;font-family:Consolas, 'Liberation Mono', Menlo, Courier, monospace;fill-opacity:1;stroke:none;stroke-opacity:0.8"
     id="text622"
     y="138.12187"
     x="142.85063" />
  <text
     style="font-size:14px;font-family:Consolas, 'Liberation Mono', Menlo, Courier, monospace;fill-opacity:1;stroke:none;stroke-opacity:0.8"
     id="text627"
     y="159.12187"
     x="142.85063" />
  <text
     style="font-size:14px;font-family:Consolas, 'Liberation Mono', Menlo, Courier, monospace;fill-opacity:1;stroke:none;stroke-opacity:0.8"
     id="text632"
     y="180.12187"
     x="142.85063" />
  <path
     style="fill:none;fill-rule:evenodd;stroke:#0095ff;stroke-width:2.20000005;stroke-linecap:butt;stroke-linejoin:miter;stroke-miterlimit:4;stroke-dasharray:none;stroke-opacity:0.8"
     d="m 109.4947,41.582892 31.77966,0"
     id="path5963"
     inkscape:connector-curvature="0" />
  <text
     class=""
     x="64.453163"
     y="49.457146"
     id="text79-6"
     style="font-size:13.64682198px;font-family:Consolas, 'Liberation Mono', Menlo, Courier, monospace;text-anchor:middle;stroke:none" />
  <text
     class=""
     x="64.453163"
     y="49.457146"
     style="font-size:13.64682198px;font-family:Consolas, 'Liberation Mono', Menlo, Courier, monospace;text-anchor:middle;stroke:none"
     id="text5980" />
  <flowRoot
     xml:space="preserve"
     id="flowRoot5982"
     style="color:#000000;font-style:normal;font-variant:normal;font-weight:normal;font-stretch:normal;font-size:13.64682198px;line-height:normal;font-family:Consolas, 'Liberation Mono', Menlo, Courier, monospace;-inkscape-font-specification:Helvetica;text-indent:0;text-align:start;text-decoration:none;text-decoration-line:none;text-decoration-style:solid;text-decoration-color:#000000;letter-spacing:normal;word-spacing:normal;text-transform:none;direction:ltr;block-progression:tb;writing-mode:lr-tb;baseline-shift:baseline;text-anchor:middle;white-space:normal;clip-rule:nonzero;display:inline;overflow:visible;visibility:visible;opacity:1;isolation:auto;mix-blend-mode:normal;color-interpolation:sRGB;color-interpolation-filters:linearRGB;solid-color:#000000;solid-opacity:1;fill:#000000;fill-opacity:1;fill-rule:nonzero;stroke:none;stroke-width:1;stroke-linecap:butt;stroke-linejoin:miter;stroke-miterlimit:4;stroke-dasharray:none;stroke-dashoffset:0;stroke-opacity:1;color-rendering:auto;image-rendering:auto;shape-rendering:auto;text-rendering:auto;enable-background:accumulate"
     transform="translate(95.362826,-28.687881)"><flowRegion
       id="flowRegion5984"><rect
         id="rect5986"
         width="120"
         height="61.463428"
         x="-95.609756"
         y="50.731709"
         style="color:#000000;font-style:normal;font-variant:normal;font-weight:normal;font-stretch:normal;font-size:13.64682198px;line-height:normal;font-family:Consolas, 'Liberation Mono', Menlo, Courier, monospace;text-indent:0;text-align:start;text-decoration:none;text-decoration-line:none;text-decoration-style:solid;text-decoration-color:#000000;letter-spacing:normal;word-spacing:normal;text-transform:none;direction:ltr;block-progression:tb;writing-mode:lr-tb;baseline-shift:baseline;text-anchor:middle;white-space:normal;clip-rule:nonzero;display:inline;overflow:visible;visibility:visible;isolation:auto;mix-blend-mode:normal;color-interpolation:sRGB;color-interpolation-filters:linearRGB;solid-color:#000000;solid-opacity:1;fill:#000000;fill-opacity:1;fill-rule:nonzero;stroke:none;stroke-width:1;stroke-linecap:butt;stroke-linejoin:miter;stroke-miterlimit:4;stroke-dasharray:none;stroke-dashoffset:0;stroke-opacity:1;color-rendering:auto;image-rendering:auto;shape-rendering:auto;text-rendering:auto;enable-background:accumulate" /></flowRegion><flowPara
       id="flowPara5988">Apprentissage en plusieurs étapes</flowPara></flowRoot></svg>
